{
    "instances": {
        "abz8": {
            "Time (s) [avg per one run]": 116.04266666666668,
            "Time (s) [min per one run]": 90.022,
            "Time (s) [max per one run]": 153.098,
            "Objective value [avg per one run]": 0.0,
            "Branch count [avg per one run]": 1141514.0,
            "Solution is optimal [avg per one run]": 1.0,
            "MaxObjective [-1 means no maxObjective]": 643
        },
        "cscmax_20_15_1": {
            "Time (s) [avg per one run]": 42.37866666666667,
            "Time (s) [min per one run]": 41.07,
            "Time (s) [max per one run]": 44.017,
            "Objective value [avg per one run]": 0.0,
            "Branch count [avg per one run]": 540484.0,
            "Solution is optimal [avg per one run]": 1.0,
            "MaxObjective [-1 means no maxObjective]": 3160
        },
        "cscmax_20_15_5": {
            "Time (s) [avg per one run]": 129.70566666666667,
            "Time (s) [min per one run]": 47.067,
            "Time (s) [max per one run]": 289.034,
            "Objective value [avg per one run]": 0.0,
            "Branch count [avg per one run]": 1391568.3333333333,
            "Solution is optimal [avg per one run]": 1.0,
            "MaxObjective [-1 means no maxObjective]": 3291
        },
        "cscmax_20_15_7": {
            "Time (s) [avg per one run]": 76.70800000000001,
            "Time (s) [min per one run]": 52.054,
            "Time (s) [max per one run]": 106.066,
            "Objective value [avg per one run]": 0.0,
            "Branch count [avg per one run]": 848836.3333333334,
            "Solution is optimal [avg per one run]": 1.0,
            "MaxObjective [-1 means no maxObjective]": 3365
        },
        "cscmax_20_15_8": {
            "Time (s) [avg per one run]": 143.38166666666666,
            "Time (s) [min per one run]": 123.053,
            "Time (s) [max per one run]": 165.051,
            "Objective value [avg per one run]": 0.0,
            "Branch count [avg per one run]": 1507269.3333333333,
            "Solution is optimal [avg per one run]": 1.0,
            "MaxObjective [-1 means no maxObjective]": 3375
        },
        "cscmax_20_20_9": {
            "Time (s) [avg per one run]": 92.38133333333333,
            "Time (s) [min per one run]": 89.07,
            "Time (s) [max per one run]": 98.068,
            "Objective value [avg per one run]": 0.0,
            "Branch count [avg per one run]": 835066.0,
            "Solution is optimal [avg per one run]": 1.0,
            "MaxObjective [-1 means no maxObjective]": 3557
        },
        "cscmax_30_15_10": {
            "Time (s) [avg per one run]": 104.73666666666666,
            "Time (s) [min per one run]": 94.088,
            "Time (s) [max per one run]": 111.086,
            "Objective value [avg per one run]": 0.0,
            "Branch count [avg per one run]": 789033.3333333334,
            "Solution is optimal [avg per one run]": 1.0,
            "MaxObjective [-1 means no maxObjective]": 4228
        },
        "cscmax_30_15_2": {
            "Time (s) [avg per one run]": 48.067,
            "Time (s) [min per one run]": 18.084,
            "Time (s) [max per one run]": 66.098,
            "Objective value [avg per one run]": 0.0,
            "Branch count [avg per one run]": 413756.3333333333,
            "Solution is optimal [avg per one run]": 1.0,
            "MaxObjective [-1 means no maxObjective]": 4013
        },
        "cscmax_30_15_5": {
            "Time (s) [avg per one run]": 96.40933333333334,
            "Time (s) [min per one run]": 93.066,
            "Time (s) [max per one run]": 101.091,
            "Objective value [avg per one run]": 0.0,
            "Branch count [avg per one run]": 776709.6666666666,
            "Solution is optimal [avg per one run]": 1.0,
            "MaxObjective [-1 means no maxObjective]": 4263
        },
        "cscmax_30_15_9": {
            "Time (s) [avg per one run]": 39.050666666666665,
            "Time (s) [min per one run]": 31.069,
            "Time (s) [max per one run]": 51.081,
            "Objective value [avg per one run]": 0.0,
            "Branch count [avg per one run]": 357825.6666666667,
            "Solution is optimal [avg per one run]": 1.0,
            "MaxObjective [-1 means no maxObjective]": 4156
        },
        "cscmax_30_20_3": {
            "Time (s) [avg per one run]": 115.057,
            "Time (s) [min per one run]": 109.051,
            "Time (s) [max per one run]": 118.091,
            "Objective value [avg per one run]": 0.0,
            "Branch count [avg per one run]": 780934.6666666666,
            "Solution is optimal [avg per one run]": 1.0,
            "MaxObjective [-1 means no maxObjective]": 4421
        },
        "cscmax_30_20_4": {
            "Time (s) [avg per one run]": 189.37466666666668,
            "Time (s) [min per one run]": 142.066,
            "Time (s) [max per one run]": 226.058,
            "Objective value [avg per one run]": 0.0,
            "Branch count [avg per one run]": 1147033.3333333333,
            "Solution is optimal [avg per one run]": 1.0,
            "MaxObjective [-1 means no maxObjective]": 4431
        },
        "cscmax_30_20_6": {
            "Time (s) [avg per one run]": 153.7446666666667,
            "Time (s) [min per one run]": 146.082,
            "Time (s) [max per one run]": 168.076,
            "Objective value [avg per one run]": 0.0,
            "Branch count [avg per one run]": 988798.6666666666,
            "Solution is optimal [avg per one run]": 1.0,
            "MaxObjective [-1 means no maxObjective]": 4323
        },
        "cscmax_40_20_5": {
            "Time (s) [avg per one run]": 71.38966666666667,
            "Time (s) [min per one run]": 63.048,
            "Time (s) [max per one run]": 78.057,
            "Objective value [avg per one run]": 0.0,
            "Branch count [avg per one run]": 401427.3333333333,
            "Solution is optimal [avg per one run]": 1.0,
            "MaxObjective [-1 means no maxObjective]": 5472
        },
        "cscmax_40_20_6": {
            "Time (s) [avg per one run]": 262.378,
            "Time (s) [min per one run]": 224.075,
            "Time (s) [max per one run]": 308.057,
            "Objective value [avg per one run]": 0.0,
            "Branch count [avg per one run]": 1239815.6666666667,
            "Solution is optimal [avg per one run]": 1.0,
            "MaxObjective [-1 means no maxObjective]": 5643
        },
        "cscmax_40_20_9": {
            "Time (s) [avg per one run]": 198.39966666666666,
            "Time (s) [min per one run]": 185.097,
            "Time (s) [max per one run]": 208.052,
            "Objective value [avg per one run]": 0.0,
            "Branch count [avg per one run]": 1001004.3333333334,
            "Solution is optimal [avg per one run]": 1.0,
            "MaxObjective [-1 means no maxObjective]": 5604
        },
        "cscmax_50_15_3": {
            "Time (s) [avg per one run]": 3.6999999999999997,
            "Time (s) [min per one run]": 1.029,
            "Time (s) [max per one run]": 7.058,
            "Objective value [avg per one run]": 0.0,
            "Branch count [avg per one run]": 30781.0,
            "Solution is optimal [avg per one run]": 1.0,
            "MaxObjective [-1 means no maxObjective]": 6042
        },
        "cscmax_50_15_6": {
            "Time (s) [avg per one run]": 85.05966666666667,
            "Time (s) [min per one run]": 73.083,
            "Time (s) [max per one run]": 100.025,
            "Objective value [avg per one run]": 0.0,
            "Branch count [avg per one run]": 578673.0,
            "Solution is optimal [avg per one run]": 1.0,
            "MaxObjective [-1 means no maxObjective]": 6429
        },
        "cscmax_50_15_8": {
            "Time (s) [avg per one run]": 11.410666666666666,
            "Time (s) [min per one run]": 5.085,
            "Time (s) [max per one run]": 20.088,
            "Objective value [avg per one run]": 0.0,
            "Branch count [avg per one run]": 79839.33333333333,
            "Solution is optimal [avg per one run]": 1.0,
            "MaxObjective [-1 means no maxObjective]": 6102
        },
        "cscmax_50_20_4": {
            "Time (s) [avg per one run]": 252.36233333333334,
            "Time (s) [min per one run]": 231.018,
            "Time (s) [max per one run]": 293.051,
            "Objective value [avg per one run]": 0.0,
            "Branch count [avg per one run]": 1114526.0,
            "Solution is optimal [avg per one run]": 1.0,
            "MaxObjective [-1 means no maxObjective]": 6516
        },
        "cscmax_50_20_7": {
            "Time (s) [avg per one run]": 266.733,
            "Time (s) [min per one run]": 255.071,
            "Time (s) [max per one run]": 287.029,
            "Objective value [avg per one run]": 0.0,
            "Branch count [avg per one run]": 1145878.0,
            "Solution is optimal [avg per one run]": 1.0,
            "MaxObjective [-1 means no maxObjective]": 6695
        },
        "rcmax_20_15_1": {
            "Time (s) [avg per one run]": 141.73133333333334,
            "Time (s) [min per one run]": 126.068,
            "Time (s) [max per one run]": 160.055,
            "Objective value [avg per one run]": 0.0,
            "Branch count [avg per one run]": 1198156.0,
            "Solution is optimal [avg per one run]": 1.0,
            "MaxObjective [-1 means no maxObjective]": 2736
        },
        "rcmax_20_15_4": {
            "Time (s) [avg per one run]": 111.38633333333333,
            "Time (s) [min per one run]": 104.09,
            "Time (s) [max per one run]": 123.063,
            "Objective value [avg per one run]": 0.0,
            "Branch count [avg per one run]": 982002.0,
            "Solution is optimal [avg per one run]": 1.0,
            "MaxObjective [-1 means no maxObjective]": 2530
        },
        "rcmax_20_15_5": {
            "Time (s) [avg per one run]": 122.05633333333333,
            "Time (s) [min per one run]": 111.095,
            "Time (s) [max per one run]": 129.037,
            "Objective value [avg per one run]": 0.0,
            "Branch count [avg per one run]": 1092733.6666666667,
            "Solution is optimal [avg per one run]": 1.0,
            "MaxObjective [-1 means no maxObjective]": 2730
        },
        "rcmax_20_20_4": {
            "Time (s) [avg per one run]": 120.71833333333332,
            "Time (s) [min per one run]": 115.057,
            "Time (s) [max per one run]": 129.023,
            "Objective value [avg per one run]": 0.0,
            "Branch count [avg per one run]": 863905.0,
            "Solution is optimal [avg per one run]": 1.0,
            "MaxObjective [-1 means no maxObjective]": 2966
        },
        "rcmax_20_20_5": {
            "Time (s) [avg per one run]": 112.39433333333334,
            "Time (s) [min per one run]": 101.053,
            "Time (s) [max per one run]": 121.057,
            "Objective value [avg per one run]": 0.0,
            "Branch count [avg per one run]": 827601.6666666666,
            "Solution is optimal [avg per one run]": 1.0,
            "MaxObjective [-1 means no maxObjective]": 2964
        },
        "rcmax_20_20_8": {
            "Time (s) [avg per one run]": 122.69866666666667,
            "Time (s) [min per one run]": 116.063,
            "Time (s) [max per one run]": 134.008,
            "Objective value [avg per one run]": 0.0,
            "Branch count [avg per one run]": 919247.0,
            "Solution is optimal [avg per one run]": 1.0,
            "MaxObjective [-1 means no maxObjective]": 3082
        },
        "rcmax_30_15_10": {
            "Time (s) [avg per one run]": 0.0,
            "Time (s) [min per one run]": 0.0,
            "Time (s) [max per one run]": 0.0,
            "Objective value [avg per one run]": 0.0,
            "Branch count [avg per one run]": 0.0,
            "Solution is optimal [avg per one run]": 1.0,
            "MaxObjective [-1 means no maxObjective]": 3480
        },
        "rcmax_30_15_4": {
            "Time (s) [avg per one run]": 0.0,
            "Time (s) [min per one run]": 0.0,
            "Time (s) [max per one run]": 0.0,
            "Objective value [avg per one run]": 0.0,
            "Branch count [avg per one run]": 0.0,
            "Solution is optimal [avg per one run]": 1.0,
            "MaxObjective [-1 means no maxObjective]": 3393
        },
        "rcmax_30_15_5": {
            "Time (s) [avg per one run]": 0.0,
            "Time (s) [min per one run]": 0.0,
            "Time (s) [max per one run]": 0.0,
            "Objective value [avg per one run]": 0.0,
            "Branch count [avg per one run]": 0.0,
            "Solution is optimal [avg per one run]": 1.0,
            "MaxObjective [-1 means no maxObjective]": 3680
        },
        "rcmax_30_15_9": {
            "Time (s) [avg per one run]": 0.0,
            "Time (s) [min per one run]": 0.0,
            "Time (s) [max per one run]": 0.0,
            "Objective value [avg per one run]": 0.0,
            "Branch count [avg per one run]": 0.0,
            "Solution is optimal [avg per one run]": 1.0,
            "MaxObjective [-1 means no maxObjective]": 3394
        },
        "rcmax_30_20_2": {
            "Time (s) [avg per one run]": 183.37300000000002,
            "Time (s) [min per one run]": 175.059,
            "Time (s) [max per one run]": 192.046,
            "Objective value [avg per one run]": 0.0,
            "Branch count [avg per one run]": 916306.0,
            "Solution is optimal [avg per one run]": 1.0,
            "MaxObjective [-1 means no maxObjective]": 3609
        },
        "rcmax_30_20_7": {
            "Time (s) [avg per one run]": 0.0,
            "Time (s) [min per one run]": 0.0,
            "Time (s) [max per one run]": 0.0,
            "Objective value [avg per one run]": 0.0,
            "Branch count [avg per one run]": 0.0,
            "Solution is optimal [avg per one run]": 1.0,
            "MaxObjective [-1 means no maxObjective]": 3733
        },
        "rcmax_40_20_1": {
            "Time (s) [avg per one run]": 0.0,
            "Time (s) [min per one run]": 0.0,
            "Time (s) [max per one run]": 0.0,
            "Objective value [avg per one run]": 0.0,
            "Branch count [avg per one run]": 0.0,
            "Solution is optimal [avg per one run]": 1.0,
            "MaxObjective [-1 means no maxObjective]": 4646
        },
        "rcmax_40_20_2": {
            "Time (s) [avg per one run]": 0.0,
            "Time (s) [min per one run]": 0.0,
            "Time (s) [max per one run]": 0.0,
            "Objective value [avg per one run]": 0.0,
            "Branch count [avg per one run]": 0.0,
            "Solution is optimal [avg per one run]": 1.0,
            "MaxObjective [-1 means no maxObjective]": 4690
        },
        "rcmax_40_20_7": {
            "Time (s) [avg per one run]": 0.0,
            "Time (s) [min per one run]": 0.0,
            "Time (s) [max per one run]": 0.0,
            "Objective value [avg per one run]": 0.0,
            "Branch count [avg per one run]": 0.0,
            "Solution is optimal [avg per one run]": 1.0,
            "MaxObjective [-1 means no maxObjective]": 4731
        },
        "rcmax_50_20_2": {
            "Time (s) [avg per one run]": 0.0,
            "Time (s) [min per one run]": 0.0,
            "Time (s) [max per one run]": 0.0,
            "Objective value [avg per one run]": 0.0,
            "Branch count [avg per one run]": 0.0,
            "Solution is optimal [avg per one run]": 1.0,
            "MaxObjective [-1 means no maxObjective]": 5620
        },
        "rcmax_50_20_6": {
            "Time (s) [avg per one run]": 0.0,
            "Time (s) [min per one run]": 0.0,
            "Time (s) [max per one run]": 0.0,
            "Objective value [avg per one run]": 0.0,
            "Branch count [avg per one run]": 0.0,
            "Solution is optimal [avg per one run]": 1.0,
            "MaxObjective [-1 means no maxObjective]": 5712
        },
        "rcmax_50_20_9": {
            "Time (s) [avg per one run]": 0.0,
            "Time (s) [min per one run]": 0.0,
            "Time (s) [max per one run]": 0.0,
            "Objective value [avg per one run]": 0.0,
            "Branch count [avg per one run]": 0.0,
            "Solution is optimal [avg per one run]": 1.0,
            "MaxObjective [-1 means no maxObjective]": 5746
        },
        "swv04": {
            "Time (s) [avg per one run]": 163.6966666666667,
            "Time (s) [min per one run]": 130.043,
            "Time (s) [max per one run]": 228.018,
            "Objective value [avg per one run]": 0.0,
            "Branch count [avg per one run]": 2461103.3333333335,
            "Solution is optimal [avg per one run]": 1.0,
            "MaxObjective [-1 means no maxObjective]": 1455
        },
        "swv07": {
            "Time (s) [avg per one run]": 131.74333333333334,
            "Time (s) [min per one run]": 96.096,
            "Time (s) [max per one run]": 168.079,
            "Objective value [avg per one run]": 0.0,
            "Branch count [avg per one run]": 1420613.3333333333,
            "Solution is optimal [avg per one run]": 1.0,
            "MaxObjective [-1 means no maxObjective]": 1510
        },
        "swv10": {
            "Time (s) [avg per one run]": 565.0253333333333,
            "Time (s) [min per one run]": 157.068,
            "Time (s) [max per one run]": 782.001,
            "Objective value [avg per one run]": 0.0,
            "Branch count [avg per one run]": 6179768.0,
            "Solution is optimal [avg per one run]": 1.0,
            "MaxObjective [-1 means no maxObjective]": 1665
        },
        "swv11": {
            "Time (s) [avg per one run]": 0.0,
            "Time (s) [min per one run]": 0.0,
            "Time (s) [max per one run]": 0.0,
            "Objective value [avg per one run]": 0.0,
            "Branch count [avg per one run]": 0.0,
            "Solution is optimal [avg per one run]": 1.0,
            "MaxObjective [-1 means no maxObjective]": 2982
        },
        "swv14": {
            "Time (s) [avg per one run]": 0.0,
            "Time (s) [min per one run]": 0.0,
            "Time (s) [max per one run]": 0.0,
            "Objective value [avg per one run]": 0.0,
            "Branch count [avg per one run]": 0.0,
            "Solution is optimal [avg per one run]": 1.0,
            "MaxObjective [-1 means no maxObjective]": 2967
        },
        "swv15": {
            "Time (s) [avg per one run]": 0.0,
            "Time (s) [min per one run]": 0.0,
            "Time (s) [max per one run]": 0.0,
            "Objective value [avg per one run]": 0.0,
            "Branch count [avg per one run]": 0.0,
            "Solution is optimal [avg per one run]": 1.0,
            "MaxObjective [-1 means no maxObjective]": 2884
        },
        "ta11": {
            "Time (s) [avg per one run]": 147.71633333333332,
            "Time (s) [min per one run]": 138.015,
            "Time (s) [max per one run]": 163.095,
            "Objective value [avg per one run]": 0.0,
            "Branch count [avg per one run]": 1445706.3333333333,
            "Solution is optimal [avg per one run]": 1.0,
            "MaxObjective [-1 means no maxObjective]": 1332
        },
        "ta12": {
            "Time (s) [avg per one run]": 139.70399999999998,
            "Time (s) [min per one run]": 119.014,
            "Time (s) [max per one run]": 154.039,
            "Objective value [avg per one run]": 0.0,
            "Branch count [avg per one run]": 1209583.6666666667,
            "Solution is optimal [avg per one run]": 1.0,
            "MaxObjective [-1 means no maxObjective]": 1365
        },
        "ta13": {
            "Time (s) [avg per one run]": 187.02366666666663,
            "Time (s) [min per one run]": 170.009,
            "Time (s) [max per one run]": 212.051,
            "Objective value [avg per one run]": 0.0,
            "Branch count [avg per one run]": 1757901.0,
            "Solution is optimal [avg per one run]": 1.0,
            "MaxObjective [-1 means no maxObjective]": 1317
        },
        "ta15": {
            "Time (s) [avg per one run]": 111.73666666666668,
            "Time (s) [min per one run]": 102.098,
            "Time (s) [max per one run]": 118.054,
            "Objective value [avg per one run]": 0.0,
            "Branch count [avg per one run]": 1082136.6666666667,
            "Solution is optimal [avg per one run]": 1.0,
            "MaxObjective [-1 means no maxObjective]": 1326
        },
        "ta16": {
            "Time (s) [avg per one run]": 197.04933333333335,
            "Time (s) [min per one run]": 183.084,
            "Time (s) [max per one run]": 206.06,
            "Objective value [avg per one run]": 0.0,
            "Branch count [avg per one run]": 1768760.3333333333,
            "Solution is optimal [avg per one run]": 1.0,
            "MaxObjective [-1 means no maxObjective]": 1337
        },
        "ta21": {
            "Time (s) [avg per one run]": 138.38299999999998,
            "Time (s) [min per one run]": 135.034,
            "Time (s) [max per one run]": 140.075,
            "Objective value [avg per one run]": 0.0,
            "Branch count [avg per one run]": 1015625.0,
            "Solution is optimal [avg per one run]": 1.0,
            "MaxObjective [-1 means no maxObjective]": 1614
        },
        "ta22": {
            "Time (s) [avg per one run]": 173.38266666666664,
            "Time (s) [min per one run]": 124.089,
            "Time (s) [max per one run]": 233.049,
            "Objective value [avg per one run]": 0.0,
            "Branch count [avg per one run]": 1281856.3333333333,
            "Solution is optimal [avg per one run]": 1.0,
            "MaxObjective [-1 means no maxObjective]": 1561
        },
        "ta24": {
            "Time (s) [avg per one run]": 131.049,
            "Time (s) [min per one run]": 120.038,
            "Time (s) [max per one run]": 138.065,
            "Objective value [avg per one run]": 0.0,
            "Branch count [avg per one run]": 1019051.3333333334,
            "Solution is optimal [avg per one run]": 1.0,
            "MaxObjective [-1 means no maxObjective]": 1638
        },
        "ta25": {
            "Time (s) [avg per one run]": 137.71966666666665,
            "Time (s) [min per one run]": 132.001,
            "Time (s) [max per one run]": 142.061,
            "Objective value [avg per one run]": 0.0,
            "Branch count [avg per one run]": 1075266.6666666667,
            "Solution is optimal [avg per one run]": 1.0,
            "MaxObjective [-1 means no maxObjective]": 1561
        },
        "ta26": {
            "Time (s) [avg per one run]": 153.38333333333333,
            "Time (s) [min per one run]": 143.04,
            "Time (s) [max per one run]": 159.069,
            "Objective value [avg per one run]": 0.0,
            "Branch count [avg per one run]": 1158575.6666666667,
            "Solution is optimal [avg per one run]": 1.0,
            "MaxObjective [-1 means no maxObjective]": 1592
        },
        "ta27": {
            "Time (s) [avg per one run]": 142.03,
            "Time (s) [min per one run]": 118.007,
            "Time (s) [max per one run]": 167.038,
            "Objective value [avg per one run]": 0.0,
            "Branch count [avg per one run]": 1057873.6666666667,
            "Solution is optimal [avg per one run]": 1.0,
            "MaxObjective [-1 means no maxObjective]": 1648
        },
        "ta29": {
            "Time (s) [avg per one run]": 191.70899999999997,
            "Time (s) [min per one run]": 163.014,
            "Time (s) [max per one run]": 233.091,
            "Objective value [avg per one run]": 0.0,
            "Branch count [avg per one run]": 1301303.6666666667,
            "Solution is optimal [avg per one run]": 1.0,
            "MaxObjective [-1 means no maxObjective]": 1580
        },
        "ta30": {
            "Time (s) [avg per one run]": 57.74266666666667,
            "Time (s) [min per one run]": 55.082,
            "Time (s) [max per one run]": 60.093,
            "Objective value [avg per one run]": 0.0,
            "Branch count [avg per one run]": 428642.6666666667,
            "Solution is optimal [avg per one run]": 1.0,
            "MaxObjective [-1 means no maxObjective]": 1510
        },
        "ta32": {
            "Time (s) [avg per one run]": 0.0,
            "Time (s) [min per one run]": 0.0,
            "Time (s) [max per one run]": 0.0,
            "Objective value [avg per one run]": 0.0,
            "Branch count [avg per one run]": 0.0,
            "Solution is optimal [avg per one run]": 1.0,
            "MaxObjective [-1 means no maxObjective]": 1773
        },
        "ta33": {
            "Time (s) [avg per one run]": 83.70766666666667,
            "Time (s) [min per one run]": 77.034,
            "Time (s) [max per one run]": 90.016,
            "Objective value [avg per one run]": 0.0,
            "Branch count [avg per one run]": 546891.6666666666,
            "Solution is optimal [avg per one run]": 1.0,
            "MaxObjective [-1 means no maxObjective]": 1787
        },
        "ta37": {
            "Time (s) [avg per one run]": 0.0,
            "Time (s) [min per one run]": 0.0,
            "Time (s) [max per one run]": 0.0,
            "Objective value [avg per one run]": 0.0,
            "Branch count [avg per one run]": 0.0,
            "Solution is optimal [avg per one run]": 1.0,
            "MaxObjective [-1 means no maxObjective]": 1770
        },
        "ta39": {
            "Time (s) [avg per one run]": 0.0,
            "Time (s) [min per one run]": 0.0,
            "Time (s) [max per one run]": 0.0,
            "Objective value [avg per one run]": 0.0,
            "Branch count [avg per one run]": 0.0,
            "Solution is optimal [avg per one run]": 1.0,
            "MaxObjective [-1 means no maxObjective]": 1794
        },
        "ta40": {
            "Time (s) [avg per one run]": 96.06200000000001,
            "Time (s) [min per one run]": 94.062,
            "Time (s) [max per one run]": 99.096,
            "Objective value [avg per one run]": 0.0,
            "Branch count [avg per one run]": 679970.3333333334,
            "Solution is optimal [avg per one run]": 1.0,
            "MaxObjective [-1 means no maxObjective]": 1650
        },
        "ta41": {
            "Time (s) [avg per one run]": 153.72833333333335,
            "Time (s) [min per one run]": 139.073,
            "Time (s) [max per one run]": 164.081,
            "Objective value [avg per one run]": 0.0,
            "Branch count [avg per one run]": 909046.6666666666,
            "Solution is optimal [avg per one run]": 1.0,
            "MaxObjective [-1 means no maxObjective]": 1904
        },
        "ta42": {
            "Time (s) [avg per one run]": 152.39933333333332,
            "Time (s) [min per one run]": 143.081,
            "Time (s) [max per one run]": 159.07,
            "Objective value [avg per one run]": 0.0,
            "Branch count [avg per one run]": 881283.3333333334,
            "Solution is optimal [avg per one run]": 1.0,
            "MaxObjective [-1 means no maxObjective]": 1884
        },
        "ta46": {
            "Time (s) [avg per one run]": 164.70133333333334,
            "Time (s) [min per one run]": 159.019,
            "Time (s) [max per one run]": 171.001,
            "Objective value [avg per one run]": 0.0,
            "Branch count [avg per one run]": 937849.6666666666,
            "Solution is optimal [avg per one run]": 1.0,
            "MaxObjective [-1 means no maxObjective]": 1960
        },
        "ta47": {
            "Time (s) [avg per one run]": 234.05133333333333,
            "Time (s) [min per one run]": 148.011,
            "Time (s) [max per one run]": 296.067,
            "Objective value [avg per one run]": 0.0,
            "Branch count [avg per one run]": 1094472.0,
            "Solution is optimal [avg per one run]": 1.0,
            "MaxObjective [-1 means no maxObjective]": 1809
        },
        "ta48": {
            "Time (s) [avg per one run]": 0.006666666666666667,
            "Time (s) [min per one run]": 0.003,
            "Time (s) [max per one run]": 0.013,
            "Objective value [avg per one run]": 0.0,
            "Branch count [avg per one run]": 494.0,
            "Solution is optimal [avg per one run]": 1.0,
            "MaxObjective [-1 means no maxObjective]": 1911
        },
        "ta56": {
            "Time (s) [avg per one run]": 0.0013333333333333333,
            "Time (s) [min per one run]": 0.0,
            "Time (s) [max per one run]": 0.004,
            "Objective value [avg per one run]": 0.0,
            "Branch count [avg per one run]": 0.0,
            "Solution is optimal [avg per one run]": 1.0,
            "MaxObjective [-1 means no maxObjective]": 2780
        },
        "ta62": {
            "Time (s) [avg per one run]": 0.0,
            "Time (s) [min per one run]": 0.0,
            "Time (s) [max per one run]": 0.0,
            "Objective value [avg per one run]": 0.0,
            "Branch count [avg per one run]": 0.0,
            "Solution is optimal [avg per one run]": 1.0,
            "MaxObjective [-1 means no maxObjective]": 2868
        },
        "ta65": {
            "Time (s) [avg per one run]": 0.0013333333333333333,
            "Time (s) [min per one run]": 0.0,
            "Time (s) [max per one run]": 0.004,
            "Objective value [avg per one run]": 0.0,
            "Branch count [avg per one run]": 0.0,
            "Solution is optimal [avg per one run]": 1.0,
            "MaxObjective [-1 means no maxObjective]": 2724
        },
        "ta69": {
            "Time (s) [avg per one run]": 0.0,
            "Time (s) [min per one run]": 0.0,
            "Time (s) [max per one run]": 0.0,
            "Objective value [avg per one run]": 0.0,
            "Branch count [avg per one run]": 0.0,
            "Solution is optimal [avg per one run]": 1.0,
            "MaxObjective [-1 means no maxObjective]": 3070
        },
        "ta73": {
            "Time (s) [avg per one run]": 0.001,
            "Time (s) [min per one run]": 0.001,
            "Time (s) [max per one run]": 0.001,
            "Objective value [avg per one run]": 0.0,
            "Branch count [avg per one run]": 0.0,
            "Solution is optimal [avg per one run]": 1.0,
            "MaxObjective [-1 means no maxObjective]": 5567
        },
        "ta75": {
            "Time (s) [avg per one run]": 0.001,
            "Time (s) [min per one run]": 0.001,
            "Time (s) [max per one run]": 0.001,
            "Objective value [avg per one run]": 0.0,
            "Branch count [avg per one run]": 0.0,
            "Solution is optimal [avg per one run]": 1.0,
            "MaxObjective [-1 means no maxObjective]": 5391
        },
        "ta77": {
            "Time (s) [avg per one run]": 0.001,
            "Time (s) [min per one run]": 0.001,
            "Time (s) [max per one run]": 0.001,
            "Objective value [avg per one run]": 0.0,
            "Branch count [avg per one run]": 0.0,
            "Solution is optimal [avg per one run]": 1.0,
            "MaxObjective [-1 means no maxObjective]": 5435
        },
        "ta78": {
            "Time (s) [avg per one run]": 0.001,
            "Time (s) [min per one run]": 0.001,
            "Time (s) [max per one run]": 0.001,
            "Objective value [avg per one run]": 0.0,
            "Branch count [avg per one run]": 0.0,
            "Solution is optimal [avg per one run]": 1.0,
            "MaxObjective [-1 means no maxObjective]": 5393
        },
        "ta79": {
            "Time (s) [avg per one run]": 0.001,
            "Time (s) [min per one run]": 0.001,
            "Time (s) [max per one run]": 0.001,
            "Objective value [avg per one run]": 0.0,
            "Branch count [avg per one run]": 0.0,
            "Solution is optimal [avg per one run]": 1.0,
            "MaxObjective [-1 means no maxObjective]": 5357
        },
        "ta80": {
            "Time (s) [avg per one run]": 0.001,
            "Time (s) [min per one run]": 0.001,
            "Time (s) [max per one run]": 0.001,
            "Objective value [avg per one run]": 0.0,
            "Branch count [avg per one run]": 0.0,
            "Solution is optimal [avg per one run]": 1.0,
            "MaxObjective [-1 means no maxObjective]": 5182
        },
        "yn2": {
            "Time (s) [avg per one run]": 142.04100000000003,
            "Time (s) [min per one run]": 124.023,
            "Time (s) [max per one run]": 177.012,
            "Objective value [avg per one run]": 0.0,
            "Branch count [avg per one run]": 1061536.0,
            "Solution is optimal [avg per one run]": 1.0,
            "MaxObjective [-1 means no maxObjective]": 870
        },
        "yn3": {
            "Time (s) [avg per one run]": 132.41433333333336,
            "Time (s) [min per one run]": 121.095,
            "Time (s) [max per one run]": 143.068,
            "Objective value [avg per one run]": 0.0,
            "Branch count [avg per one run]": 1044876.0,
            "Solution is optimal [avg per one run]": 1.0,
            "MaxObjective [-1 means no maxObjective]": 855
        }
    },
    "params": {
        "FDSInitialRating": "0.3",
        "FDSLengthStepRatio": "0.7",
        "FDSUniformChoiceStep": "1",
        "FDSBothFailRewardFactor": "1.0",
        "FDSFixedAlpha": "0.9",
        "FDSEpsilon": "0",
        "RandomSeed": [
            "1",
            "2",
            "3"
        ]
    },
    "default params for this problem": {
        "NumberOfWorkers": {
            "value": 1
        },
        "NoOverlapPropagationLevel": {
            "value": 4
        },
        "CumulPropagationLevel": {
            "value": 1
        }
    },
    "globals": {
        "Time sum (s) [sum of averages per instance]": 5712.205666666667,
        "Time sum (s) [sum of all runs per instance]": 17136.617,
        "Global branch count [sum of averages per instance]": 45307764.33333334,
        "Global branch count [sum of all runs per instance]": 135923293.0,
        "Instance count": 80,
        "Solved (non-optimally and optimally) count [sum of averages per instance]": 80,
        "Optimally solved count [sum of averages per instance]": 80
    }
}