{
    "instances": {
        "j12011_4.sm": {
            "Time (s) [avg per one run]": 60.736333333333334,
            "Time (s) [min per one run]": 60.036,
            "Time (s) [max per one run]": 61.089,
            "Objective value [avg per one run]": 0.0,
            "Branch count [avg per one run]": 266270.0,
            "Solution is optimal [avg per one run]": 1.0,
            "MaxObjective [-1 means no maxObjective]": 181
        },
        "j12011_5.sm": {
            "Time (s) [avg per one run]": 27.07133333333333,
            "Time (s) [min per one run]": 24.072,
            "Time (s) [max per one run]": 31.049,
            "Objective value [avg per one run]": 0.0,
            "Branch count [avg per one run]": 98820.33333333333,
            "Solution is optimal [avg per one run]": 1.0,
            "MaxObjective [-1 means no maxObjective]": 193
        },
        "j12012_3.sm": {
            "Time (s) [avg per one run]": 3.0523333333333333,
            "Time (s) [min per one run]": 2.089,
            "Time (s) [max per one run]": 4.011,
            "Objective value [avg per one run]": 0.0,
            "Branch count [avg per one run]": 13201.666666666666,
            "Solution is optimal [avg per one run]": 1.0,
            "MaxObjective [-1 means no maxObjective]": 131
        },
        "j12012_4.sm": {
            "Time (s) [avg per one run]": 26.057333333333332,
            "Time (s) [min per one run]": 25.084,
            "Time (s) [max per one run]": 27.012,
            "Objective value [avg per one run]": 0.0,
            "Branch count [avg per one run]": 109511.0,
            "Solution is optimal [avg per one run]": 1.0,
            "MaxObjective [-1 means no maxObjective]": 121
        },
        "j12012_5.sm": {
            "Time (s) [avg per one run]": 5.395666666666667,
            "Time (s) [min per one run]": 5.049,
            "Time (s) [max per one run]": 6.054,
            "Objective value [avg per one run]": 0.0,
            "Branch count [avg per one run]": 19608.333333333332,
            "Solution is optimal [avg per one run]": 1.0,
            "MaxObjective [-1 means no maxObjective]": 154
        },
        "j12012_6.sm": {
            "Time (s) [avg per one run]": 4.374333333333333,
            "Time (s) [min per one run]": 4.042,
            "Time (s) [max per one run]": 5.02,
            "Objective value [avg per one run]": 0.0,
            "Branch count [avg per one run]": 15703.666666666666,
            "Solution is optimal [avg per one run]": 1.0,
            "MaxObjective [-1 means no maxObjective]": 115
        },
        "j12013_10.sm": {
            "Time (s) [avg per one run]": 57.72666666666667,
            "Time (s) [min per one run]": 52.088,
            "Time (s) [max per one run]": 61.003,
            "Objective value [avg per one run]": 0.0,
            "Branch count [avg per one run]": 160594.33333333334,
            "Solution is optimal [avg per one run]": 1.0,
            "MaxObjective [-1 means no maxObjective]": 88
        },
        "j12013_2.sm": {
            "Time (s) [avg per one run]": 0.0003333333333333333,
            "Time (s) [min per one run]": 0.0,
            "Time (s) [max per one run]": 0.001,
            "Objective value [avg per one run]": 0.0,
            "Branch count [avg per one run]": 0.0,
            "Solution is optimal [avg per one run]": 1.0,
            "MaxObjective [-1 means no maxObjective]": 87
        },
        "j12013_3.sm": {
            "Time (s) [avg per one run]": 0.02666666666666667,
            "Time (s) [min per one run]": 0.022,
            "Time (s) [max per one run]": 0.032,
            "Objective value [avg per one run]": 0.0,
            "Branch count [avg per one run]": 805.0,
            "Solution is optimal [avg per one run]": 1.0,
            "MaxObjective [-1 means no maxObjective]": 114
        },
        "j12013_4.sm": {
            "Time (s) [avg per one run]": 6.004666666666666,
            "Time (s) [min per one run]": 4.006,
            "Time (s) [max per one run]": 7.005,
            "Objective value [avg per one run]": 0.0,
            "Branch count [avg per one run]": 16032.666666666666,
            "Solution is optimal [avg per one run]": 1.0,
            "MaxObjective [-1 means no maxObjective]": 107
        },
        "j12014_2.sm": {
            "Time (s) [avg per one run]": 0.07366666666666667,
            "Time (s) [min per one run]": 0.063,
            "Time (s) [max per one run]": 0.093,
            "Objective value [avg per one run]": 0.0,
            "Branch count [avg per one run]": 1929.0,
            "Solution is optimal [avg per one run]": 1.0,
            "MaxObjective [-1 means no maxObjective]": 89
        },
        "j12014_4.sm": {
            "Time (s) [avg per one run]": 0.0,
            "Time (s) [min per one run]": 0.0,
            "Time (s) [max per one run]": 0.0,
            "Objective value [avg per one run]": 0.0,
            "Branch count [avg per one run]": 0.0,
            "Solution is optimal [avg per one run]": 1.0,
            "MaxObjective [-1 means no maxObjective]": 84
        },
        "j12014_5.sm": {
            "Time (s) [avg per one run]": 0.0,
            "Time (s) [min per one run]": 0.0,
            "Time (s) [max per one run]": 0.0,
            "Objective value [avg per one run]": 0.0,
            "Branch count [avg per one run]": 0.0,
            "Solution is optimal [avg per one run]": 1.0,
            "MaxObjective [-1 means no maxObjective]": 92
        },
        "j12014_8.sm": {
            "Time (s) [avg per one run]": 6.676666666666667,
            "Time (s) [min per one run]": 6.017,
            "Time (s) [max per one run]": 7.008,
            "Objective value [avg per one run]": 0.0,
            "Branch count [avg per one run]": 20140.666666666668,
            "Solution is optimal [avg per one run]": 1.0,
            "MaxObjective [-1 means no maxObjective]": 109
        },
        "j12016_10.sm": {
            "Time (s) [avg per one run]": 34.39366666666667,
            "Time (s) [min per one run]": 29.087,
            "Time (s) [max per one run]": 40.044,
            "Objective value [avg per one run]": 0.0,
            "Branch count [avg per one run]": 68400.66666666667,
            "Solution is optimal [avg per one run]": 1.0,
            "MaxObjective [-1 means no maxObjective]": 203
        },
        "j12016_2.sm": {
            "Time (s) [avg per one run]": 10.387666666666666,
            "Time (s) [min per one run]": 9.019,
            "Time (s) [max per one run]": 12.052,
            "Objective value [avg per one run]": 0.0,
            "Branch count [avg per one run]": 21575.333333333332,
            "Solution is optimal [avg per one run]": 1.0,
            "MaxObjective [-1 means no maxObjective]": 219
        },
        "j12016_3.sm": {
            "Time (s) [avg per one run]": 19.02333333333333,
            "Time (s) [min per one run]": 18.024,
            "Time (s) [max per one run]": 21.02,
            "Objective value [avg per one run]": 0.0,
            "Branch count [avg per one run]": 35669.0,
            "Solution is optimal [avg per one run]": 1.0,
            "MaxObjective [-1 means no maxObjective]": 219
        },
        "j12016_4.sm": {
            "Time (s) [avg per one run]": 73.379,
            "Time (s) [min per one run]": 44.099,
            "Time (s) [max per one run]": 92.024,
            "Objective value [avg per one run]": 0.0,
            "Branch count [avg per one run]": 161045.66666666666,
            "Solution is optimal [avg per one run]": 1.0,
            "MaxObjective [-1 means no maxObjective]": 190
        },
        "j12016_6.sm": {
            "Time (s) [avg per one run]": 0.026,
            "Time (s) [min per one run]": 0.015,
            "Time (s) [max per one run]": 0.032,
            "Objective value [avg per one run]": 0.0,
            "Branch count [avg per one run]": 472.0,
            "Solution is optimal [avg per one run]": 1.0,
            "MaxObjective [-1 means no maxObjective]": 193
        },
        "j12016_7.sm": {
            "Time (s) [avg per one run]": 0.0,
            "Time (s) [min per one run]": 0.0,
            "Time (s) [max per one run]": 0.0,
            "Objective value [avg per one run]": 0.0,
            "Branch count [avg per one run]": 0.0,
            "Solution is optimal [avg per one run]": 1.0,
            "MaxObjective [-1 means no maxObjective]": 173
        },
        "j12016_8.sm": {
            "Time (s) [avg per one run]": 11.38,
            "Time (s) [min per one run]": 10.062,
            "Time (s) [max per one run]": 13.064,
            "Objective value [avg per one run]": 0.0,
            "Branch count [avg per one run]": 22055.666666666668,
            "Solution is optimal [avg per one run]": 1.0,
            "MaxObjective [-1 means no maxObjective]": 181
        },
        "j12017_1.sm": {
            "Time (s) [avg per one run]": 1.0436666666666665,
            "Time (s) [min per one run]": 0.077,
            "Time (s) [max per one run]": 2.026,
            "Objective value [avg per one run]": 0.0,
            "Branch count [avg per one run]": 2431.0,
            "Solution is optimal [avg per one run]": 1.0,
            "MaxObjective [-1 means no maxObjective]": 134
        },
        "j12017_2.sm": {
            "Time (s) [avg per one run]": 3.718,
            "Time (s) [min per one run]": 2.054,
            "Time (s) [max per one run]": 5.021,
            "Objective value [avg per one run]": 0.0,
            "Branch count [avg per one run]": 7727.666666666667,
            "Solution is optimal [avg per one run]": 1.0,
            "MaxObjective [-1 means no maxObjective]": 120
        },
        "j12017_3.sm": {
            "Time (s) [avg per one run]": 3.709,
            "Time (s) [min per one run]": 3.035,
            "Time (s) [max per one run]": 4.057,
            "Objective value [avg per one run]": 0.0,
            "Branch count [avg per one run]": 8972.333333333334,
            "Solution is optimal [avg per one run]": 1.0,
            "MaxObjective [-1 means no maxObjective]": 105
        },
        "j12017_5.sm": {
            "Time (s) [avg per one run]": 19.386333333333337,
            "Time (s) [min per one run]": 18.05,
            "Time (s) [max per one run]": 21.047,
            "Objective value [avg per one run]": 0.0,
            "Branch count [avg per one run]": 37591.0,
            "Solution is optimal [avg per one run]": 1.0,
            "MaxObjective [-1 means no maxObjective]": 122
        },
        "j12017_6.sm": {
            "Time (s) [avg per one run]": 2.7289999999999996,
            "Time (s) [min per one run]": 1.047,
            "Time (s) [max per one run]": 4.048,
            "Objective value [avg per one run]": 0.0,
            "Branch count [avg per one run]": 7606.666666666667,
            "Solution is optimal [avg per one run]": 1.0,
            "MaxObjective [-1 means no maxObjective]": 132
        },
        "j12017_9.sm": {
            "Time (s) [avg per one run]": 10.061,
            "Time (s) [min per one run]": 8.098,
            "Time (s) [max per one run]": 11.046,
            "Objective value [avg per one run]": 0.0,
            "Branch count [avg per one run]": 21415.0,
            "Solution is optimal [avg per one run]": 1.0,
            "MaxObjective [-1 means no maxObjective]": 128
        },
        "j12018_10.sm": {
            "Time (s) [avg per one run]": 7.727666666666667,
            "Time (s) [min per one run]": 7.082,
            "Time (s) [max per one run]": 8.098,
            "Objective value [avg per one run]": 0.0,
            "Branch count [avg per one run]": 15254.333333333334,
            "Solution is optimal [avg per one run]": 1.0,
            "MaxObjective [-1 means no maxObjective]": 96
        },
        "j12018_2.sm": {
            "Time (s) [avg per one run]": 0.0,
            "Time (s) [min per one run]": 0.0,
            "Time (s) [max per one run]": 0.0,
            "Objective value [avg per one run]": 0.0,
            "Branch count [avg per one run]": 0.0,
            "Solution is optimal [avg per one run]": 1.0,
            "MaxObjective [-1 means no maxObjective]": 110
        },
        "j12018_4.sm": {
            "Time (s) [avg per one run]": 0.0,
            "Time (s) [min per one run]": 0.0,
            "Time (s) [max per one run]": 0.0,
            "Objective value [avg per one run]": 0.0,
            "Branch count [avg per one run]": 0.0,
            "Solution is optimal [avg per one run]": 1.0,
            "MaxObjective [-1 means no maxObjective]": 97
        },
        "j12018_6.sm": {
            "Time (s) [avg per one run]": 8.711333333333334,
            "Time (s) [min per one run]": 6.03,
            "Time (s) [max per one run]": 11.081,
            "Objective value [avg per one run]": 0.0,
            "Branch count [avg per one run]": 17330.333333333332,
            "Solution is optimal [avg per one run]": 1.0,
            "MaxObjective [-1 means no maxObjective]": 130
        },
        "j12018_7.sm": {
            "Time (s) [avg per one run]": 3.3520000000000003,
            "Time (s) [min per one run]": 3.022,
            "Time (s) [max per one run]": 4.006,
            "Objective value [avg per one run]": 0.0,
            "Branch count [avg per one run]": 6839.333333333333,
            "Solution is optimal [avg per one run]": 1.0,
            "MaxObjective [-1 means no maxObjective]": 111
        },
        "j1206_1.sm": {
            "Time (s) [avg per one run]": 29.034666666666666,
            "Time (s) [min per one run]": 28.001,
            "Time (s) [max per one run]": 30.04,
            "Objective value [avg per one run]": 0.0,
            "Branch count [avg per one run]": 245060.66666666666,
            "Solution is optimal [avg per one run]": 1.0,
            "MaxObjective [-1 means no maxObjective]": 135
        },
        "j1206_10.sm": {
            "Time (s) [avg per one run]": 19.381333333333334,
            "Time (s) [min per one run]": 19.028,
            "Time (s) [max per one run]": 20.08,
            "Objective value [avg per one run]": 0.0,
            "Branch count [avg per one run]": 153193.0,
            "Solution is optimal [avg per one run]": 1.0,
            "MaxObjective [-1 means no maxObjective]": 157
        },
        "j1206_3.sm": {
            "Time (s) [avg per one run]": 10.385,
            "Time (s) [min per one run]": 9.002,
            "Time (s) [max per one run]": 12.079,
            "Objective value [avg per one run]": 0.0,
            "Branch count [avg per one run]": 74364.33333333333,
            "Solution is optimal [avg per one run]": 1.0,
            "MaxObjective [-1 means no maxObjective]": 126
        },
        "j1206_7.sm": {
            "Time (s) [avg per one run]": 14.736666666666666,
            "Time (s) [min per one run]": 12.089,
            "Time (s) [max per one run]": 19.094,
            "Objective value [avg per one run]": 0.0,
            "Branch count [avg per one run]": 101728.66666666667,
            "Solution is optimal [avg per one run]": 1.0,
            "MaxObjective [-1 means no maxObjective]": 153
        },
        "j1207_2.sm": {
            "Time (s) [avg per one run]": 62.05566666666667,
            "Time (s) [min per one run]": 60.013,
            "Time (s) [max per one run]": 65.084,
            "Objective value [avg per one run]": 0.0,
            "Branch count [avg per one run]": 452372.6666666667,
            "Solution is optimal [avg per one run]": 1.0,
            "MaxObjective [-1 means no maxObjective]": 111
        },
        "j1207_5.sm": {
            "Time (s) [avg per one run]": 11.726666666666667,
            "Time (s) [min per one run]": 9.079,
            "Time (s) [max per one run]": 14.091,
            "Objective value [avg per one run]": 0.0,
            "Branch count [avg per one run]": 77239.66666666667,
            "Solution is optimal [avg per one run]": 1.0,
            "MaxObjective [-1 means no maxObjective]": 125
        },
        "j1207_6.sm": {
            "Time (s) [avg per one run]": 9.382333333333333,
            "Time (s) [min per one run]": 9.031,
            "Time (s) [max per one run]": 10.066,
            "Objective value [avg per one run]": 0.0,
            "Branch count [avg per one run]": 58284.0,
            "Solution is optimal [avg per one run]": 1.0,
            "MaxObjective [-1 means no maxObjective]": 115
        },
        "j1207_8.sm": {
            "Time (s) [avg per one run]": 1.388,
            "Time (s) [min per one run]": 1.069,
            "Time (s) [max per one run]": 2.022,
            "Objective value [avg per one run]": 0.0,
            "Branch count [avg per one run]": 13085.333333333334,
            "Solution is optimal [avg per one run]": 1.0,
            "MaxObjective [-1 means no maxObjective]": 92
        },
        "j1208_4.sm": {
            "Time (s) [avg per one run]": 3.376,
            "Time (s) [min per one run]": 3.001,
            "Time (s) [max per one run]": 4.074,
            "Objective value [avg per one run]": 0.0,
            "Branch count [avg per one run]": 31632.333333333332,
            "Solution is optimal [avg per one run]": 1.0,
            "MaxObjective [-1 means no maxObjective]": 89
        },
        "j1208_5.sm": {
            "Time (s) [avg per one run]": 8.036,
            "Time (s) [min per one run]": 7.087,
            "Time (s) [max per one run]": 9.007,
            "Objective value [avg per one run]": 0.0,
            "Branch count [avg per one run]": 50334.333333333336,
            "Solution is optimal [avg per one run]": 1.0,
            "MaxObjective [-1 means no maxObjective]": 99
        },
        "j1208_8.sm": {
            "Time (s) [avg per one run]": 0.0,
            "Time (s) [min per one run]": 0.0,
            "Time (s) [max per one run]": 0.0,
            "Objective value [avg per one run]": 0.0,
            "Branch count [avg per one run]": 0.0,
            "Solution is optimal [avg per one run]": 1.0,
            "MaxObjective [-1 means no maxObjective]": 86
        },
        "j1208_9.sm": {
            "Time (s) [avg per one run]": 13.385333333333334,
            "Time (s) [min per one run]": 12.061,
            "Time (s) [max per one run]": 15.025,
            "Objective value [avg per one run]": 0.0,
            "Branch count [avg per one run]": 67248.33333333333,
            "Solution is optimal [avg per one run]": 1.0,
            "MaxObjective [-1 means no maxObjective]": 89
        },
        "j1209_4.sm": {
            "Time (s) [avg per one run]": 3.0719999999999996,
            "Time (s) [min per one run]": 3.038,
            "Time (s) [max per one run]": 3.09,
            "Objective value [avg per one run]": 0.0,
            "Branch count [avg per one run]": 24650.0,
            "Solution is optimal [avg per one run]": 1.0,
            "MaxObjective [-1 means no maxObjective]": 84
        },
        "j6013_10.sm": {
            "Time (s) [avg per one run]": 10.392,
            "Time (s) [min per one run]": 9.046,
            "Time (s) [max per one run]": 12.084,
            "Objective value [avg per one run]": 0.0,
            "Branch count [avg per one run]": 107913.66666666667,
            "Solution is optimal [avg per one run]": 1.0,
            "MaxObjective [-1 means no maxObjective]": 113
        },
        "j6013_2.sm": {
            "Time (s) [avg per one run]": 1.0726666666666667,
            "Time (s) [min per one run]": 1.059,
            "Time (s) [max per one run]": 1.089,
            "Objective value [avg per one run]": 0.0,
            "Branch count [avg per one run]": 14524.333333333334,
            "Solution is optimal [avg per one run]": 1.0,
            "MaxObjective [-1 means no maxObjective]": 101
        },
        "j6013_3.sm": {
            "Time (s) [avg per one run]": 6.403666666666667,
            "Time (s) [min per one run]": 6.047,
            "Time (s) [max per one run]": 7.091,
            "Objective value [avg per one run]": 0.0,
            "Branch count [avg per one run]": 58152.666666666664,
            "Solution is optimal [avg per one run]": 1.0,
            "MaxObjective [-1 means no maxObjective]": 83
        },
        "j6013_6.sm": {
            "Time (s) [avg per one run]": 2.699,
            "Time (s) [min per one run]": 2.083,
            "Time (s) [max per one run]": 3.012,
            "Objective value [avg per one run]": 0.0,
            "Branch count [avg per one run]": 22453.666666666668,
            "Solution is optimal [avg per one run]": 1.0,
            "MaxObjective [-1 means no maxObjective]": 90
        },
        "j6013_7.sm": {
            "Time (s) [avg per one run]": 84.70200000000001,
            "Time (s) [min per one run]": 74.047,
            "Time (s) [max per one run]": 101.01,
            "Objective value [avg per one run]": 0.0,
            "Branch count [avg per one run]": 542626.6666666666,
            "Solution is optimal [avg per one run]": 1.0,
            "MaxObjective [-1 means no maxObjective]": 82
        },
        "j6013_9.sm": {
            "Time (s) [avg per one run]": 22.423999999999996,
            "Time (s) [min per one run]": 18.094,
            "Time (s) [max per one run]": 26.079,
            "Objective value [avg per one run]": 0.0,
            "Branch count [avg per one run]": 150646.0,
            "Solution is optimal [avg per one run]": 1.0,
            "MaxObjective [-1 means no maxObjective]": 96
        },
        "j6014_3.sm": {
            "Time (s) [avg per one run]": 0.0,
            "Time (s) [min per one run]": 0.0,
            "Time (s) [max per one run]": 0.0,
            "Objective value [avg per one run]": 0.0,
            "Branch count [avg per one run]": 0.0,
            "Solution is optimal [avg per one run]": 1.0,
            "MaxObjective [-1 means no maxObjective]": 60
        },
        "j6025_5.sm": {
            "Time (s) [avg per one run]": 37.694,
            "Time (s) [min per one run]": 33.03,
            "Time (s) [max per one run]": 46.02,
            "Objective value [avg per one run]": 0.0,
            "Branch count [avg per one run]": 409097.0,
            "Solution is optimal [avg per one run]": 1.0,
            "MaxObjective [-1 means no maxObjective]": 94
        },
        "j6025_6.sm": {
            "Time (s) [avg per one run]": 20.717000000000002,
            "Time (s) [min per one run]": 9.015,
            "Time (s) [max per one run]": 41.054,
            "Objective value [avg per one run]": 0.0,
            "Branch count [avg per one run]": 192694.33333333334,
            "Solution is optimal [avg per one run]": 1.0,
            "MaxObjective [-1 means no maxObjective]": 102
        },
        "j6029_10.sm": {
            "Time (s) [avg per one run]": 11.065,
            "Time (s) [min per one run]": 10.073,
            "Time (s) [max per one run]": 12.05,
            "Objective value [avg per one run]": 0.0,
            "Branch count [avg per one run]": 86469.33333333333,
            "Solution is optimal [avg per one run]": 1.0,
            "MaxObjective [-1 means no maxObjective]": 110
        },
        "j6029_4.sm": {
            "Time (s) [avg per one run]": 73.38233333333334,
            "Time (s) [min per one run]": 37.007,
            "Time (s) [max per one run]": 127.058,
            "Objective value [avg per one run]": 0.0,
            "Branch count [avg per one run]": 448366.6666666667,
            "Solution is optimal [avg per one run]": 1.0,
            "MaxObjective [-1 means no maxObjective]": 122
        },
        "j6029_5.sm": {
            "Time (s) [avg per one run]": 33.74966666666666,
            "Time (s) [min per one run]": 30.084,
            "Time (s) [max per one run]": 36.069,
            "Objective value [avg per one run]": 0.0,
            "Branch count [avg per one run]": 234718.33333333334,
            "Solution is optimal [avg per one run]": 1.0,
            "MaxObjective [-1 means no maxObjective]": 99
        },
        "j6029_7.sm": {
            "Time (s) [avg per one run]": 25.05933333333333,
            "Time (s) [min per one run]": 23.067,
            "Time (s) [max per one run]": 27.055,
            "Objective value [avg per one run]": 0.0,
            "Branch count [avg per one run]": 192146.33333333334,
            "Solution is optimal [avg per one run]": 1.0,
            "MaxObjective [-1 means no maxObjective]": 115
        },
        "j6029_8.sm": {
            "Time (s) [avg per one run]": 61.702,
            "Time (s) [min per one run]": 48.037,
            "Time (s) [max per one run]": 75.021,
            "Objective value [avg per one run]": 0.0,
            "Branch count [avg per one run]": 406964.3333333333,
            "Solution is optimal [avg per one run]": 1.0,
            "MaxObjective [-1 means no maxObjective]": 97
        },
        "j6029_9.sm": {
            "Time (s) [avg per one run]": 14.711,
            "Time (s) [min per one run]": 8.049,
            "Time (s) [max per one run]": 24.038,
            "Objective value [avg per one run]": 0.0,
            "Branch count [avg per one run]": 116857.66666666667,
            "Solution is optimal [avg per one run]": 1.0,
            "MaxObjective [-1 means no maxObjective]": 101
        },
        "j6041_3.sm": {
            "Time (s) [avg per one run]": 14.695333333333332,
            "Time (s) [min per one run]": 13.019,
            "Time (s) [max per one run]": 16.029,
            "Objective value [avg per one run]": 0.0,
            "Branch count [avg per one run]": 112165.66666666667,
            "Solution is optimal [avg per one run]": 1.0,
            "MaxObjective [-1 means no maxObjective]": 87
        },
        "j6041_5.sm": {
            "Time (s) [avg per one run]": 40.37,
            "Time (s) [min per one run]": 36.014,
            "Time (s) [max per one run]": 44.061,
            "Objective value [avg per one run]": 0.0,
            "Branch count [avg per one run]": 330894.3333333333,
            "Solution is optimal [avg per one run]": 1.0,
            "MaxObjective [-1 means no maxObjective]": 106
        },
        "j609_10.sm": {
            "Time (s) [avg per one run]": 20.738333333333333,
            "Time (s) [min per one run]": 17.086,
            "Time (s) [max per one run]": 27.038,
            "Objective value [avg per one run]": 0.0,
            "Branch count [avg per one run]": 162498.33333333334,
            "Solution is optimal [avg per one run]": 1.0,
            "MaxObjective [-1 means no maxObjective]": 89
        },
        "j609_2.sm": {
            "Time (s) [avg per one run]": 57.69766666666667,
            "Time (s) [min per one run]": 57.02,
            "Time (s) [max per one run]": 59.036,
            "Objective value [avg per one run]": 0.0,
            "Branch count [avg per one run]": 626738.6666666666,
            "Solution is optimal [avg per one run]": 1.0,
            "MaxObjective [-1 means no maxObjective]": 81
        },
        "j609_3.sm": {
            "Time (s) [avg per one run]": 48.038666666666664,
            "Time (s) [min per one run]": 48.0,
            "Time (s) [max per one run]": 48.06,
            "Objective value [avg per one run]": 0.0,
            "Branch count [avg per one run]": 542037.6666666666,
            "Solution is optimal [avg per one run]": 1.0,
            "MaxObjective [-1 means no maxObjective]": 97
        },
        "j609_7.sm": {
            "Time (s) [avg per one run]": 19.043666666666667,
            "Time (s) [min per one run]": 15.032,
            "Time (s) [max per one run]": 23.094,
            "Objective value [avg per one run]": 0.0,
            "Branch count [avg per one run]": 156925.33333333334,
            "Solution is optimal [avg per one run]": 1.0,
            "MaxObjective [-1 means no maxObjective]": 103
        },
        "j9013_2.sm": {
            "Time (s) [avg per one run]": 25.729333333333333,
            "Time (s) [min per one run]": 25.032,
            "Time (s) [max per one run]": 26.098,
            "Objective value [avg per one run]": 0.0,
            "Branch count [avg per one run]": 114642.66666666667,
            "Solution is optimal [avg per one run]": 1.0,
            "MaxObjective [-1 means no maxObjective]": 119
        },
        "j9013_6.sm": {
            "Time (s) [avg per one run]": 5.073333333333333,
            "Time (s) [min per one run]": 4.081,
            "Time (s) [max per one run]": 7.041,
            "Objective value [avg per one run]": 0.0,
            "Branch count [avg per one run]": 18160.666666666668,
            "Solution is optimal [avg per one run]": 1.0,
            "MaxObjective [-1 means no maxObjective]": 116
        },
        "j9013_8.sm": {
            "Time (s) [avg per one run]": 16.052333333333333,
            "Time (s) [min per one run]": 14.051,
            "Time (s) [max per one run]": 20.032,
            "Objective value [avg per one run]": 0.0,
            "Branch count [avg per one run]": 60829.0,
            "Solution is optimal [avg per one run]": 1.0,
            "MaxObjective [-1 means no maxObjective]": 112
        },
        "j9025_5.sm": {
            "Time (s) [avg per one run]": 8.725999999999999,
            "Time (s) [min per one run]": 8.086,
            "Time (s) [max per one run]": 9.061,
            "Objective value [avg per one run]": 0.0,
            "Branch count [avg per one run]": 55927.666666666664,
            "Solution is optimal [avg per one run]": 1.0,
            "MaxObjective [-1 means no maxObjective]": 109
        },
        "j9026_5.sm": {
            "Time (s) [avg per one run]": 4.070333333333333,
            "Time (s) [min per one run]": 4.057,
            "Time (s) [max per one run]": 4.092,
            "Objective value [avg per one run]": 0.0,
            "Branch count [avg per one run]": 28979.333333333332,
            "Solution is optimal [avg per one run]": 1.0,
            "MaxObjective [-1 means no maxObjective]": 83
        },
        "j9029_1.sm": {
            "Time (s) [avg per one run]": 33.02166666666667,
            "Time (s) [min per one run]": 31.002,
            "Time (s) [max per one run]": 35.003,
            "Objective value [avg per one run]": 0.0,
            "Branch count [avg per one run]": 132770.66666666666,
            "Solution is optimal [avg per one run]": 1.0,
            "MaxObjective [-1 means no maxObjective]": 126
        },
        "j9029_4.sm": {
            "Time (s) [avg per one run]": 26.377,
            "Time (s) [min per one run]": 23.024,
            "Time (s) [max per one run]": 29.055,
            "Objective value [avg per one run]": 0.0,
            "Branch count [avg per one run]": 118897.33333333333,
            "Solution is optimal [avg per one run]": 1.0,
            "MaxObjective [-1 means no maxObjective]": 139
        },
        "j9029_5.sm": {
            "Time (s) [avg per one run]": 179.39000000000001,
            "Time (s) [min per one run]": 74.052,
            "Time (s) [max per one run]": 387.096,
            "Objective value [avg per one run]": 0.0,
            "Branch count [avg per one run]": 552941.3333333334,
            "Solution is optimal [avg per one run]": 1.0,
            "MaxObjective [-1 means no maxObjective]": 115
        },
        "j9029_7.sm": {
            "Time (s) [avg per one run]": 43.04900000000001,
            "Time (s) [min per one run]": 36.023,
            "Time (s) [max per one run]": 51.061,
            "Objective value [avg per one run]": 0.0,
            "Branch count [avg per one run]": 202215.33333333334,
            "Solution is optimal [avg per one run]": 1.0,
            "MaxObjective [-1 means no maxObjective]": 159
        },
        "j9029_8.sm": {
            "Time (s) [avg per one run]": 14.678333333333333,
            "Time (s) [min per one run]": 13.003,
            "Time (s) [max per one run]": 16.031,
            "Objective value [avg per one run]": 0.0,
            "Branch count [avg per one run]": 53329.0,
            "Solution is optimal [avg per one run]": 1.0,
            "MaxObjective [-1 means no maxObjective]": 145
        },
        "j9037_2.sm": {
            "Time (s) [avg per one run]": 46.72166666666667,
            "Time (s) [min per one run]": 40.009,
            "Time (s) [max per one run]": 52.081,
            "Objective value [avg per one run]": 0.0,
            "Branch count [avg per one run]": 416430.6666666667,
            "Solution is optimal [avg per one run]": 1.0,
            "MaxObjective [-1 means no maxObjective]": 110
        },
        "j9037_6.sm": {
            "Time (s) [avg per one run]": 59.05433333333334,
            "Time (s) [min per one run]": 55.02,
            "Time (s) [max per one run]": 61.081,
            "Objective value [avg per one run]": 0.0,
            "Branch count [avg per one run]": 578656.3333333334,
            "Solution is optimal [avg per one run]": 1.0,
            "MaxObjective [-1 means no maxObjective]": 126
        },
        "j9041_10.sm": {
            "Time (s) [avg per one run]": 19.714333333333332,
            "Time (s) [min per one run]": 19.051,
            "Time (s) [max per one run]": 20.073,
            "Objective value [avg per one run]": 0.0,
            "Branch count [avg per one run]": 115847.0,
            "Solution is optimal [avg per one run]": 1.0,
            "MaxObjective [-1 means no maxObjective]": 145
        },
        "j9041_4.sm": {
            "Time (s) [avg per one run]": 44.062999999999995,
            "Time (s) [min per one run]": 41.097,
            "Time (s) [max per one run]": 47.037,
            "Objective value [avg per one run]": 0.0,
            "Branch count [avg per one run]": 268875.3333333333,
            "Solution is optimal [avg per one run]": 1.0,
            "MaxObjective [-1 means no maxObjective]": 142
        },
        "j9041_5.sm": {
            "Time (s) [avg per one run]": 22.703999999999997,
            "Time (s) [min per one run]": 11.008,
            "Time (s) [max per one run]": 45.051,
            "Objective value [avg per one run]": 0.0,
            "Branch count [avg per one run]": 115622.33333333333,
            "Solution is optimal [avg per one run]": 1.0,
            "MaxObjective [-1 means no maxObjective]": 116
        },
        "j9041_6.sm": {
            "Time (s) [avg per one run]": 40.38,
            "Time (s) [min per one run]": 37.02,
            "Time (s) [max per one run]": 44.094,
            "Objective value [avg per one run]": 0.0,
            "Branch count [avg per one run]": 247011.66666666666,
            "Solution is optimal [avg per one run]": 1.0,
            "MaxObjective [-1 means no maxObjective]": 127
        },
        "j9041_7.sm": {
            "Time (s) [avg per one run]": 11.387,
            "Time (s) [min per one run]": 10.018,
            "Time (s) [max per one run]": 12.088,
            "Objective value [avg per one run]": 0.0,
            "Branch count [avg per one run]": 63254.0,
            "Solution is optimal [avg per one run]": 1.0,
            "MaxObjective [-1 means no maxObjective]": 143
        },
        "j9041_9.sm": {
            "Time (s) [avg per one run]": 14.052666666666667,
            "Time (s) [min per one run]": 14.025,
            "Time (s) [max per one run]": 14.083,
            "Objective value [avg per one run]": 0.0,
            "Branch count [avg per one run]": 75922.33333333333,
            "Solution is optimal [avg per one run]": 1.0,
            "MaxObjective [-1 means no maxObjective]": 109
        },
        "j9045_1.sm": {
            "Time (s) [avg per one run]": 56.424,
            "Time (s) [min per one run]": 52.083,
            "Time (s) [max per one run]": 61.095,
            "Objective value [avg per one run]": 0.0,
            "Branch count [avg per one run]": 271432.0,
            "Solution is optimal [avg per one run]": 1.0,
            "MaxObjective [-1 means no maxObjective]": 143
        },
        "j9045_3.sm": {
            "Time (s) [avg per one run]": 38.026666666666664,
            "Time (s) [min per one run]": 26.033,
            "Time (s) [max per one run]": 56.007,
            "Objective value [avg per one run]": 0.0,
            "Branch count [avg per one run]": 148516.33333333334,
            "Solution is optimal [avg per one run]": 1.0,
            "MaxObjective [-1 means no maxObjective]": 141
        },
        "j9045_5.sm": {
            "Time (s) [avg per one run]": 0.0,
            "Time (s) [min per one run]": 0.0,
            "Time (s) [max per one run]": 0.0,
            "Objective value [avg per one run]": 0.0,
            "Branch count [avg per one run]": 0.0,
            "Solution is optimal [avg per one run]": 1.0,
            "MaxObjective [-1 means no maxObjective]": 161
        },
        "j905_3.sm": {
            "Time (s) [avg per one run]": 24.70266666666667,
            "Time (s) [min per one run]": 21.05,
            "Time (s) [max per one run]": 29.022,
            "Objective value [avg per one run]": 0.0,
            "Branch count [avg per one run]": 242780.0,
            "Solution is optimal [avg per one run]": 1.0,
            "MaxObjective [-1 means no maxObjective]": 84
        },
        "j905_4.sm": {
            "Time (s) [avg per one run]": 51.052,
            "Time (s) [min per one run]": 49.079,
            "Time (s) [max per one run]": 53.071,
            "Objective value [avg per one run]": 0.0,
            "Branch count [avg per one run]": 461143.0,
            "Solution is optimal [avg per one run]": 1.0,
            "MaxObjective [-1 means no maxObjective]": 99
        },
        "j905_5.sm": {
            "Time (s) [avg per one run]": 2.035,
            "Time (s) [min per one run]": 2.022,
            "Time (s) [max per one run]": 2.045,
            "Objective value [avg per one run]": 0.0,
            "Branch count [avg per one run]": 26396.333333333332,
            "Solution is optimal [avg per one run]": 1.0,
            "MaxObjective [-1 means no maxObjective]": 108
        },
        "j905_6.sm": {
            "Time (s) [avg per one run]": 3.3853333333333335,
            "Time (s) [min per one run]": 3.047,
            "Time (s) [max per one run]": 4.051,
            "Objective value [avg per one run]": 0.0,
            "Branch count [avg per one run]": 34487.333333333336,
            "Solution is optimal [avg per one run]": 1.0,
            "MaxObjective [-1 means no maxObjective]": 84
        },
        "j905_7.sm": {
            "Time (s) [avg per one run]": 0.024999999999999998,
            "Time (s) [min per one run]": 0.015,
            "Time (s) [max per one run]": 0.034,
            "Objective value [avg per one run]": 0.0,
            "Branch count [avg per one run]": 2407.0,
            "Solution is optimal [avg per one run]": 1.0,
            "MaxObjective [-1 means no maxObjective]": 105
        },
        "j905_9.sm": {
            "Time (s) [avg per one run]": 27.715666666666664,
            "Time (s) [min per one run]": 26.086,
            "Time (s) [max per one run]": 30.061,
            "Objective value [avg per one run]": 0.0,
            "Branch count [avg per one run]": 238006.0,
            "Solution is optimal [avg per one run]": 1.0,
            "MaxObjective [-1 means no maxObjective]": 111
        },
        "j909_10.sm": {
            "Time (s) [avg per one run]": 31.721666666666664,
            "Time (s) [min per one run]": 24.065,
            "Time (s) [max per one run]": 44.025,
            "Objective value [avg per one run]": 0.0,
            "Branch count [avg per one run]": 162467.66666666666,
            "Solution is optimal [avg per one run]": 1.0,
            "MaxObjective [-1 means no maxObjective]": 104
        },
        "j909_3.sm": {
            "Time (s) [avg per one run]": 1.7216666666666667,
            "Time (s) [min per one run]": 1.04,
            "Time (s) [max per one run]": 3.074,
            "Objective value [avg per one run]": 0.0,
            "Branch count [avg per one run]": 11779.333333333334,
            "Solution is optimal [avg per one run]": 1.0,
            "MaxObjective [-1 means no maxObjective]": 97
        },
        "j909_4.sm": {
            "Time (s) [avg per one run]": 37.39266666666666,
            "Time (s) [min per one run]": 33.094,
            "Time (s) [max per one run]": 40.074,
            "Objective value [avg per one run]": 0.0,
            "Branch count [avg per one run]": 201066.0,
            "Solution is optimal [avg per one run]": 1.0,
            "MaxObjective [-1 means no maxObjective]": 119
        },
        "j909_5.sm": {
            "Time (s) [avg per one run]": 38.03466666666667,
            "Time (s) [min per one run]": 35.011,
            "Time (s) [max per one run]": 42.019,
            "Objective value [avg per one run]": 0.0,
            "Branch count [avg per one run]": 204589.33333333334,
            "Solution is optimal [avg per one run]": 1.0,
            "MaxObjective [-1 means no maxObjective]": 128
        },
        "j909_7.sm": {
            "Time (s) [avg per one run]": 6.734666666666667,
            "Time (s) [min per one run]": 6.077,
            "Time (s) [max per one run]": 7.073,
            "Objective value [avg per one run]": 0.0,
            "Branch count [avg per one run]": 45581.0,
            "Solution is optimal [avg per one run]": 1.0,
            "MaxObjective [-1 means no maxObjective]": 102
        },
        "j909_8.sm": {
            "Time (s) [avg per one run]": 62.39166666666666,
            "Time (s) [min per one run]": 58.052,
            "Time (s) [max per one run]": 69.07,
            "Objective value [avg per one run]": 0.0,
            "Branch count [avg per one run]": 370707.3333333333,
            "Solution is optimal [avg per one run]": 1.0,
            "MaxObjective [-1 means no maxObjective]": 110
        },
        "j909_9.sm": {
            "Time (s) [avg per one run]": 10.383333333333333,
            "Time (s) [min per one run]": 9.054,
            "Time (s) [max per one run]": 12.044,
            "Objective value [avg per one run]": 0.0,
            "Branch count [avg per one run]": 60829.666666666664,
            "Solution is optimal [avg per one run]": 1.0,
            "MaxObjective [-1 means no maxObjective]": 105
        }
    },
    "params": {
        "FDSInitialRating": "0.3",
        "FDSLengthStepRatio": "0.4",
        "FDSUniformChoiceStep": "1",
        "FDSBothFailRewardFactor": "1.0",
        "FDSFixedAlpha": "0.9",
        "FDSEpsilon": "0",
        "RandomSeed": [
            "1",
            "2",
            "3"
        ]
    },
    "default params for this problem": {
        "NumberOfWorkers": {
            "value": 1
        },
        "NoOverlapPropagationLevel": {
            "value": 2
        },
        "CumulPropagationLevel": {
            "value": 3
        }
    },
    "globals": {
        "Time sum (s) [sum of averages per instance]": 2657.0586666666663,
        "Time sum (s) [sum of all runs per instance]": 7971.175999999999,
        "Global branch count [sum of averages per instance]": 15104985.333333327,
        "Global branch count [sum of all runs per instance]": 45314956.0,
        "Instance count": 100,
        "Solved (non-optimally and optimally) count [sum of averages per instance]": 100,
        "Optimally solved count [sum of averages per instance]": 100
    }
}