{
    "instances": {
        "j12011_4.sm": {
            "Time (s) [avg per one run]": 26.394666666666666,
            "Time (s) [min per one run]": 18.069,
            "Time (s) [max per one run]": 34.022,
            "Objective value [avg per one run]": 0.0,
            "Branch count [avg per one run]": 128978.66666666667,
            "Solution is optimal [avg per one run]": 1.0,
            "MaxObjective [-1 means no maxObjective]": 181
        },
        "j12011_5.sm": {
            "Time (s) [avg per one run]": 9.366999999999999,
            "Time (s) [min per one run]": 8.044,
            "Time (s) [max per one run]": 10.056,
            "Objective value [avg per one run]": 0.0,
            "Branch count [avg per one run]": 39605.333333333336,
            "Solution is optimal [avg per one run]": 1.0,
            "MaxObjective [-1 means no maxObjective]": 193
        },
        "j12012_3.sm": {
            "Time (s) [avg per one run]": 1.7433333333333334,
            "Time (s) [min per one run]": 1.085,
            "Time (s) [max per one run]": 2.077,
            "Objective value [avg per one run]": 0.0,
            "Branch count [avg per one run]": 8835.666666666666,
            "Solution is optimal [avg per one run]": 1.0,
            "MaxObjective [-1 means no maxObjective]": 131
        },
        "j12012_4.sm": {
            "Time (s) [avg per one run]": 22.395333333333337,
            "Time (s) [min per one run]": 19.019,
            "Time (s) [max per one run]": 28.085,
            "Objective value [avg per one run]": 0.0,
            "Branch count [avg per one run]": 101125.33333333333,
            "Solution is optimal [avg per one run]": 1.0,
            "MaxObjective [-1 means no maxObjective]": 121
        },
        "j12012_5.sm": {
            "Time (s) [avg per one run]": 5.368333333333333,
            "Time (s) [min per one run]": 4.003,
            "Time (s) [max per one run]": 8.003,
            "Objective value [avg per one run]": 0.0,
            "Branch count [avg per one run]": 17992.666666666668,
            "Solution is optimal [avg per one run]": 1.0,
            "MaxObjective [-1 means no maxObjective]": 154
        },
        "j12012_6.sm": {
            "Time (s) [avg per one run]": 2.3876666666666666,
            "Time (s) [min per one run]": 2.04,
            "Time (s) [max per one run]": 3.03,
            "Objective value [avg per one run]": 0.0,
            "Branch count [avg per one run]": 10193.666666666666,
            "Solution is optimal [avg per one run]": 1.0,
            "MaxObjective [-1 means no maxObjective]": 115
        },
        "j12013_10.sm": {
            "Time (s) [avg per one run]": 53.40166666666667,
            "Time (s) [min per one run]": 47.057,
            "Time (s) [max per one run]": 66.063,
            "Objective value [avg per one run]": 0.0,
            "Branch count [avg per one run]": 145088.0,
            "Solution is optimal [avg per one run]": 1.0,
            "MaxObjective [-1 means no maxObjective]": 88
        },
        "j12013_2.sm": {
            "Time (s) [avg per one run]": 0.0,
            "Time (s) [min per one run]": 0.0,
            "Time (s) [max per one run]": 0.0,
            "Objective value [avg per one run]": 0.0,
            "Branch count [avg per one run]": 0.0,
            "Solution is optimal [avg per one run]": 1.0,
            "MaxObjective [-1 means no maxObjective]": 87
        },
        "j12013_3.sm": {
            "Time (s) [avg per one run]": 0.034,
            "Time (s) [min per one run]": 0.023,
            "Time (s) [max per one run]": 0.04,
            "Objective value [avg per one run]": 0.0,
            "Branch count [avg per one run]": 952.6666666666666,
            "Solution is optimal [avg per one run]": 1.0,
            "MaxObjective [-1 means no maxObjective]": 114
        },
        "j12013_4.sm": {
            "Time (s) [avg per one run]": 3.690666666666667,
            "Time (s) [min per one run]": 2.025,
            "Time (s) [max per one run]": 6.009,
            "Objective value [avg per one run]": 0.0,
            "Branch count [avg per one run]": 10612.0,
            "Solution is optimal [avg per one run]": 1.0,
            "MaxObjective [-1 means no maxObjective]": 107
        },
        "j12014_2.sm": {
            "Time (s) [avg per one run]": 0.37600000000000006,
            "Time (s) [min per one run]": 0.056,
            "Time (s) [max per one run]": 1.01,
            "Objective value [avg per one run]": 0.0,
            "Branch count [avg per one run]": 1900.3333333333333,
            "Solution is optimal [avg per one run]": 1.0,
            "MaxObjective [-1 means no maxObjective]": 89
        },
        "j12014_4.sm": {
            "Time (s) [avg per one run]": 0.0003333333333333333,
            "Time (s) [min per one run]": 0.0,
            "Time (s) [max per one run]": 0.001,
            "Objective value [avg per one run]": 0.0,
            "Branch count [avg per one run]": 0.0,
            "Solution is optimal [avg per one run]": 1.0,
            "MaxObjective [-1 means no maxObjective]": 84
        },
        "j12014_5.sm": {
            "Time (s) [avg per one run]": 0.0,
            "Time (s) [min per one run]": 0.0,
            "Time (s) [max per one run]": 0.0,
            "Objective value [avg per one run]": 0.0,
            "Branch count [avg per one run]": 0.0,
            "Solution is optimal [avg per one run]": 1.0,
            "MaxObjective [-1 means no maxObjective]": 92
        },
        "j12014_8.sm": {
            "Time (s) [avg per one run]": 2.698,
            "Time (s) [min per one run]": 2.09,
            "Time (s) [max per one run]": 3.002,
            "Objective value [avg per one run]": 0.0,
            "Branch count [avg per one run]": 8144.0,
            "Solution is optimal [avg per one run]": 1.0,
            "MaxObjective [-1 means no maxObjective]": 109
        },
        "j12016_10.sm": {
            "Time (s) [avg per one run]": 19.070666666666668,
            "Time (s) [min per one run]": 15.089,
            "Time (s) [max per one run]": 23.091,
            "Objective value [avg per one run]": 0.0,
            "Branch count [avg per one run]": 41584.333333333336,
            "Solution is optimal [avg per one run]": 1.0,
            "MaxObjective [-1 means no maxObjective]": 203
        },
        "j12016_2.sm": {
            "Time (s) [avg per one run]": 5.376666666666666,
            "Time (s) [min per one run]": 5.02,
            "Time (s) [max per one run]": 6.062,
            "Objective value [avg per one run]": 0.0,
            "Branch count [avg per one run]": 12507.666666666666,
            "Solution is optimal [avg per one run]": 1.0,
            "MaxObjective [-1 means no maxObjective]": 219
        },
        "j12016_3.sm": {
            "Time (s) [avg per one run]": 13.738666666666667,
            "Time (s) [min per one run]": 9.064,
            "Time (s) [max per one run]": 22.083,
            "Objective value [avg per one run]": 0.0,
            "Branch count [avg per one run]": 25000.0,
            "Solution is optimal [avg per one run]": 1.0,
            "MaxObjective [-1 means no maxObjective]": 219
        },
        "j12016_4.sm": {
            "Time (s) [avg per one run]": 55.06466666666666,
            "Time (s) [min per one run]": 34.005,
            "Time (s) [max per one run]": 90.092,
            "Objective value [avg per one run]": 0.0,
            "Branch count [avg per one run]": 212052.0,
            "Solution is optimal [avg per one run]": 1.0,
            "MaxObjective [-1 means no maxObjective]": 190
        },
        "j12016_6.sm": {
            "Time (s) [avg per one run]": 0.03966666666666666,
            "Time (s) [min per one run]": 0.019,
            "Time (s) [max per one run]": 0.062,
            "Objective value [avg per one run]": 0.0,
            "Branch count [avg per one run]": 645.0,
            "Solution is optimal [avg per one run]": 1.0,
            "MaxObjective [-1 means no maxObjective]": 193
        },
        "j12016_7.sm": {
            "Time (s) [avg per one run]": 0.0,
            "Time (s) [min per one run]": 0.0,
            "Time (s) [max per one run]": 0.0,
            "Objective value [avg per one run]": 0.0,
            "Branch count [avg per one run]": 0.0,
            "Solution is optimal [avg per one run]": 1.0,
            "MaxObjective [-1 means no maxObjective]": 173
        },
        "j12016_8.sm": {
            "Time (s) [avg per one run]": 8.065,
            "Time (s) [min per one run]": 4.027,
            "Time (s) [max per one run]": 10.092,
            "Objective value [avg per one run]": 0.0,
            "Branch count [avg per one run]": 16247.0,
            "Solution is optimal [avg per one run]": 1.0,
            "MaxObjective [-1 means no maxObjective]": 181
        },
        "j12017_1.sm": {
            "Time (s) [avg per one run]": 0.6956666666666665,
            "Time (s) [min per one run]": 0.076,
            "Time (s) [max per one run]": 1.007,
            "Objective value [avg per one run]": 0.0,
            "Branch count [avg per one run]": 1789.3333333333333,
            "Solution is optimal [avg per one run]": 1.0,
            "MaxObjective [-1 means no maxObjective]": 134
        },
        "j12017_2.sm": {
            "Time (s) [avg per one run]": 2.725,
            "Time (s) [min per one run]": 1.064,
            "Time (s) [max per one run]": 4.059,
            "Objective value [avg per one run]": 0.0,
            "Branch count [avg per one run]": 5863.666666666667,
            "Solution is optimal [avg per one run]": 1.0,
            "MaxObjective [-1 means no maxObjective]": 120
        },
        "j12017_3.sm": {
            "Time (s) [avg per one run]": 1.0536666666666665,
            "Time (s) [min per one run]": 0.094,
            "Time (s) [max per one run]": 2.017,
            "Objective value [avg per one run]": 0.0,
            "Branch count [avg per one run]": 3692.6666666666665,
            "Solution is optimal [avg per one run]": 1.0,
            "MaxObjective [-1 means no maxObjective]": 105
        },
        "j12017_5.sm": {
            "Time (s) [avg per one run]": 5.738666666666667,
            "Time (s) [min per one run]": 5.082,
            "Time (s) [max per one run]": 6.084,
            "Objective value [avg per one run]": 0.0,
            "Branch count [avg per one run]": 13109.666666666666,
            "Solution is optimal [avg per one run]": 1.0,
            "MaxObjective [-1 means no maxObjective]": 122
        },
        "j12017_6.sm": {
            "Time (s) [avg per one run]": 1.7146666666666668,
            "Time (s) [min per one run]": 1.045,
            "Time (s) [max per one run]": 2.059,
            "Objective value [avg per one run]": 0.0,
            "Branch count [avg per one run]": 4857.0,
            "Solution is optimal [avg per one run]": 1.0,
            "MaxObjective [-1 means no maxObjective]": 132
        },
        "j12017_9.sm": {
            "Time (s) [avg per one run]": 5.727666666666667,
            "Time (s) [min per one run]": 5.048,
            "Time (s) [max per one run]": 7.075,
            "Objective value [avg per one run]": 0.0,
            "Branch count [avg per one run]": 13247.333333333334,
            "Solution is optimal [avg per one run]": 1.0,
            "MaxObjective [-1 means no maxObjective]": 128
        },
        "j12018_10.sm": {
            "Time (s) [avg per one run]": 4.407666666666667,
            "Time (s) [min per one run]": 4.039,
            "Time (s) [max per one run]": 5.086,
            "Objective value [avg per one run]": 0.0,
            "Branch count [avg per one run]": 9188.333333333334,
            "Solution is optimal [avg per one run]": 1.0,
            "MaxObjective [-1 means no maxObjective]": 96
        },
        "j12018_2.sm": {
            "Time (s) [avg per one run]": 0.0,
            "Time (s) [min per one run]": 0.0,
            "Time (s) [max per one run]": 0.0,
            "Objective value [avg per one run]": 0.0,
            "Branch count [avg per one run]": 0.0,
            "Solution is optimal [avg per one run]": 1.0,
            "MaxObjective [-1 means no maxObjective]": 110
        },
        "j12018_4.sm": {
            "Time (s) [avg per one run]": 0.0,
            "Time (s) [min per one run]": 0.0,
            "Time (s) [max per one run]": 0.0,
            "Objective value [avg per one run]": 0.0,
            "Branch count [avg per one run]": 0.0,
            "Solution is optimal [avg per one run]": 1.0,
            "MaxObjective [-1 means no maxObjective]": 97
        },
        "j12018_6.sm": {
            "Time (s) [avg per one run]": 6.043666666666667,
            "Time (s) [min per one run]": 4.083,
            "Time (s) [max per one run]": 8.044,
            "Objective value [avg per one run]": 0.0,
            "Branch count [avg per one run]": 13261.333333333334,
            "Solution is optimal [avg per one run]": 1.0,
            "MaxObjective [-1 means no maxObjective]": 130
        },
        "j12018_7.sm": {
            "Time (s) [avg per one run]": 1.7356666666666667,
            "Time (s) [min per one run]": 1.098,
            "Time (s) [max per one run]": 2.088,
            "Objective value [avg per one run]": 0.0,
            "Branch count [avg per one run]": 4820.666666666667,
            "Solution is optimal [avg per one run]": 1.0,
            "MaxObjective [-1 means no maxObjective]": 111
        },
        "j1206_1.sm": {
            "Time (s) [avg per one run]": 18.051666666666666,
            "Time (s) [min per one run]": 13.03,
            "Time (s) [max per one run]": 25.094,
            "Objective value [avg per one run]": 0.0,
            "Branch count [avg per one run]": 160458.66666666666,
            "Solution is optimal [avg per one run]": 1.0,
            "MaxObjective [-1 means no maxObjective]": 135
        },
        "j1206_10.sm": {
            "Time (s) [avg per one run]": 10.389000000000001,
            "Time (s) [min per one run]": 9.052,
            "Time (s) [max per one run]": 11.088,
            "Objective value [avg per one run]": 0.0,
            "Branch count [avg per one run]": 88145.33333333333,
            "Solution is optimal [avg per one run]": 1.0,
            "MaxObjective [-1 means no maxObjective]": 157
        },
        "j1206_3.sm": {
            "Time (s) [avg per one run]": 4.706333333333333,
            "Time (s) [min per one run]": 3.037,
            "Time (s) [max per one run]": 6.028,
            "Objective value [avg per one run]": 0.0,
            "Branch count [avg per one run]": 32154.0,
            "Solution is optimal [avg per one run]": 1.0,
            "MaxObjective [-1 means no maxObjective]": 126
        },
        "j1206_7.sm": {
            "Time (s) [avg per one run]": 5.729666666666667,
            "Time (s) [min per one run]": 4.094,
            "Time (s) [max per one run]": 8.028,
            "Objective value [avg per one run]": 0.0,
            "Branch count [avg per one run]": 40489.0,
            "Solution is optimal [avg per one run]": 1.0,
            "MaxObjective [-1 means no maxObjective]": 153
        },
        "j1207_2.sm": {
            "Time (s) [avg per one run]": 54.377,
            "Time (s) [min per one run]": 49.036,
            "Time (s) [max per one run]": 61.058,
            "Objective value [avg per one run]": 0.0,
            "Branch count [avg per one run]": 383245.3333333333,
            "Solution is optimal [avg per one run]": 1.0,
            "MaxObjective [-1 means no maxObjective]": 111
        },
        "j1207_5.sm": {
            "Time (s) [avg per one run]": 6.713666666666666,
            "Time (s) [min per one run]": 4.073,
            "Time (s) [max per one run]": 10.001,
            "Objective value [avg per one run]": 0.0,
            "Branch count [avg per one run]": 43346.0,
            "Solution is optimal [avg per one run]": 1.0,
            "MaxObjective [-1 means no maxObjective]": 125
        },
        "j1207_6.sm": {
            "Time (s) [avg per one run]": 5.729333333333333,
            "Time (s) [min per one run]": 4.028,
            "Time (s) [max per one run]": 7.091,
            "Objective value [avg per one run]": 0.0,
            "Branch count [avg per one run]": 32676.666666666668,
            "Solution is optimal [avg per one run]": 1.0,
            "MaxObjective [-1 means no maxObjective]": 115
        },
        "j1207_8.sm": {
            "Time (s) [avg per one run]": 1.0233333333333332,
            "Time (s) [min per one run]": 1.012,
            "Time (s) [max per one run]": 1.038,
            "Objective value [avg per one run]": 0.0,
            "Branch count [avg per one run]": 8391.0,
            "Solution is optimal [avg per one run]": 1.0,
            "MaxObjective [-1 means no maxObjective]": 92
        },
        "j1208_4.sm": {
            "Time (s) [avg per one run]": 2.709666666666667,
            "Time (s) [min per one run]": 1.046,
            "Time (s) [max per one run]": 4.064,
            "Objective value [avg per one run]": 0.0,
            "Branch count [avg per one run]": 23544.666666666668,
            "Solution is optimal [avg per one run]": 1.0,
            "MaxObjective [-1 means no maxObjective]": 89
        },
        "j1208_5.sm": {
            "Time (s) [avg per one run]": 3.3713333333333337,
            "Time (s) [min per one run]": 3.027,
            "Time (s) [max per one run]": 4.023,
            "Objective value [avg per one run]": 0.0,
            "Branch count [avg per one run]": 20220.333333333332,
            "Solution is optimal [avg per one run]": 1.0,
            "MaxObjective [-1 means no maxObjective]": 99
        },
        "j1208_8.sm": {
            "Time (s) [avg per one run]": 0.0,
            "Time (s) [min per one run]": 0.0,
            "Time (s) [max per one run]": 0.0,
            "Objective value [avg per one run]": 0.0,
            "Branch count [avg per one run]": 0.0,
            "Solution is optimal [avg per one run]": 1.0,
            "MaxObjective [-1 means no maxObjective]": 86
        },
        "j1208_9.sm": {
            "Time (s) [avg per one run]": 9.741999999999999,
            "Time (s) [min per one run]": 8.093,
            "Time (s) [max per one run]": 11.043,
            "Objective value [avg per one run]": 0.0,
            "Branch count [avg per one run]": 43742.333333333336,
            "Solution is optimal [avg per one run]": 1.0,
            "MaxObjective [-1 means no maxObjective]": 89
        },
        "j1209_4.sm": {
            "Time (s) [avg per one run]": 2.0583333333333336,
            "Time (s) [min per one run]": 2.018,
            "Time (s) [max per one run]": 2.089,
            "Objective value [avg per one run]": 0.0,
            "Branch count [avg per one run]": 16803.666666666668,
            "Solution is optimal [avg per one run]": 1.0,
            "MaxObjective [-1 means no maxObjective]": 84
        },
        "j6013_10.sm": {
            "Time (s) [avg per one run]": 8.368,
            "Time (s) [min per one run]": 8.043,
            "Time (s) [max per one run]": 9.002,
            "Objective value [avg per one run]": 0.0,
            "Branch count [avg per one run]": 92473.66666666667,
            "Solution is optimal [avg per one run]": 1.0,
            "MaxObjective [-1 means no maxObjective]": 113
        },
        "j6013_2.sm": {
            "Time (s) [avg per one run]": 0.39866666666666667,
            "Time (s) [min per one run]": 0.091,
            "Time (s) [max per one run]": 1.013,
            "Objective value [avg per one run]": 0.0,
            "Branch count [avg per one run]": 8620.0,
            "Solution is optimal [avg per one run]": 1.0,
            "MaxObjective [-1 means no maxObjective]": 101
        },
        "j6013_3.sm": {
            "Time (s) [avg per one run]": 5.061333333333334,
            "Time (s) [min per one run]": 4.088,
            "Time (s) [max per one run]": 6.065,
            "Objective value [avg per one run]": 0.0,
            "Branch count [avg per one run]": 45926.333333333336,
            "Solution is optimal [avg per one run]": 1.0,
            "MaxObjective [-1 means no maxObjective]": 83
        },
        "j6013_6.sm": {
            "Time (s) [avg per one run]": 1.040333333333333,
            "Time (s) [min per one run]": 1.033,
            "Time (s) [max per one run]": 1.046,
            "Objective value [avg per one run]": 0.0,
            "Branch count [avg per one run]": 10520.666666666666,
            "Solution is optimal [avg per one run]": 1.0,
            "MaxObjective [-1 means no maxObjective]": 90
        },
        "j6013_7.sm": {
            "Time (s) [avg per one run]": 69.05533333333334,
            "Time (s) [min per one run]": 61.063,
            "Time (s) [max per one run]": 73.097,
            "Objective value [avg per one run]": 0.0,
            "Branch count [avg per one run]": 450042.0,
            "Solution is optimal [avg per one run]": 1.0,
            "MaxObjective [-1 means no maxObjective]": 82
        },
        "j6013_9.sm": {
            "Time (s) [avg per one run]": 24.052000000000003,
            "Time (s) [min per one run]": 20.061,
            "Time (s) [max per one run]": 27.064,
            "Objective value [avg per one run]": 0.0,
            "Branch count [avg per one run]": 152133.0,
            "Solution is optimal [avg per one run]": 1.0,
            "MaxObjective [-1 means no maxObjective]": 96
        },
        "j6014_3.sm": {
            "Time (s) [avg per one run]": 0.0,
            "Time (s) [min per one run]": 0.0,
            "Time (s) [max per one run]": 0.0,
            "Objective value [avg per one run]": 0.0,
            "Branch count [avg per one run]": 0.0,
            "Solution is optimal [avg per one run]": 1.0,
            "MaxObjective [-1 means no maxObjective]": 60
        },
        "j6025_5.sm": {
            "Time (s) [avg per one run]": 36.358,
            "Time (s) [min per one run]": 33.042,
            "Time (s) [max per one run]": 40.016,
            "Objective value [avg per one run]": 0.0,
            "Branch count [avg per one run]": 388113.3333333333,
            "Solution is optimal [avg per one run]": 1.0,
            "MaxObjective [-1 means no maxObjective]": 94
        },
        "j6025_6.sm": {
            "Time (s) [avg per one run]": 19.067666666666668,
            "Time (s) [min per one run]": 16.079,
            "Time (s) [max per one run]": 23.094,
            "Objective value [avg per one run]": 0.0,
            "Branch count [avg per one run]": 158685.66666666666,
            "Solution is optimal [avg per one run]": 1.0,
            "MaxObjective [-1 means no maxObjective]": 102
        },
        "j6029_10.sm": {
            "Time (s) [avg per one run]": 9.391666666666667,
            "Time (s) [min per one run]": 8.066,
            "Time (s) [max per one run]": 11.072,
            "Objective value [avg per one run]": 0.0,
            "Branch count [avg per one run]": 74517.33333333333,
            "Solution is optimal [avg per one run]": 1.0,
            "MaxObjective [-1 means no maxObjective]": 110
        },
        "j6029_4.sm": {
            "Time (s) [avg per one run]": 49.39933333333334,
            "Time (s) [min per one run]": 43.086,
            "Time (s) [max per one run]": 55.017,
            "Objective value [avg per one run]": 0.0,
            "Branch count [avg per one run]": 294456.0,
            "Solution is optimal [avg per one run]": 1.0,
            "MaxObjective [-1 means no maxObjective]": 122
        },
        "j6029_5.sm": {
            "Time (s) [avg per one run]": 34.381,
            "Time (s) [min per one run]": 28.024,
            "Time (s) [max per one run]": 43.06,
            "Objective value [avg per one run]": 0.0,
            "Branch count [avg per one run]": 237662.0,
            "Solution is optimal [avg per one run]": 1.0,
            "MaxObjective [-1 means no maxObjective]": 99
        },
        "j6029_7.sm": {
            "Time (s) [avg per one run]": 20.695333333333334,
            "Time (s) [min per one run]": 18.05,
            "Time (s) [max per one run]": 24.033,
            "Objective value [avg per one run]": 0.0,
            "Branch count [avg per one run]": 157439.33333333334,
            "Solution is optimal [avg per one run]": 1.0,
            "MaxObjective [-1 means no maxObjective]": 115
        },
        "j6029_8.sm": {
            "Time (s) [avg per one run]": 44.726333333333336,
            "Time (s) [min per one run]": 41.01,
            "Time (s) [max per one run]": 47.074,
            "Objective value [avg per one run]": 0.0,
            "Branch count [avg per one run]": 271434.6666666667,
            "Solution is optimal [avg per one run]": 1.0,
            "MaxObjective [-1 means no maxObjective]": 97
        },
        "j6029_9.sm": {
            "Time (s) [avg per one run]": 24.711333333333332,
            "Time (s) [min per one run]": 8.027,
            "Time (s) [max per one run]": 54.077,
            "Objective value [avg per one run]": 0.0,
            "Branch count [avg per one run]": 194854.0,
            "Solution is optimal [avg per one run]": 1.0,
            "MaxObjective [-1 means no maxObjective]": 101
        },
        "j6041_3.sm": {
            "Time (s) [avg per one run]": 15.044000000000002,
            "Time (s) [min per one run]": 13.065,
            "Time (s) [max per one run]": 17.053,
            "Objective value [avg per one run]": 0.0,
            "Branch count [avg per one run]": 110037.0,
            "Solution is optimal [avg per one run]": 1.0,
            "MaxObjective [-1 means no maxObjective]": 87
        },
        "j6041_5.sm": {
            "Time (s) [avg per one run]": 82.38966666666668,
            "Time (s) [min per one run]": 40.045,
            "Time (s) [max per one run]": 158.038,
            "Objective value [avg per one run]": 0.0,
            "Branch count [avg per one run]": 744974.0,
            "Solution is optimal [avg per one run]": 1.0,
            "MaxObjective [-1 means no maxObjective]": 106
        },
        "j609_10.sm": {
            "Time (s) [avg per one run]": 16.698666666666664,
            "Time (s) [min per one run]": 14.062,
            "Time (s) [max per one run]": 20.009,
            "Objective value [avg per one run]": 0.0,
            "Branch count [avg per one run]": 114102.0,
            "Solution is optimal [avg per one run]": 1.0,
            "MaxObjective [-1 means no maxObjective]": 89
        },
        "j609_2.sm": {
            "Time (s) [avg per one run]": 64.05900000000001,
            "Time (s) [min per one run]": 61.078,
            "Time (s) [max per one run]": 67.075,
            "Objective value [avg per one run]": 0.0,
            "Branch count [avg per one run]": 674750.6666666666,
            "Solution is optimal [avg per one run]": 1.0,
            "MaxObjective [-1 means no maxObjective]": 81
        },
        "j609_3.sm": {
            "Time (s) [avg per one run]": 49.367,
            "Time (s) [min per one run]": 48.051,
            "Time (s) [max per one run]": 50.042,
            "Objective value [avg per one run]": 0.0,
            "Branch count [avg per one run]": 536864.3333333334,
            "Solution is optimal [avg per one run]": 1.0,
            "MaxObjective [-1 means no maxObjective]": 97
        },
        "j609_7.sm": {
            "Time (s) [avg per one run]": 30.39633333333333,
            "Time (s) [min per one run]": 29.006,
            "Time (s) [max per one run]": 31.092,
            "Objective value [avg per one run]": 0.0,
            "Branch count [avg per one run]": 239027.33333333334,
            "Solution is optimal [avg per one run]": 1.0,
            "MaxObjective [-1 means no maxObjective]": 103
        },
        "j9013_2.sm": {
            "Time (s) [avg per one run]": 11.046000000000001,
            "Time (s) [min per one run]": 9.066,
            "Time (s) [max per one run]": 13.034,
            "Objective value [avg per one run]": 0.0,
            "Branch count [avg per one run]": 58736.0,
            "Solution is optimal [avg per one run]": 1.0,
            "MaxObjective [-1 means no maxObjective]": 119
        },
        "j9013_6.sm": {
            "Time (s) [avg per one run]": 2.0856666666666666,
            "Time (s) [min per one run]": 2.077,
            "Time (s) [max per one run]": 2.092,
            "Objective value [avg per one run]": 0.0,
            "Branch count [avg per one run]": 9534.333333333334,
            "Solution is optimal [avg per one run]": 1.0,
            "MaxObjective [-1 means no maxObjective]": 116
        },
        "j9013_8.sm": {
            "Time (s) [avg per one run]": 5.019666666666667,
            "Time (s) [min per one run]": 4.007,
            "Time (s) [max per one run]": 6.038,
            "Objective value [avg per one run]": 0.0,
            "Branch count [avg per one run]": 21496.666666666668,
            "Solution is optimal [avg per one run]": 1.0,
            "MaxObjective [-1 means no maxObjective]": 112
        },
        "j9025_5.sm": {
            "Time (s) [avg per one run]": 9.709999999999999,
            "Time (s) [min per one run]": 5.078,
            "Time (s) [max per one run]": 16.001,
            "Objective value [avg per one run]": 0.0,
            "Branch count [avg per one run]": 61480.666666666664,
            "Solution is optimal [avg per one run]": 1.0,
            "MaxObjective [-1 means no maxObjective]": 109
        },
        "j9026_5.sm": {
            "Time (s) [avg per one run]": 3.3586666666666667,
            "Time (s) [min per one run]": 3.016,
            "Time (s) [max per one run]": 4.008,
            "Objective value [avg per one run]": 0.0,
            "Branch count [avg per one run]": 19901.333333333332,
            "Solution is optimal [avg per one run]": 1.0,
            "MaxObjective [-1 means no maxObjective]": 83
        },
        "j9029_1.sm": {
            "Time (s) [avg per one run]": 38.349,
            "Time (s) [min per one run]": 38.001,
            "Time (s) [max per one run]": 39.036,
            "Objective value [avg per one run]": 0.0,
            "Branch count [avg per one run]": 156371.66666666666,
            "Solution is optimal [avg per one run]": 1.0,
            "MaxObjective [-1 means no maxObjective]": 126
        },
        "j9029_4.sm": {
            "Time (s) [avg per one run]": 13.714666666666668,
            "Time (s) [min per one run]": 13.039,
            "Time (s) [max per one run]": 14.099,
            "Objective value [avg per one run]": 0.0,
            "Branch count [avg per one run]": 66777.0,
            "Solution is optimal [avg per one run]": 1.0,
            "MaxObjective [-1 means no maxObjective]": 139
        },
        "j9029_5.sm": {
            "Time (s) [avg per one run]": 39.382666666666665,
            "Time (s) [min per one run]": 31.052,
            "Time (s) [max per one run]": 48.017,
            "Objective value [avg per one run]": 0.0,
            "Branch count [avg per one run]": 116400.66666666667,
            "Solution is optimal [avg per one run]": 1.0,
            "MaxObjective [-1 means no maxObjective]": 115
        },
        "j9029_7.sm": {
            "Time (s) [avg per one run]": 35.36233333333333,
            "Time (s) [min per one run]": 20.075,
            "Time (s) [max per one run]": 64.011,
            "Objective value [avg per one run]": 0.0,
            "Branch count [avg per one run]": 202645.0,
            "Solution is optimal [avg per one run]": 1.0,
            "MaxObjective [-1 means no maxObjective]": 159
        },
        "j9029_8.sm": {
            "Time (s) [avg per one run]": 12.055666666666667,
            "Time (s) [min per one run]": 5.0,
            "Time (s) [max per one run]": 24.072,
            "Objective value [avg per one run]": 0.0,
            "Branch count [avg per one run]": 51693.666666666664,
            "Solution is optimal [avg per one run]": 1.0,
            "MaxObjective [-1 means no maxObjective]": 145
        },
        "j9037_2.sm": {
            "Time (s) [avg per one run]": 38.370666666666665,
            "Time (s) [min per one run]": 35.004,
            "Time (s) [max per one run]": 41.029,
            "Objective value [avg per one run]": 0.0,
            "Branch count [avg per one run]": 337744.6666666667,
            "Solution is optimal [avg per one run]": 1.0,
            "MaxObjective [-1 means no maxObjective]": 110
        },
        "j9037_6.sm": {
            "Time (s) [avg per one run]": 67.72033333333333,
            "Time (s) [min per one run]": 66.059,
            "Time (s) [max per one run]": 70.008,
            "Objective value [avg per one run]": 0.0,
            "Branch count [avg per one run]": 622897.3333333334,
            "Solution is optimal [avg per one run]": 1.0,
            "MaxObjective [-1 means no maxObjective]": 126
        },
        "j9041_10.sm": {
            "Time (s) [avg per one run]": 13.709999999999999,
            "Time (s) [min per one run]": 11.058,
            "Time (s) [max per one run]": 15.072,
            "Objective value [avg per one run]": 0.0,
            "Branch count [avg per one run]": 74197.33333333333,
            "Solution is optimal [avg per one run]": 1.0,
            "MaxObjective [-1 means no maxObjective]": 145
        },
        "j9041_4.sm": {
            "Time (s) [avg per one run]": 41.74766666666667,
            "Time (s) [min per one run]": 30.089,
            "Time (s) [max per one run]": 62.098,
            "Objective value [avg per one run]": 0.0,
            "Branch count [avg per one run]": 255937.66666666666,
            "Solution is optimal [avg per one run]": 1.0,
            "MaxObjective [-1 means no maxObjective]": 142
        },
        "j9041_5.sm": {
            "Time (s) [avg per one run]": 14.732333333333335,
            "Time (s) [min per one run]": 8.098,
            "Time (s) [max per one run]": 22.057,
            "Objective value [avg per one run]": 0.0,
            "Branch count [avg per one run]": 73080.66666666667,
            "Solution is optimal [avg per one run]": 1.0,
            "MaxObjective [-1 means no maxObjective]": 116
        },
        "j9041_6.sm": {
            "Time (s) [avg per one run]": 37.721666666666664,
            "Time (s) [min per one run]": 37.072,
            "Time (s) [max per one run]": 38.049,
            "Objective value [avg per one run]": 0.0,
            "Branch count [avg per one run]": 213526.33333333334,
            "Solution is optimal [avg per one run]": 1.0,
            "MaxObjective [-1 means no maxObjective]": 127
        },
        "j9041_7.sm": {
            "Time (s) [avg per one run]": 34.36766666666667,
            "Time (s) [min per one run]": 22.026,
            "Time (s) [max per one run]": 53.043,
            "Objective value [avg per one run]": 0.0,
            "Branch count [avg per one run]": 140436.33333333334,
            "Solution is optimal [avg per one run]": 1.0,
            "MaxObjective [-1 means no maxObjective]": 143
        },
        "j9041_9.sm": {
            "Time (s) [avg per one run]": 13.069,
            "Time (s) [min per one run]": 7.095,
            "Time (s) [max per one run]": 19.058,
            "Objective value [avg per one run]": 0.0,
            "Branch count [avg per one run]": 66020.66666666667,
            "Solution is optimal [avg per one run]": 1.0,
            "MaxObjective [-1 means no maxObjective]": 109
        },
        "j9045_1.sm": {
            "Time (s) [avg per one run]": 47.39266666666666,
            "Time (s) [min per one run]": 38.098,
            "Time (s) [max per one run]": 54.005,
            "Objective value [avg per one run]": 0.0,
            "Branch count [avg per one run]": 239302.0,
            "Solution is optimal [avg per one run]": 1.0,
            "MaxObjective [-1 means no maxObjective]": 143
        },
        "j9045_3.sm": {
            "Time (s) [avg per one run]": 12.702666666666666,
            "Time (s) [min per one run]": 8.005,
            "Time (s) [max per one run]": 16.054,
            "Objective value [avg per one run]": 0.0,
            "Branch count [avg per one run]": 45448.333333333336,
            "Solution is optimal [avg per one run]": 1.0,
            "MaxObjective [-1 means no maxObjective]": 141
        },
        "j9045_5.sm": {
            "Time (s) [avg per one run]": 0.0,
            "Time (s) [min per one run]": 0.0,
            "Time (s) [max per one run]": 0.0,
            "Objective value [avg per one run]": 0.0,
            "Branch count [avg per one run]": 0.0,
            "Solution is optimal [avg per one run]": 1.0,
            "MaxObjective [-1 means no maxObjective]": 161
        },
        "j905_3.sm": {
            "Time (s) [avg per one run]": 33.378,
            "Time (s) [min per one run]": 27.083,
            "Time (s) [max per one run]": 39.045,
            "Objective value [avg per one run]": 0.0,
            "Branch count [avg per one run]": 307770.0,
            "Solution is optimal [avg per one run]": 1.0,
            "MaxObjective [-1 means no maxObjective]": 84
        },
        "j905_4.sm": {
            "Time (s) [avg per one run]": 42.414,
            "Time (s) [min per one run]": 39.094,
            "Time (s) [max per one run]": 47.058,
            "Objective value [avg per one run]": 0.0,
            "Branch count [avg per one run]": 371371.6666666667,
            "Solution is optimal [avg per one run]": 1.0,
            "MaxObjective [-1 means no maxObjective]": 99
        },
        "j905_5.sm": {
            "Time (s) [avg per one run]": 1.0593333333333332,
            "Time (s) [min per one run]": 1.015,
            "Time (s) [max per one run]": 1.091,
            "Objective value [avg per one run]": 0.0,
            "Branch count [avg per one run]": 16672.666666666668,
            "Solution is optimal [avg per one run]": 1.0,
            "MaxObjective [-1 means no maxObjective]": 108
        },
        "j905_6.sm": {
            "Time (s) [avg per one run]": 2.7046666666666663,
            "Time (s) [min per one run]": 1.075,
            "Time (s) [max per one run]": 5.025,
            "Objective value [avg per one run]": 0.0,
            "Branch count [avg per one run]": 25008.333333333332,
            "Solution is optimal [avg per one run]": 1.0,
            "MaxObjective [-1 means no maxObjective]": 84
        },
        "j905_7.sm": {
            "Time (s) [avg per one run]": 0.017666666666666667,
            "Time (s) [min per one run]": 0.012,
            "Time (s) [max per one run]": 0.021,
            "Objective value [avg per one run]": 0.0,
            "Branch count [avg per one run]": 1657.3333333333333,
            "Solution is optimal [avg per one run]": 1.0,
            "MaxObjective [-1 means no maxObjective]": 105
        },
        "j905_9.sm": {
            "Time (s) [avg per one run]": 25.393666666666665,
            "Time (s) [min per one run]": 23.097,
            "Time (s) [max per one run]": 28.056,
            "Objective value [avg per one run]": 0.0,
            "Branch count [avg per one run]": 216102.0,
            "Solution is optimal [avg per one run]": 1.0,
            "MaxObjective [-1 means no maxObjective]": 111
        },
        "j909_10.sm": {
            "Time (s) [avg per one run]": 46.059666666666665,
            "Time (s) [min per one run]": 40.039,
            "Time (s) [max per one run]": 58.045,
            "Objective value [avg per one run]": 0.0,
            "Branch count [avg per one run]": 214282.0,
            "Solution is optimal [avg per one run]": 1.0,
            "MaxObjective [-1 means no maxObjective]": 104
        },
        "j909_3.sm": {
            "Time (s) [avg per one run]": 1.6959999999999997,
            "Time (s) [min per one run]": 1.017,
            "Time (s) [max per one run]": 2.063,
            "Objective value [avg per one run]": 0.0,
            "Branch count [avg per one run]": 10580.666666666666,
            "Solution is optimal [avg per one run]": 1.0,
            "MaxObjective [-1 means no maxObjective]": 97
        },
        "j909_4.sm": {
            "Time (s) [avg per one run]": 25.055000000000003,
            "Time (s) [min per one run]": 20.07,
            "Time (s) [max per one run]": 32.033,
            "Objective value [avg per one run]": 0.0,
            "Branch count [avg per one run]": 126806.33333333333,
            "Solution is optimal [avg per one run]": 1.0,
            "MaxObjective [-1 means no maxObjective]": 119
        },
        "j909_5.sm": {
            "Time (s) [avg per one run]": 33.056999999999995,
            "Time (s) [min per one run]": 30.076,
            "Time (s) [max per one run]": 38.064,
            "Objective value [avg per one run]": 0.0,
            "Branch count [avg per one run]": 171018.66666666666,
            "Solution is optimal [avg per one run]": 1.0,
            "MaxObjective [-1 means no maxObjective]": 128
        },
        "j909_7.sm": {
            "Time (s) [avg per one run]": 6.067333333333333,
            "Time (s) [min per one run]": 4.068,
            "Time (s) [max per one run]": 8.072,
            "Objective value [avg per one run]": 0.0,
            "Branch count [avg per one run]": 40920.666666666664,
            "Solution is optimal [avg per one run]": 1.0,
            "MaxObjective [-1 means no maxObjective]": 102
        },
        "j909_8.sm": {
            "Time (s) [avg per one run]": 48.727000000000004,
            "Time (s) [min per one run]": 47.075,
            "Time (s) [max per one run]": 50.051,
            "Objective value [avg per one run]": 0.0,
            "Branch count [avg per one run]": 270441.3333333333,
            "Solution is optimal [avg per one run]": 1.0,
            "MaxObjective [-1 means no maxObjective]": 110
        },
        "j909_9.sm": {
            "Time (s) [avg per one run]": 5.407,
            "Time (s) [min per one run]": 4.084,
            "Time (s) [max per one run]": 7.051,
            "Objective value [avg per one run]": 0.0,
            "Branch count [avg per one run]": 35398.666666666664,
            "Solution is optimal [avg per one run]": 1.0,
            "MaxObjective [-1 means no maxObjective]": 105
        }
    },
    "params": {
        "FDSEpsilon": "0.1",
        "RLType": "EEGREEDY",
        "RandomSeed": [
            "1",
            "2",
            "3"
        ]
    },
    "default params for this problem": {
        "NumberOfWorkers": {
            "value": 1
        },
        "NoOverlapPropagationLevel": {
            "value": 2
        },
        "CumulPropagationLevel": {
            "value": 3
        },
        "FDSLengthStepRatio": {
            "value": 0.4
        }
    },
    "globals": {
        "Time sum (s) [sum of averages per instance]": 1774.6643333333334,
        "Time sum (s) [sum of all runs per instance]": 5323.9929999999995,
        "Global branch count [sum of averages per instance]": 10734573.333333327,
        "Global branch count [sum of all runs per instance]": 32203720.0,
        "Instance count": 100,
        "Solved (non-optimally and optimally) count [sum of averages per instance]": 100,
        "Optimally solved count [sum of averages per instance]": 100
    }
}