{
    "instances": {
        "j12011_4.sm": {
            "Time (s) [avg per one run]": 43.050333333333334,
            "Time (s) [min per one run]": 28.032,
            "Time (s) [max per one run]": 55.099,
            "Objective value [avg per one run]": 0.0,
            "Branch count [avg per one run]": 181120.0,
            "Solution is optimal [avg per one run]": 1.0,
            "MaxObjective [-1 means no maxObjective]": 181
        },
        "j12011_5.sm": {
            "Time (s) [avg per one run]": 14.692333333333332,
            "Time (s) [min per one run]": 10.007,
            "Time (s) [max per one run]": 19.011,
            "Objective value [avg per one run]": 0.0,
            "Branch count [avg per one run]": 58675.0,
            "Solution is optimal [avg per one run]": 1.0,
            "MaxObjective [-1 means no maxObjective]": 193
        },
        "j12012_3.sm": {
            "Time (s) [avg per one run]": 2.3706666666666667,
            "Time (s) [min per one run]": 2.008,
            "Time (s) [max per one run]": 3.032,
            "Objective value [avg per one run]": 0.0,
            "Branch count [avg per one run]": 9937.0,
            "Solution is optimal [avg per one run]": 1.0,
            "MaxObjective [-1 means no maxObjective]": 131
        },
        "j12012_4.sm": {
            "Time (s) [avg per one run]": 29.054000000000002,
            "Time (s) [min per one run]": 17.064,
            "Time (s) [max per one run]": 36.006,
            "Objective value [avg per one run]": 0.0,
            "Branch count [avg per one run]": 118300.33333333333,
            "Solution is optimal [avg per one run]": 1.0,
            "MaxObjective [-1 means no maxObjective]": 121
        },
        "j12012_5.sm": {
            "Time (s) [avg per one run]": 6.062,
            "Time (s) [min per one run]": 4.048,
            "Time (s) [max per one run]": 8.083,
            "Objective value [avg per one run]": 0.0,
            "Branch count [avg per one run]": 20718.666666666668,
            "Solution is optimal [avg per one run]": 1.0,
            "MaxObjective [-1 means no maxObjective]": 154
        },
        "j12012_6.sm": {
            "Time (s) [avg per one run]": 2.0833333333333335,
            "Time (s) [min per one run]": 2.057,
            "Time (s) [max per one run]": 2.098,
            "Objective value [avg per one run]": 0.0,
            "Branch count [avg per one run]": 9584.0,
            "Solution is optimal [avg per one run]": 1.0,
            "MaxObjective [-1 means no maxObjective]": 115
        },
        "j12013_10.sm": {
            "Time (s) [avg per one run]": 68.71133333333333,
            "Time (s) [min per one run]": 59.023,
            "Time (s) [max per one run]": 80.093,
            "Objective value [avg per one run]": 0.0,
            "Branch count [avg per one run]": 173701.33333333334,
            "Solution is optimal [avg per one run]": 1.0,
            "MaxObjective [-1 means no maxObjective]": 88
        },
        "j12013_2.sm": {
            "Time (s) [avg per one run]": 0.0,
            "Time (s) [min per one run]": 0.0,
            "Time (s) [max per one run]": 0.0,
            "Objective value [avg per one run]": 0.0,
            "Branch count [avg per one run]": 0.0,
            "Solution is optimal [avg per one run]": 1.0,
            "MaxObjective [-1 means no maxObjective]": 87
        },
        "j12013_3.sm": {
            "Time (s) [avg per one run]": 0.05633333333333334,
            "Time (s) [min per one run]": 0.034,
            "Time (s) [max per one run]": 0.079,
            "Objective value [avg per one run]": 0.0,
            "Branch count [avg per one run]": 1566.3333333333333,
            "Solution is optimal [avg per one run]": 1.0,
            "MaxObjective [-1 means no maxObjective]": 114
        },
        "j12013_4.sm": {
            "Time (s) [avg per one run]": 2.736333333333333,
            "Time (s) [min per one run]": 2.073,
            "Time (s) [max per one run]": 4.037,
            "Objective value [avg per one run]": 0.0,
            "Branch count [avg per one run]": 8970.0,
            "Solution is optimal [avg per one run]": 1.0,
            "MaxObjective [-1 means no maxObjective]": 107
        },
        "j12014_2.sm": {
            "Time (s) [avg per one run]": 0.068,
            "Time (s) [min per one run]": 0.058,
            "Time (s) [max per one run]": 0.079,
            "Objective value [avg per one run]": 0.0,
            "Branch count [avg per one run]": 1798.6666666666667,
            "Solution is optimal [avg per one run]": 1.0,
            "MaxObjective [-1 means no maxObjective]": 89
        },
        "j12014_4.sm": {
            "Time (s) [avg per one run]": 0.0,
            "Time (s) [min per one run]": 0.0,
            "Time (s) [max per one run]": 0.0,
            "Objective value [avg per one run]": 0.0,
            "Branch count [avg per one run]": 0.0,
            "Solution is optimal [avg per one run]": 1.0,
            "MaxObjective [-1 means no maxObjective]": 84
        },
        "j12014_5.sm": {
            "Time (s) [avg per one run]": 0.0,
            "Time (s) [min per one run]": 0.0,
            "Time (s) [max per one run]": 0.0,
            "Objective value [avg per one run]": 0.0,
            "Branch count [avg per one run]": 0.0,
            "Solution is optimal [avg per one run]": 1.0,
            "MaxObjective [-1 means no maxObjective]": 92
        },
        "j12014_8.sm": {
            "Time (s) [avg per one run]": 4.038333333333334,
            "Time (s) [min per one run]": 3.072,
            "Time (s) [max per one run]": 5.025,
            "Objective value [avg per one run]": 0.0,
            "Branch count [avg per one run]": 11441.0,
            "Solution is optimal [avg per one run]": 1.0,
            "MaxObjective [-1 means no maxObjective]": 109
        },
        "j12016_10.sm": {
            "Time (s) [avg per one run]": 21.723,
            "Time (s) [min per one run]": 19.091,
            "Time (s) [max per one run]": 25.017,
            "Objective value [avg per one run]": 0.0,
            "Branch count [avg per one run]": 48331.666666666664,
            "Solution is optimal [avg per one run]": 1.0,
            "MaxObjective [-1 means no maxObjective]": 203
        },
        "j12016_2.sm": {
            "Time (s) [avg per one run]": 5.717666666666666,
            "Time (s) [min per one run]": 3.011,
            "Time (s) [max per one run]": 9.055,
            "Objective value [avg per one run]": 0.0,
            "Branch count [avg per one run]": 13315.666666666666,
            "Solution is optimal [avg per one run]": 1.0,
            "MaxObjective [-1 means no maxObjective]": 219
        },
        "j12016_3.sm": {
            "Time (s) [avg per one run]": 12.682,
            "Time (s) [min per one run]": 9.015,
            "Time (s) [max per one run]": 18.002,
            "Objective value [avg per one run]": 0.0,
            "Branch count [avg per one run]": 22906.333333333332,
            "Solution is optimal [avg per one run]": 1.0,
            "MaxObjective [-1 means no maxObjective]": 219
        },
        "j12016_4.sm": {
            "Time (s) [avg per one run]": 41.36233333333333,
            "Time (s) [min per one run]": 26.038,
            "Time (s) [max per one run]": 69.049,
            "Objective value [avg per one run]": 0.0,
            "Branch count [avg per one run]": 102268.33333333333,
            "Solution is optimal [avg per one run]": 1.0,
            "MaxObjective [-1 means no maxObjective]": 190
        },
        "j12016_6.sm": {
            "Time (s) [avg per one run]": 0.39399999999999996,
            "Time (s) [min per one run]": 0.062,
            "Time (s) [max per one run]": 1.048,
            "Objective value [avg per one run]": 0.0,
            "Branch count [avg per one run]": 1725.6666666666667,
            "Solution is optimal [avg per one run]": 1.0,
            "MaxObjective [-1 means no maxObjective]": 193
        },
        "j12016_7.sm": {
            "Time (s) [avg per one run]": 0.0,
            "Time (s) [min per one run]": 0.0,
            "Time (s) [max per one run]": 0.0,
            "Objective value [avg per one run]": 0.0,
            "Branch count [avg per one run]": 0.0,
            "Solution is optimal [avg per one run]": 1.0,
            "MaxObjective [-1 means no maxObjective]": 173
        },
        "j12016_8.sm": {
            "Time (s) [avg per one run]": 10.708333333333334,
            "Time (s) [min per one run]": 7.01,
            "Time (s) [max per one run]": 14.041,
            "Objective value [avg per one run]": 0.0,
            "Branch count [avg per one run]": 20563.666666666668,
            "Solution is optimal [avg per one run]": 1.0,
            "MaxObjective [-1 means no maxObjective]": 181
        },
        "j12017_1.sm": {
            "Time (s) [avg per one run]": 0.7199999999999999,
            "Time (s) [min per one run]": 0.052,
            "Time (s) [max per one run]": 1.081,
            "Objective value [avg per one run]": 0.0,
            "Branch count [avg per one run]": 2200.3333333333335,
            "Solution is optimal [avg per one run]": 1.0,
            "MaxObjective [-1 means no maxObjective]": 134
        },
        "j12017_2.sm": {
            "Time (s) [avg per one run]": 2.387,
            "Time (s) [min per one run]": 1.082,
            "Time (s) [max per one run]": 3.04,
            "Objective value [avg per one run]": 0.0,
            "Branch count [avg per one run]": 5747.0,
            "Solution is optimal [avg per one run]": 1.0,
            "MaxObjective [-1 means no maxObjective]": 120
        },
        "j12017_3.sm": {
            "Time (s) [avg per one run]": 2.0500000000000003,
            "Time (s) [min per one run]": 2.033,
            "Time (s) [max per one run]": 2.073,
            "Objective value [avg per one run]": 0.0,
            "Branch count [avg per one run]": 5684.0,
            "Solution is optimal [avg per one run]": 1.0,
            "MaxObjective [-1 means no maxObjective]": 105
        },
        "j12017_5.sm": {
            "Time (s) [avg per one run]": 7.021999999999999,
            "Time (s) [min per one run]": 7.014,
            "Time (s) [max per one run]": 7.032,
            "Objective value [avg per one run]": 0.0,
            "Branch count [avg per one run]": 14511.333333333334,
            "Solution is optimal [avg per one run]": 1.0,
            "MaxObjective [-1 means no maxObjective]": 122
        },
        "j12017_6.sm": {
            "Time (s) [avg per one run]": 1.3936666666666664,
            "Time (s) [min per one run]": 1.031,
            "Time (s) [max per one run]": 2.053,
            "Objective value [avg per one run]": 0.0,
            "Branch count [avg per one run]": 4492.333333333333,
            "Solution is optimal [avg per one run]": 1.0,
            "MaxObjective [-1 means no maxObjective]": 132
        },
        "j12017_9.sm": {
            "Time (s) [avg per one run]": 5.031333333333333,
            "Time (s) [min per one run]": 4.019,
            "Time (s) [max per one run]": 7.023,
            "Objective value [avg per one run]": 0.0,
            "Branch count [avg per one run]": 11230.333333333334,
            "Solution is optimal [avg per one run]": 1.0,
            "MaxObjective [-1 means no maxObjective]": 128
        },
        "j12018_10.sm": {
            "Time (s) [avg per one run]": 4.393666666666667,
            "Time (s) [min per one run]": 4.044,
            "Time (s) [max per one run]": 5.051,
            "Objective value [avg per one run]": 0.0,
            "Branch count [avg per one run]": 8850.333333333334,
            "Solution is optimal [avg per one run]": 1.0,
            "MaxObjective [-1 means no maxObjective]": 96
        },
        "j12018_2.sm": {
            "Time (s) [avg per one run]": 0.0,
            "Time (s) [min per one run]": 0.0,
            "Time (s) [max per one run]": 0.0,
            "Objective value [avg per one run]": 0.0,
            "Branch count [avg per one run]": 0.0,
            "Solution is optimal [avg per one run]": 1.0,
            "MaxObjective [-1 means no maxObjective]": 110
        },
        "j12018_4.sm": {
            "Time (s) [avg per one run]": 0.0,
            "Time (s) [min per one run]": 0.0,
            "Time (s) [max per one run]": 0.0,
            "Objective value [avg per one run]": 0.0,
            "Branch count [avg per one run]": 0.0,
            "Solution is optimal [avg per one run]": 1.0,
            "MaxObjective [-1 means no maxObjective]": 97
        },
        "j12018_6.sm": {
            "Time (s) [avg per one run]": 4.3790000000000004,
            "Time (s) [min per one run]": 4.065,
            "Time (s) [max per one run]": 5.005,
            "Objective value [avg per one run]": 0.0,
            "Branch count [avg per one run]": 9103.666666666666,
            "Solution is optimal [avg per one run]": 1.0,
            "MaxObjective [-1 means no maxObjective]": 130
        },
        "j12018_7.sm": {
            "Time (s) [avg per one run]": 2.0453333333333332,
            "Time (s) [min per one run]": 2.023,
            "Time (s) [max per one run]": 2.075,
            "Objective value [avg per one run]": 0.0,
            "Branch count [avg per one run]": 5024.333333333333,
            "Solution is optimal [avg per one run]": 1.0,
            "MaxObjective [-1 means no maxObjective]": 111
        },
        "j1206_1.sm": {
            "Time (s) [avg per one run]": 48.69200000000001,
            "Time (s) [min per one run]": 35.019,
            "Time (s) [max per one run]": 61.048,
            "Objective value [avg per one run]": 0.0,
            "Branch count [avg per one run]": 354022.3333333333,
            "Solution is optimal [avg per one run]": 1.0,
            "MaxObjective [-1 means no maxObjective]": 135
        },
        "j1206_10.sm": {
            "Time (s) [avg per one run]": 18.36,
            "Time (s) [min per one run]": 14.014,
            "Time (s) [max per one run]": 24.052,
            "Objective value [avg per one run]": 0.0,
            "Branch count [avg per one run]": 130294.0,
            "Solution is optimal [avg per one run]": 1.0,
            "MaxObjective [-1 means no maxObjective]": 157
        },
        "j1206_3.sm": {
            "Time (s) [avg per one run]": 10.379,
            "Time (s) [min per one run]": 5.041,
            "Time (s) [max per one run]": 14.048,
            "Objective value [avg per one run]": 0.0,
            "Branch count [avg per one run]": 65012.666666666664,
            "Solution is optimal [avg per one run]": 1.0,
            "MaxObjective [-1 means no maxObjective]": 126
        },
        "j1206_7.sm": {
            "Time (s) [avg per one run]": 12.038000000000002,
            "Time (s) [min per one run]": 6.011,
            "Time (s) [max per one run]": 21.014,
            "Objective value [avg per one run]": 0.0,
            "Branch count [avg per one run]": 70158.33333333333,
            "Solution is optimal [avg per one run]": 1.0,
            "MaxObjective [-1 means no maxObjective]": 153
        },
        "j1207_2.sm": {
            "Time (s) [avg per one run]": 99.72966666666666,
            "Time (s) [min per one run]": 88.083,
            "Time (s) [max per one run]": 114.047,
            "Objective value [avg per one run]": 0.0,
            "Branch count [avg per one run]": 691802.6666666666,
            "Solution is optimal [avg per one run]": 1.0,
            "MaxObjective [-1 means no maxObjective]": 111
        },
        "j1207_5.sm": {
            "Time (s) [avg per one run]": 14.722999999999999,
            "Time (s) [min per one run]": 6.025,
            "Time (s) [max per one run]": 31.079,
            "Objective value [avg per one run]": 0.0,
            "Branch count [avg per one run]": 76691.33333333333,
            "Solution is optimal [avg per one run]": 1.0,
            "MaxObjective [-1 means no maxObjective]": 125
        },
        "j1207_6.sm": {
            "Time (s) [avg per one run]": 8.404,
            "Time (s) [min per one run]": 3.099,
            "Time (s) [max per one run]": 15.041,
            "Objective value [avg per one run]": 0.0,
            "Branch count [avg per one run]": 43071.333333333336,
            "Solution is optimal [avg per one run]": 1.0,
            "MaxObjective [-1 means no maxObjective]": 115
        },
        "j1207_8.sm": {
            "Time (s) [avg per one run]": 1.0313333333333332,
            "Time (s) [min per one run]": 1.023,
            "Time (s) [max per one run]": 1.047,
            "Objective value [avg per one run]": 0.0,
            "Branch count [avg per one run]": 8554.666666666666,
            "Solution is optimal [avg per one run]": 1.0,
            "MaxObjective [-1 means no maxObjective]": 92
        },
        "j1208_4.sm": {
            "Time (s) [avg per one run]": 3.6943333333333332,
            "Time (s) [min per one run]": 3.01,
            "Time (s) [max per one run]": 5.008,
            "Objective value [avg per one run]": 0.0,
            "Branch count [avg per one run]": 27854.333333333332,
            "Solution is optimal [avg per one run]": 1.0,
            "MaxObjective [-1 means no maxObjective]": 89
        },
        "j1208_5.sm": {
            "Time (s) [avg per one run]": 4.376666666666666,
            "Time (s) [min per one run]": 2.034,
            "Time (s) [max per one run]": 6.068,
            "Objective value [avg per one run]": 0.0,
            "Branch count [avg per one run]": 23058.333333333332,
            "Solution is optimal [avg per one run]": 1.0,
            "MaxObjective [-1 means no maxObjective]": 99
        },
        "j1208_8.sm": {
            "Time (s) [avg per one run]": 0.0,
            "Time (s) [min per one run]": 0.0,
            "Time (s) [max per one run]": 0.0,
            "Objective value [avg per one run]": 0.0,
            "Branch count [avg per one run]": 0.0,
            "Solution is optimal [avg per one run]": 1.0,
            "MaxObjective [-1 means no maxObjective]": 86
        },
        "j1208_9.sm": {
            "Time (s) [avg per one run]": 14.367333333333335,
            "Time (s) [min per one run]": 11.088,
            "Time (s) [max per one run]": 17.009,
            "Objective value [avg per one run]": 0.0,
            "Branch count [avg per one run]": 58220.666666666664,
            "Solution is optimal [avg per one run]": 1.0,
            "MaxObjective [-1 means no maxObjective]": 89
        },
        "j1209_4.sm": {
            "Time (s) [avg per one run]": 2.7273333333333336,
            "Time (s) [min per one run]": 2.057,
            "Time (s) [max per one run]": 3.09,
            "Objective value [avg per one run]": 0.0,
            "Branch count [avg per one run]": 21361.666666666668,
            "Solution is optimal [avg per one run]": 1.0,
            "MaxObjective [-1 means no maxObjective]": 84
        },
        "j6013_10.sm": {
            "Time (s) [avg per one run]": 11.723666666666666,
            "Time (s) [min per one run]": 9.009,
            "Time (s) [max per one run]": 15.078,
            "Objective value [avg per one run]": 0.0,
            "Branch count [avg per one run]": 117664.33333333333,
            "Solution is optimal [avg per one run]": 1.0,
            "MaxObjective [-1 means no maxObjective]": 113
        },
        "j6013_2.sm": {
            "Time (s) [avg per one run]": 0.7083333333333335,
            "Time (s) [min per one run]": 0.095,
            "Time (s) [max per one run]": 1.016,
            "Objective value [avg per one run]": 0.0,
            "Branch count [avg per one run]": 9022.333333333334,
            "Solution is optimal [avg per one run]": 1.0,
            "MaxObjective [-1 means no maxObjective]": 101
        },
        "j6013_3.sm": {
            "Time (s) [avg per one run]": 6.702333333333333,
            "Time (s) [min per one run]": 6.023,
            "Time (s) [max per one run]": 7.075,
            "Objective value [avg per one run]": 0.0,
            "Branch count [avg per one run]": 51694.666666666664,
            "Solution is optimal [avg per one run]": 1.0,
            "MaxObjective [-1 means no maxObjective]": 83
        },
        "j6013_6.sm": {
            "Time (s) [avg per one run]": 1.3773333333333333,
            "Time (s) [min per one run]": 1.061,
            "Time (s) [max per one run]": 2.006,
            "Objective value [avg per one run]": 0.0,
            "Branch count [avg per one run]": 12716.666666666666,
            "Solution is optimal [avg per one run]": 1.0,
            "MaxObjective [-1 means no maxObjective]": 90
        },
        "j6013_7.sm": {
            "Time (s) [avg per one run]": 143.72366666666667,
            "Time (s) [min per one run]": 129.077,
            "Time (s) [max per one run]": 167.01,
            "Objective value [avg per one run]": 0.0,
            "Branch count [avg per one run]": 855251.0,
            "Solution is optimal [avg per one run]": 1.0,
            "MaxObjective [-1 means no maxObjective]": 82
        },
        "j6013_9.sm": {
            "Time (s) [avg per one run]": 32.38733333333333,
            "Time (s) [min per one run]": 28.056,
            "Time (s) [max per one run]": 38.028,
            "Objective value [avg per one run]": 0.0,
            "Branch count [avg per one run]": 190565.66666666666,
            "Solution is optimal [avg per one run]": 1.0,
            "MaxObjective [-1 means no maxObjective]": 96
        },
        "j6014_3.sm": {
            "Time (s) [avg per one run]": 0.0,
            "Time (s) [min per one run]": 0.0,
            "Time (s) [max per one run]": 0.0,
            "Objective value [avg per one run]": 0.0,
            "Branch count [avg per one run]": 0.0,
            "Solution is optimal [avg per one run]": 1.0,
            "MaxObjective [-1 means no maxObjective]": 60
        },
        "j6025_5.sm": {
            "Time (s) [avg per one run]": 51.73333333333333,
            "Time (s) [min per one run]": 48.026,
            "Time (s) [max per one run]": 55.079,
            "Objective value [avg per one run]": 0.0,
            "Branch count [avg per one run]": 554430.6666666666,
            "Solution is optimal [avg per one run]": 1.0,
            "MaxObjective [-1 means no maxObjective]": 94
        },
        "j6025_6.sm": {
            "Time (s) [avg per one run]": 25.060666666666666,
            "Time (s) [min per one run]": 13.082,
            "Time (s) [max per one run]": 38.066,
            "Objective value [avg per one run]": 0.0,
            "Branch count [avg per one run]": 211663.66666666666,
            "Solution is optimal [avg per one run]": 1.0,
            "MaxObjective [-1 means no maxObjective]": 102
        },
        "j6029_10.sm": {
            "Time (s) [avg per one run]": 11.028666666666666,
            "Time (s) [min per one run]": 11.0,
            "Time (s) [max per one run]": 11.053,
            "Objective value [avg per one run]": 0.0,
            "Branch count [avg per one run]": 77457.0,
            "Solution is optimal [avg per one run]": 1.0,
            "MaxObjective [-1 means no maxObjective]": 110
        },
        "j6029_4.sm": {
            "Time (s) [avg per one run]": 70.392,
            "Time (s) [min per one run]": 56.09,
            "Time (s) [max per one run]": 85.085,
            "Objective value [avg per one run]": 0.0,
            "Branch count [avg per one run]": 382445.3333333333,
            "Solution is optimal [avg per one run]": 1.0,
            "MaxObjective [-1 means no maxObjective]": 122
        },
        "j6029_5.sm": {
            "Time (s) [avg per one run]": 52.72133333333333,
            "Time (s) [min per one run]": 43.048,
            "Time (s) [max per one run]": 59.038,
            "Objective value [avg per one run]": 0.0,
            "Branch count [avg per one run]": 328098.0,
            "Solution is optimal [avg per one run]": 1.0,
            "MaxObjective [-1 means no maxObjective]": 99
        },
        "j6029_7.sm": {
            "Time (s) [avg per one run]": 35.708,
            "Time (s) [min per one run]": 29.023,
            "Time (s) [max per one run]": 47.05,
            "Objective value [avg per one run]": 0.0,
            "Branch count [avg per one run]": 252020.33333333334,
            "Solution is optimal [avg per one run]": 1.0,
            "MaxObjective [-1 means no maxObjective]": 115
        },
        "j6029_8.sm": {
            "Time (s) [avg per one run]": 78.39766666666667,
            "Time (s) [min per one run]": 71.069,
            "Time (s) [max per one run]": 85.097,
            "Objective value [avg per one run]": 0.0,
            "Branch count [avg per one run]": 433333.0,
            "Solution is optimal [avg per one run]": 1.0,
            "MaxObjective [-1 means no maxObjective]": 97
        },
        "j6029_9.sm": {
            "Time (s) [avg per one run]": 36.35466666666667,
            "Time (s) [min per one run]": 9.057,
            "Time (s) [max per one run]": 82.007,
            "Objective value [avg per one run]": 0.0,
            "Branch count [avg per one run]": 281067.3333333333,
            "Solution is optimal [avg per one run]": 1.0,
            "MaxObjective [-1 means no maxObjective]": 101
        },
        "j6041_3.sm": {
            "Time (s) [avg per one run]": 19.081666666666667,
            "Time (s) [min per one run]": 18.094,
            "Time (s) [max per one run]": 20.057,
            "Objective value [avg per one run]": 0.0,
            "Branch count [avg per one run]": 135549.66666666666,
            "Solution is optimal [avg per one run]": 1.0,
            "MaxObjective [-1 means no maxObjective]": 87
        },
        "j6041_5.sm": {
            "Time (s) [avg per one run]": 120.033,
            "Time (s) [min per one run]": 64.014,
            "Time (s) [max per one run]": 201.058,
            "Objective value [avg per one run]": 0.0,
            "Branch count [avg per one run]": 1030136.0,
            "Solution is optimal [avg per one run]": 1.0,
            "MaxObjective [-1 means no maxObjective]": 106
        },
        "j609_10.sm": {
            "Time (s) [avg per one run]": 27.738333333333333,
            "Time (s) [min per one run]": 27.06,
            "Time (s) [max per one run]": 29.068,
            "Objective value [avg per one run]": 0.0,
            "Branch count [avg per one run]": 184006.0,
            "Solution is optimal [avg per one run]": 1.0,
            "MaxObjective [-1 means no maxObjective]": 89
        },
        "j609_2.sm": {
            "Time (s) [avg per one run]": 92.426,
            "Time (s) [min per one run]": 78.093,
            "Time (s) [max per one run]": 117.099,
            "Objective value [avg per one run]": 0.0,
            "Branch count [avg per one run]": 973900.3333333334,
            "Solution is optimal [avg per one run]": 1.0,
            "MaxObjective [-1 means no maxObjective]": 81
        },
        "j609_3.sm": {
            "Time (s) [avg per one run]": 78.71466666666667,
            "Time (s) [min per one run]": 72.016,
            "Time (s) [max per one run]": 89.057,
            "Objective value [avg per one run]": 0.0,
            "Branch count [avg per one run]": 861117.3333333334,
            "Solution is optimal [avg per one run]": 1.0,
            "MaxObjective [-1 means no maxObjective]": 97
        },
        "j609_7.sm": {
            "Time (s) [avg per one run]": 29.733,
            "Time (s) [min per one run]": 26.054,
            "Time (s) [max per one run]": 34.092,
            "Objective value [avg per one run]": 0.0,
            "Branch count [avg per one run]": 242866.33333333334,
            "Solution is optimal [avg per one run]": 1.0,
            "MaxObjective [-1 means no maxObjective]": 103
        },
        "j9013_2.sm": {
            "Time (s) [avg per one run]": 20.689333333333334,
            "Time (s) [min per one run]": 19.043,
            "Time (s) [max per one run]": 22.016,
            "Objective value [avg per one run]": 0.0,
            "Branch count [avg per one run]": 91072.66666666667,
            "Solution is optimal [avg per one run]": 1.0,
            "MaxObjective [-1 means no maxObjective]": 119
        },
        "j9013_6.sm": {
            "Time (s) [avg per one run]": 2.09,
            "Time (s) [min per one run]": 2.078,
            "Time (s) [max per one run]": 2.098,
            "Objective value [avg per one run]": 0.0,
            "Branch count [avg per one run]": 9666.0,
            "Solution is optimal [avg per one run]": 1.0,
            "MaxObjective [-1 means no maxObjective]": 116
        },
        "j9013_8.sm": {
            "Time (s) [avg per one run]": 7.7090000000000005,
            "Time (s) [min per one run]": 6.034,
            "Time (s) [max per one run]": 10.086,
            "Objective value [avg per one run]": 0.0,
            "Branch count [avg per one run]": 31965.0,
            "Solution is optimal [avg per one run]": 1.0,
            "MaxObjective [-1 means no maxObjective]": 112
        },
        "j9025_5.sm": {
            "Time (s) [avg per one run]": 10.734,
            "Time (s) [min per one run]": 8.047,
            "Time (s) [max per one run]": 13.061,
            "Objective value [avg per one run]": 0.0,
            "Branch count [avg per one run]": 61211.0,
            "Solution is optimal [avg per one run]": 1.0,
            "MaxObjective [-1 means no maxObjective]": 109
        },
        "j9026_5.sm": {
            "Time (s) [avg per one run]": 3.732666666666667,
            "Time (s) [min per one run]": 3.074,
            "Time (s) [max per one run]": 4.085,
            "Objective value [avg per one run]": 0.0,
            "Branch count [avg per one run]": 23277.666666666668,
            "Solution is optimal [avg per one run]": 1.0,
            "MaxObjective [-1 means no maxObjective]": 83
        },
        "j9029_1.sm": {
            "Time (s) [avg per one run]": 43.701,
            "Time (s) [min per one run]": 35.033,
            "Time (s) [max per one run]": 58.01,
            "Objective value [avg per one run]": 0.0,
            "Branch count [avg per one run]": 163822.0,
            "Solution is optimal [avg per one run]": 1.0,
            "MaxObjective [-1 means no maxObjective]": 126
        },
        "j9029_4.sm": {
            "Time (s) [avg per one run]": 17.730333333333334,
            "Time (s) [min per one run]": 15.022,
            "Time (s) [max per one run]": 23.079,
            "Objective value [avg per one run]": 0.0,
            "Branch count [avg per one run]": 77802.33333333333,
            "Solution is optimal [avg per one run]": 1.0,
            "MaxObjective [-1 means no maxObjective]": 139
        },
        "j9029_5.sm": {
            "Time (s) [avg per one run]": 85.71600000000001,
            "Time (s) [min per one run]": 64.039,
            "Time (s) [max per one run]": 115.06,
            "Objective value [avg per one run]": 0.0,
            "Branch count [avg per one run]": 243064.33333333334,
            "Solution is optimal [avg per one run]": 1.0,
            "MaxObjective [-1 means no maxObjective]": 115
        },
        "j9029_7.sm": {
            "Time (s) [avg per one run]": 42.718333333333334,
            "Time (s) [min per one run]": 29.071,
            "Time (s) [max per one run]": 69.032,
            "Objective value [avg per one run]": 0.0,
            "Branch count [avg per one run]": 208856.0,
            "Solution is optimal [avg per one run]": 1.0,
            "MaxObjective [-1 means no maxObjective]": 159
        },
        "j9029_8.sm": {
            "Time (s) [avg per one run]": 11.738666666666667,
            "Time (s) [min per one run]": 11.072,
            "Time (s) [max per one run]": 12.096,
            "Objective value [avg per one run]": 0.0,
            "Branch count [avg per one run]": 49097.0,
            "Solution is optimal [avg per one run]": 1.0,
            "MaxObjective [-1 means no maxObjective]": 145
        },
        "j9037_2.sm": {
            "Time (s) [avg per one run]": 54.08166666666667,
            "Time (s) [min per one run]": 47.092,
            "Time (s) [max per one run]": 60.073,
            "Objective value [avg per one run]": 0.0,
            "Branch count [avg per one run]": 477897.6666666667,
            "Solution is optimal [avg per one run]": 1.0,
            "MaxObjective [-1 means no maxObjective]": 110
        },
        "j9037_6.sm": {
            "Time (s) [avg per one run]": 99.39433333333334,
            "Time (s) [min per one run]": 86.077,
            "Time (s) [max per one run]": 106.064,
            "Objective value [avg per one run]": 0.0,
            "Branch count [avg per one run]": 926778.3333333334,
            "Solution is optimal [avg per one run]": 1.0,
            "MaxObjective [-1 means no maxObjective]": 126
        },
        "j9041_10.sm": {
            "Time (s) [avg per one run]": 27.403000000000002,
            "Time (s) [min per one run]": 21.081,
            "Time (s) [max per one run]": 37.078,
            "Objective value [avg per one run]": 0.0,
            "Branch count [avg per one run]": 136661.0,
            "Solution is optimal [avg per one run]": 1.0,
            "MaxObjective [-1 means no maxObjective]": 145
        },
        "j9041_4.sm": {
            "Time (s) [avg per one run]": 63.73600000000001,
            "Time (s) [min per one run]": 53.094,
            "Time (s) [max per one run]": 71.081,
            "Objective value [avg per one run]": 0.0,
            "Branch count [avg per one run]": 335202.6666666667,
            "Solution is optimal [avg per one run]": 1.0,
            "MaxObjective [-1 means no maxObjective]": 142
        },
        "j9041_5.sm": {
            "Time (s) [avg per one run]": 15.688,
            "Time (s) [min per one run]": 12.005,
            "Time (s) [max per one run]": 18.027,
            "Objective value [avg per one run]": 0.0,
            "Branch count [avg per one run]": 77308.33333333333,
            "Solution is optimal [avg per one run]": 1.0,
            "MaxObjective [-1 means no maxObjective]": 116
        },
        "j9041_6.sm": {
            "Time (s) [avg per one run]": 73.40066666666667,
            "Time (s) [min per one run]": 68.074,
            "Time (s) [max per one run]": 76.079,
            "Objective value [avg per one run]": 0.0,
            "Branch count [avg per one run]": 375697.6666666667,
            "Solution is optimal [avg per one run]": 1.0,
            "MaxObjective [-1 means no maxObjective]": 127
        },
        "j9041_7.sm": {
            "Time (s) [avg per one run]": 15.037666666666665,
            "Time (s) [min per one run]": 11.019,
            "Time (s) [max per one run]": 19.051,
            "Objective value [avg per one run]": 0.0,
            "Branch count [avg per one run]": 68280.66666666667,
            "Solution is optimal [avg per one run]": 1.0,
            "MaxObjective [-1 means no maxObjective]": 143
        },
        "j9041_9.sm": {
            "Time (s) [avg per one run]": 22.721333333333334,
            "Time (s) [min per one run]": 14.053,
            "Time (s) [max per one run]": 31.034,
            "Objective value [avg per one run]": 0.0,
            "Branch count [avg per one run]": 105381.66666666667,
            "Solution is optimal [avg per one run]": 1.0,
            "MaxObjective [-1 means no maxObjective]": 109
        },
        "j9045_1.sm": {
            "Time (s) [avg per one run]": 94.05833333333334,
            "Time (s) [min per one run]": 80.081,
            "Time (s) [max per one run]": 107.055,
            "Objective value [avg per one run]": 0.0,
            "Branch count [avg per one run]": 416949.0,
            "Solution is optimal [avg per one run]": 1.0,
            "MaxObjective [-1 means no maxObjective]": 143
        },
        "j9045_3.sm": {
            "Time (s) [avg per one run]": 26.042666666666666,
            "Time (s) [min per one run]": 9.034,
            "Time (s) [max per one run]": 58.073,
            "Objective value [avg per one run]": 0.0,
            "Branch count [avg per one run]": 91994.33333333333,
            "Solution is optimal [avg per one run]": 1.0,
            "MaxObjective [-1 means no maxObjective]": 141
        },
        "j9045_5.sm": {
            "Time (s) [avg per one run]": 0.0,
            "Time (s) [min per one run]": 0.0,
            "Time (s) [max per one run]": 0.0,
            "Objective value [avg per one run]": 0.0,
            "Branch count [avg per one run]": 0.0,
            "Solution is optimal [avg per one run]": 1.0,
            "MaxObjective [-1 means no maxObjective]": 161
        },
        "j905_3.sm": {
            "Time (s) [avg per one run]": 37.055,
            "Time (s) [min per one run]": 34.05,
            "Time (s) [max per one run]": 39.061,
            "Objective value [avg per one run]": 0.0,
            "Branch count [avg per one run]": 321054.3333333333,
            "Solution is optimal [avg per one run]": 1.0,
            "MaxObjective [-1 means no maxObjective]": 84
        },
        "j905_4.sm": {
            "Time (s) [avg per one run]": 74.707,
            "Time (s) [min per one run]": 70.038,
            "Time (s) [max per one run]": 78.079,
            "Objective value [avg per one run]": 0.0,
            "Branch count [avg per one run]": 631151.0,
            "Solution is optimal [avg per one run]": 1.0,
            "MaxObjective [-1 means no maxObjective]": 99
        },
        "j905_5.sm": {
            "Time (s) [avg per one run]": 2.077,
            "Time (s) [min per one run]": 1.08,
            "Time (s) [max per one run]": 3.072,
            "Objective value [avg per one run]": 0.0,
            "Branch count [avg per one run]": 27604.666666666668,
            "Solution is optimal [avg per one run]": 1.0,
            "MaxObjective [-1 means no maxObjective]": 108
        },
        "j905_6.sm": {
            "Time (s) [avg per one run]": 4.684333333333334,
            "Time (s) [min per one run]": 3.003,
            "Time (s) [max per one run]": 7.045,
            "Objective value [avg per one run]": 0.0,
            "Branch count [avg per one run]": 36336.666666666664,
            "Solution is optimal [avg per one run]": 1.0,
            "MaxObjective [-1 means no maxObjective]": 84
        },
        "j905_7.sm": {
            "Time (s) [avg per one run]": 0.020666666666666667,
            "Time (s) [min per one run]": 0.012,
            "Time (s) [max per one run]": 0.031,
            "Objective value [avg per one run]": 0.0,
            "Branch count [avg per one run]": 1926.6666666666667,
            "Solution is optimal [avg per one run]": 1.0,
            "MaxObjective [-1 means no maxObjective]": 105
        },
        "j905_9.sm": {
            "Time (s) [avg per one run]": 44.035000000000004,
            "Time (s) [min per one run]": 42.003,
            "Time (s) [max per one run]": 46.078,
            "Objective value [avg per one run]": 0.0,
            "Branch count [avg per one run]": 350148.0,
            "Solution is optimal [avg per one run]": 1.0,
            "MaxObjective [-1 means no maxObjective]": 111
        },
        "j909_10.sm": {
            "Time (s) [avg per one run]": 71.05433333333333,
            "Time (s) [min per one run]": 46.056,
            "Time (s) [max per one run]": 85.047,
            "Objective value [avg per one run]": 0.0,
            "Branch count [avg per one run]": 307887.3333333333,
            "Solution is optimal [avg per one run]": 1.0,
            "MaxObjective [-1 means no maxObjective]": 104
        },
        "j909_3.sm": {
            "Time (s) [avg per one run]": 1.0330000000000001,
            "Time (s) [min per one run]": 1.021,
            "Time (s) [max per one run]": 1.04,
            "Objective value [avg per one run]": 0.0,
            "Branch count [avg per one run]": 6966.0,
            "Solution is optimal [avg per one run]": 1.0,
            "MaxObjective [-1 means no maxObjective]": 97
        },
        "j909_4.sm": {
            "Time (s) [avg per one run]": 35.051,
            "Time (s) [min per one run]": 30.083,
            "Time (s) [max per one run]": 44.005,
            "Objective value [avg per one run]": 0.0,
            "Branch count [avg per one run]": 166062.33333333334,
            "Solution is optimal [avg per one run]": 1.0,
            "MaxObjective [-1 means no maxObjective]": 119
        },
        "j909_5.sm": {
            "Time (s) [avg per one run]": 73.69066666666667,
            "Time (s) [min per one run]": 41.039,
            "Time (s) [max per one run]": 132.0,
            "Objective value [avg per one run]": 0.0,
            "Branch count [avg per one run]": 327716.6666666667,
            "Solution is optimal [avg per one run]": 1.0,
            "MaxObjective [-1 means no maxObjective]": 128
        },
        "j909_7.sm": {
            "Time (s) [avg per one run]": 10.747,
            "Time (s) [min per one run]": 6.074,
            "Time (s) [max per one run]": 14.077,
            "Objective value [avg per one run]": 0.0,
            "Branch count [avg per one run]": 64578.0,
            "Solution is optimal [avg per one run]": 1.0,
            "MaxObjective [-1 means no maxObjective]": 102
        },
        "j909_8.sm": {
            "Time (s) [avg per one run]": 88.69200000000001,
            "Time (s) [min per one run]": 80.03,
            "Time (s) [max per one run]": 94.039,
            "Objective value [avg per one run]": 0.0,
            "Branch count [avg per one run]": 455483.6666666667,
            "Solution is optimal [avg per one run]": 1.0,
            "MaxObjective [-1 means no maxObjective]": 110
        },
        "j909_9.sm": {
            "Time (s) [avg per one run]": 6.388999999999999,
            "Time (s) [min per one run]": 6.006,
            "Time (s) [max per one run]": 7.066,
            "Objective value [avg per one run]": 0.0,
            "Branch count [avg per one run]": 39275.0,
            "Solution is optimal [avg per one run]": 1.0,
            "MaxObjective [-1 means no maxObjective]": 105
        }
    },
    "params": {
        "FDSEpsilon": "0.1",
        "RLType": "ESOFTMAX",
        "RandomSeed": [
            "1",
            "2",
            "3"
        ]
    },
    "default params for this problem": {
        "NumberOfWorkers": {
            "value": 1
        },
        "NoOverlapPropagationLevel": {
            "value": 2
        },
        "CumulPropagationLevel": {
            "value": 3
        },
        "FDSLengthStepRatio": {
            "value": 0.4
        }
    },
    "globals": {
        "Time sum (s) [sum of averages per instance]": 2935.1029999999996,
        "Time sum (s) [sum of all runs per instance]": 8805.309000000001,
        "Global branch count [sum of averages per instance]": 16285912.000000002,
        "Global branch count [sum of all runs per instance]": 48857736.0,
        "Instance count": 100,
        "Solved (non-optimally and optimally) count [sum of averages per instance]": 100,
        "Optimally solved count [sum of averages per instance]": 100
    }
}