{
    "instances": {
        "abz8": {
            "Time (s) [avg per one run]": 126.05099999999999,
            "Time (s) [min per one run]": 118.046,
            "Time (s) [max per one run]": 138.072,
            "Objective value [avg per one run]": 0.0,
            "Branch count [avg per one run]": 1109746.6666666667,
            "Solution is optimal [avg per one run]": 1.0,
            "MaxObjective [-1 means no maxObjective]": 643
        },
        "cscmax_20_15_1": {
            "Time (s) [avg per one run]": 49.72066666666666,
            "Time (s) [min per one run]": 45.086,
            "Time (s) [max per one run]": 56.049,
            "Objective value [avg per one run]": 0.0,
            "Branch count [avg per one run]": 538700.0,
            "Solution is optimal [avg per one run]": 1.0,
            "MaxObjective [-1 means no maxObjective]": 3160
        },
        "cscmax_20_15_5": {
            "Time (s) [avg per one run]": 68.39033333333334,
            "Time (s) [min per one run]": 60.083,
            "Time (s) [max per one run]": 73.075,
            "Objective value [avg per one run]": 0.0,
            "Branch count [avg per one run]": 690935.6666666666,
            "Solution is optimal [avg per one run]": 1.0,
            "MaxObjective [-1 means no maxObjective]": 3291
        },
        "cscmax_20_15_7": {
            "Time (s) [avg per one run]": 58.036,
            "Time (s) [min per one run]": 51.016,
            "Time (s) [max per one run]": 70.04,
            "Objective value [avg per one run]": 0.0,
            "Branch count [avg per one run]": 573965.3333333334,
            "Solution is optimal [avg per one run]": 1.0,
            "MaxObjective [-1 means no maxObjective]": 3365
        },
        "cscmax_20_15_8": {
            "Time (s) [avg per one run]": 200.40566666666666,
            "Time (s) [min per one run]": 191.088,
            "Time (s) [max per one run]": 211.083,
            "Objective value [avg per one run]": 0.0,
            "Branch count [avg per one run]": 1834626.3333333333,
            "Solution is optimal [avg per one run]": 1.0,
            "MaxObjective [-1 means no maxObjective]": 3375
        },
        "cscmax_20_20_9": {
            "Time (s) [avg per one run]": 109.40866666666666,
            "Time (s) [min per one run]": 95.065,
            "Time (s) [max per one run]": 129.066,
            "Objective value [avg per one run]": 0.0,
            "Branch count [avg per one run]": 835034.6666666666,
            "Solution is optimal [avg per one run]": 1.0,
            "MaxObjective [-1 means no maxObjective]": 3557
        },
        "cscmax_30_15_10": {
            "Time (s) [avg per one run]": 246.02566666666667,
            "Time (s) [min per one run]": 198.041,
            "Time (s) [max per one run]": 285.018,
            "Objective value [avg per one run]": 0.0,
            "Branch count [avg per one run]": 1389056.3333333333,
            "Solution is optimal [avg per one run]": 1.0,
            "MaxObjective [-1 means no maxObjective]": 4228
        },
        "cscmax_30_15_2": {
            "Time (s) [avg per one run]": 65.027,
            "Time (s) [min per one run]": 12.001,
            "Time (s) [max per one run]": 171.008,
            "Objective value [avg per one run]": 0.0,
            "Branch count [avg per one run]": 382170.3333333333,
            "Solution is optimal [avg per one run]": 1.0,
            "MaxObjective [-1 means no maxObjective]": 4013
        },
        "cscmax_30_15_5": {
            "Time (s) [avg per one run]": 196.71900000000002,
            "Time (s) [min per one run]": 196.004,
            "Time (s) [max per one run]": 197.085,
            "Objective value [avg per one run]": 0.0,
            "Branch count [avg per one run]": 1213125.6666666667,
            "Solution is optimal [avg per one run]": 1.0,
            "MaxObjective [-1 means no maxObjective]": 4263
        },
        "cscmax_30_15_9": {
            "Time (s) [avg per one run]": 27.703999999999997,
            "Time (s) [min per one run]": 25.04,
            "Time (s) [max per one run]": 30.06,
            "Objective value [avg per one run]": 0.0,
            "Branch count [avg per one run]": 194401.0,
            "Solution is optimal [avg per one run]": 1.0,
            "MaxObjective [-1 means no maxObjective]": 4156
        },
        "cscmax_30_20_3": {
            "Time (s) [avg per one run]": 119.04433333333334,
            "Time (s) [min per one run]": 96.041,
            "Time (s) [max per one run]": 144.031,
            "Objective value [avg per one run]": 0.0,
            "Branch count [avg per one run]": 605427.0,
            "Solution is optimal [avg per one run]": 1.0,
            "MaxObjective [-1 means no maxObjective]": 4421
        },
        "cscmax_30_20_4": {
            "Time (s) [avg per one run]": 217.37833333333333,
            "Time (s) [min per one run]": 165.093,
            "Time (s) [max per one run]": 252.017,
            "Objective value [avg per one run]": 0.0,
            "Branch count [avg per one run]": 971802.3333333334,
            "Solution is optimal [avg per one run]": 1.0,
            "MaxObjective [-1 means no maxObjective]": 4431
        },
        "cscmax_30_20_6": {
            "Time (s) [avg per one run]": 142.05166666666665,
            "Time (s) [min per one run]": 130.063,
            "Time (s) [max per one run]": 159.045,
            "Objective value [avg per one run]": 0.0,
            "Branch count [avg per one run]": 692943.0,
            "Solution is optimal [avg per one run]": 1.0,
            "MaxObjective [-1 means no maxObjective]": 4323
        },
        "cscmax_40_20_5": {
            "Time (s) [avg per one run]": 77.70366666666666,
            "Time (s) [min per one run]": 57.059,
            "Time (s) [max per one run]": 116.002,
            "Objective value [avg per one run]": 0.0,
            "Branch count [avg per one run]": 287498.6666666667,
            "Solution is optimal [avg per one run]": 1.0,
            "MaxObjective [-1 means no maxObjective]": 5472
        },
        "cscmax_40_20_6": {
            "Time (s) [avg per one run]": 274.051,
            "Time (s) [min per one run]": 223.016,
            "Time (s) [max per one run]": 311.075,
            "Objective value [avg per one run]": 0.0,
            "Branch count [avg per one run]": 928308.6666666666,
            "Solution is optimal [avg per one run]": 1.0,
            "MaxObjective [-1 means no maxObjective]": 5643
        },
        "cscmax_40_20_9": {
            "Time (s) [avg per one run]": 273.388,
            "Time (s) [min per one run]": 221.087,
            "Time (s) [max per one run]": 316.009,
            "Objective value [avg per one run]": 0.0,
            "Branch count [avg per one run]": 909785.0,
            "Solution is optimal [avg per one run]": 1.0,
            "MaxObjective [-1 means no maxObjective]": 5604
        },
        "cscmax_50_15_3": {
            "Time (s) [avg per one run]": 1.0173333333333334,
            "Time (s) [min per one run]": 0.005,
            "Time (s) [max per one run]": 2.011,
            "Objective value [avg per one run]": 0.0,
            "Branch count [avg per one run]": 7605.333333333333,
            "Solution is optimal [avg per one run]": 1.0,
            "MaxObjective [-1 means no maxObjective]": 6042
        },
        "cscmax_50_15_6": {
            "Time (s) [avg per one run]": 59.379333333333335,
            "Time (s) [min per one run]": 43.069,
            "Time (s) [max per one run]": 85.062,
            "Objective value [avg per one run]": 0.0,
            "Branch count [avg per one run]": 290368.6666666667,
            "Solution is optimal [avg per one run]": 1.0,
            "MaxObjective [-1 means no maxObjective]": 6429
        },
        "cscmax_50_15_8": {
            "Time (s) [avg per one run]": 14.732999999999999,
            "Time (s) [min per one run]": 9.044,
            "Time (s) [max per one run]": 21.097,
            "Objective value [avg per one run]": 0.0,
            "Branch count [avg per one run]": 80200.0,
            "Solution is optimal [avg per one run]": 1.0,
            "MaxObjective [-1 means no maxObjective]": 6102
        },
        "cscmax_50_20_4": {
            "Time (s) [avg per one run]": 177.40600000000003,
            "Time (s) [min per one run]": 158.085,
            "Time (s) [max per one run]": 188.092,
            "Objective value [avg per one run]": 0.0,
            "Branch count [avg per one run]": 537836.3333333334,
            "Solution is optimal [avg per one run]": 1.0,
            "MaxObjective [-1 means no maxObjective]": 6516
        },
        "cscmax_50_20_7": {
            "Time (s) [avg per one run]": 200.05933333333334,
            "Time (s) [min per one run]": 180.096,
            "Time (s) [max per one run]": 226.043,
            "Objective value [avg per one run]": 0.0,
            "Branch count [avg per one run]": 566649.3333333334,
            "Solution is optimal [avg per one run]": 1.0,
            "MaxObjective [-1 means no maxObjective]": 6695
        },
        "rcmax_20_15_1": {
            "Time (s) [avg per one run]": 175.37833333333333,
            "Time (s) [min per one run]": 162.092,
            "Time (s) [max per one run]": 185.038,
            "Objective value [avg per one run]": 0.0,
            "Branch count [avg per one run]": 1343173.0,
            "Solution is optimal [avg per one run]": 1.0,
            "MaxObjective [-1 means no maxObjective]": 2736
        },
        "rcmax_20_15_4": {
            "Time (s) [avg per one run]": 158.06233333333333,
            "Time (s) [min per one run]": 131.061,
            "Time (s) [max per one run]": 199.098,
            "Objective value [avg per one run]": 0.0,
            "Branch count [avg per one run]": 1222346.0,
            "Solution is optimal [avg per one run]": 1.0,
            "MaxObjective [-1 means no maxObjective]": 2530
        },
        "rcmax_20_15_5": {
            "Time (s) [avg per one run]": 172.36066666666667,
            "Time (s) [min per one run]": 156.004,
            "Time (s) [max per one run]": 191.049,
            "Objective value [avg per one run]": 0.0,
            "Branch count [avg per one run]": 1354115.0,
            "Solution is optimal [avg per one run]": 1.0,
            "MaxObjective [-1 means no maxObjective]": 2730
        },
        "rcmax_20_20_4": {
            "Time (s) [avg per one run]": 161.74566666666666,
            "Time (s) [min per one run]": 146.09,
            "Time (s) [max per one run]": 174.099,
            "Objective value [avg per one run]": 0.0,
            "Branch count [avg per one run]": 984360.6666666666,
            "Solution is optimal [avg per one run]": 1.0,
            "MaxObjective [-1 means no maxObjective]": 2966
        },
        "rcmax_20_20_5": {
            "Time (s) [avg per one run]": 154.02633333333333,
            "Time (s) [min per one run]": 136.044,
            "Time (s) [max per one run]": 174.023,
            "Objective value [avg per one run]": 0.0,
            "Branch count [avg per one run]": 974904.6666666666,
            "Solution is optimal [avg per one run]": 1.0,
            "MaxObjective [-1 means no maxObjective]": 2964
        },
        "rcmax_20_20_8": {
            "Time (s) [avg per one run]": 166.731,
            "Time (s) [min per one run]": 148.061,
            "Time (s) [max per one run]": 186.043,
            "Objective value [avg per one run]": 0.0,
            "Branch count [avg per one run]": 1092148.0,
            "Solution is optimal [avg per one run]": 1.0,
            "MaxObjective [-1 means no maxObjective]": 3082
        },
        "rcmax_30_15_10": {
            "Time (s) [avg per one run]": 0.0,
            "Time (s) [min per one run]": 0.0,
            "Time (s) [max per one run]": 0.0,
            "Objective value [avg per one run]": 0.0,
            "Branch count [avg per one run]": 0.0,
            "Solution is optimal [avg per one run]": 1.0,
            "MaxObjective [-1 means no maxObjective]": 3480
        },
        "rcmax_30_15_4": {
            "Time (s) [avg per one run]": 0.0,
            "Time (s) [min per one run]": 0.0,
            "Time (s) [max per one run]": 0.0,
            "Objective value [avg per one run]": 0.0,
            "Branch count [avg per one run]": 0.0,
            "Solution is optimal [avg per one run]": 1.0,
            "MaxObjective [-1 means no maxObjective]": 3393
        },
        "rcmax_30_15_5": {
            "Time (s) [avg per one run]": 0.0,
            "Time (s) [min per one run]": 0.0,
            "Time (s) [max per one run]": 0.0,
            "Objective value [avg per one run]": 0.0,
            "Branch count [avg per one run]": 0.0,
            "Solution is optimal [avg per one run]": 1.0,
            "MaxObjective [-1 means no maxObjective]": 3680
        },
        "rcmax_30_15_9": {
            "Time (s) [avg per one run]": 0.0,
            "Time (s) [min per one run]": 0.0,
            "Time (s) [max per one run]": 0.0,
            "Objective value [avg per one run]": 0.0,
            "Branch count [avg per one run]": 0.0,
            "Solution is optimal [avg per one run]": 1.0,
            "MaxObjective [-1 means no maxObjective]": 3394
        },
        "rcmax_30_20_2": {
            "Time (s) [avg per one run]": 205.39,
            "Time (s) [min per one run]": 181.027,
            "Time (s) [max per one run]": 219.055,
            "Objective value [avg per one run]": 0.0,
            "Branch count [avg per one run]": 811801.0,
            "Solution is optimal [avg per one run]": 1.0,
            "MaxObjective [-1 means no maxObjective]": 3609
        },
        "rcmax_30_20_7": {
            "Time (s) [avg per one run]": 0.0,
            "Time (s) [min per one run]": 0.0,
            "Time (s) [max per one run]": 0.0,
            "Objective value [avg per one run]": 0.0,
            "Branch count [avg per one run]": 0.0,
            "Solution is optimal [avg per one run]": 1.0,
            "MaxObjective [-1 means no maxObjective]": 3733
        },
        "rcmax_40_20_1": {
            "Time (s) [avg per one run]": 0.0,
            "Time (s) [min per one run]": 0.0,
            "Time (s) [max per one run]": 0.0,
            "Objective value [avg per one run]": 0.0,
            "Branch count [avg per one run]": 0.0,
            "Solution is optimal [avg per one run]": 1.0,
            "MaxObjective [-1 means no maxObjective]": 4646
        },
        "rcmax_40_20_2": {
            "Time (s) [avg per one run]": 0.0,
            "Time (s) [min per one run]": 0.0,
            "Time (s) [max per one run]": 0.0,
            "Objective value [avg per one run]": 0.0,
            "Branch count [avg per one run]": 0.0,
            "Solution is optimal [avg per one run]": 1.0,
            "MaxObjective [-1 means no maxObjective]": 4690
        },
        "rcmax_40_20_7": {
            "Time (s) [avg per one run]": 0.0,
            "Time (s) [min per one run]": 0.0,
            "Time (s) [max per one run]": 0.0,
            "Objective value [avg per one run]": 0.0,
            "Branch count [avg per one run]": 0.0,
            "Solution is optimal [avg per one run]": 1.0,
            "MaxObjective [-1 means no maxObjective]": 4731
        },
        "rcmax_50_20_2": {
            "Time (s) [avg per one run]": 0.0,
            "Time (s) [min per one run]": 0.0,
            "Time (s) [max per one run]": 0.0,
            "Objective value [avg per one run]": 0.0,
            "Branch count [avg per one run]": 0.0,
            "Solution is optimal [avg per one run]": 1.0,
            "MaxObjective [-1 means no maxObjective]": 5620
        },
        "rcmax_50_20_6": {
            "Time (s) [avg per one run]": 0.0,
            "Time (s) [min per one run]": 0.0,
            "Time (s) [max per one run]": 0.0,
            "Objective value [avg per one run]": 0.0,
            "Branch count [avg per one run]": 0.0,
            "Solution is optimal [avg per one run]": 1.0,
            "MaxObjective [-1 means no maxObjective]": 5712
        },
        "rcmax_50_20_9": {
            "Time (s) [avg per one run]": 0.0,
            "Time (s) [min per one run]": 0.0,
            "Time (s) [max per one run]": 0.0,
            "Objective value [avg per one run]": 0.0,
            "Branch count [avg per one run]": 0.0,
            "Solution is optimal [avg per one run]": 1.0,
            "MaxObjective [-1 means no maxObjective]": 5746
        },
        "swv04": {
            "Time (s) [avg per one run]": 245.73000000000002,
            "Time (s) [min per one run]": 209.058,
            "Time (s) [max per one run]": 270.064,
            "Objective value [avg per one run]": 0.0,
            "Branch count [avg per one run]": 3424206.0,
            "Solution is optimal [avg per one run]": 1.0,
            "MaxObjective [-1 means no maxObjective]": 1455
        },
        "swv07": {
            "Time (s) [avg per one run]": 204.36400000000003,
            "Time (s) [min per one run]": 163.001,
            "Time (s) [max per one run]": 268.088,
            "Objective value [avg per one run]": 0.0,
            "Branch count [avg per one run]": 1900080.6666666667,
            "Solution is optimal [avg per one run]": 1.0,
            "MaxObjective [-1 means no maxObjective]": 1510
        },
        "swv10": {
            "Time (s) [avg per one run]": 1244.6856666666665,
            "Time (s) [min per one run]": 1134.018,
            "Time (s) [max per one run]": 1325.033,
            "Objective value [avg per one run]": 0.0,
            "Branch count [avg per one run]": 11963660.333333334,
            "Solution is optimal [avg per one run]": 1.0,
            "MaxObjective [-1 means no maxObjective]": 1665
        },
        "swv11": {
            "Time (s) [avg per one run]": 0.0,
            "Time (s) [min per one run]": 0.0,
            "Time (s) [max per one run]": 0.0,
            "Objective value [avg per one run]": 0.0,
            "Branch count [avg per one run]": 0.0,
            "Solution is optimal [avg per one run]": 1.0,
            "MaxObjective [-1 means no maxObjective]": 2982
        },
        "swv14": {
            "Time (s) [avg per one run]": 0.0,
            "Time (s) [min per one run]": 0.0,
            "Time (s) [max per one run]": 0.0,
            "Objective value [avg per one run]": 0.0,
            "Branch count [avg per one run]": 0.0,
            "Solution is optimal [avg per one run]": 1.0,
            "MaxObjective [-1 means no maxObjective]": 2967
        },
        "swv15": {
            "Time (s) [avg per one run]": 0.0,
            "Time (s) [min per one run]": 0.0,
            "Time (s) [max per one run]": 0.0,
            "Objective value [avg per one run]": 0.0,
            "Branch count [avg per one run]": 0.0,
            "Solution is optimal [avg per one run]": 1.0,
            "MaxObjective [-1 means no maxObjective]": 2884
        },
        "ta11": {
            "Time (s) [avg per one run]": 175.0283333333333,
            "Time (s) [min per one run]": 147.029,
            "Time (s) [max per one run]": 201.011,
            "Objective value [avg per one run]": 0.0,
            "Branch count [avg per one run]": 1532907.3333333333,
            "Solution is optimal [avg per one run]": 1.0,
            "MaxObjective [-1 means no maxObjective]": 1332
        },
        "ta12": {
            "Time (s) [avg per one run]": 156.39566666666667,
            "Time (s) [min per one run]": 144.067,
            "Time (s) [max per one run]": 170.054,
            "Objective value [avg per one run]": 0.0,
            "Branch count [avg per one run]": 1206468.3333333333,
            "Solution is optimal [avg per one run]": 1.0,
            "MaxObjective [-1 means no maxObjective]": 1365
        },
        "ta13": {
            "Time (s) [avg per one run]": 183.39133333333334,
            "Time (s) [min per one run]": 174.064,
            "Time (s) [max per one run]": 195.043,
            "Objective value [avg per one run]": 0.0,
            "Branch count [avg per one run]": 1544114.0,
            "Solution is optimal [avg per one run]": 1.0,
            "MaxObjective [-1 means no maxObjective]": 1317
        },
        "ta15": {
            "Time (s) [avg per one run]": 137.73633333333333,
            "Time (s) [min per one run]": 118.089,
            "Time (s) [max per one run]": 151.05,
            "Objective value [avg per one run]": 0.0,
            "Branch count [avg per one run]": 1188288.6666666667,
            "Solution is optimal [avg per one run]": 1.0,
            "MaxObjective [-1 means no maxObjective]": 1326
        },
        "ta16": {
            "Time (s) [avg per one run]": 200.062,
            "Time (s) [min per one run]": 173.025,
            "Time (s) [max per one run]": 233.097,
            "Objective value [avg per one run]": 0.0,
            "Branch count [avg per one run]": 1621693.3333333333,
            "Solution is optimal [avg per one run]": 1.0,
            "MaxObjective [-1 means no maxObjective]": 1337
        },
        "ta21": {
            "Time (s) [avg per one run]": 138.39,
            "Time (s) [min per one run]": 127.077,
            "Time (s) [max per one run]": 144.083,
            "Objective value [avg per one run]": 0.0,
            "Branch count [avg per one run]": 889391.0,
            "Solution is optimal [avg per one run]": 1.0,
            "MaxObjective [-1 means no maxObjective]": 1614
        },
        "ta22": {
            "Time (s) [avg per one run]": 160.702,
            "Time (s) [min per one run]": 149.004,
            "Time (s) [max per one run]": 183.012,
            "Objective value [avg per one run]": 0.0,
            "Branch count [avg per one run]": 1068157.0,
            "Solution is optimal [avg per one run]": 1.0,
            "MaxObjective [-1 means no maxObjective]": 1561
        },
        "ta24": {
            "Time (s) [avg per one run]": 173.05466666666666,
            "Time (s) [min per one run]": 153.029,
            "Time (s) [max per one run]": 187.088,
            "Objective value [avg per one run]": 0.0,
            "Branch count [avg per one run]": 1184956.3333333333,
            "Solution is optimal [avg per one run]": 1.0,
            "MaxObjective [-1 means no maxObjective]": 1638
        },
        "ta25": {
            "Time (s) [avg per one run]": 174.37666666666667,
            "Time (s) [min per one run]": 135.007,
            "Time (s) [max per one run]": 223.062,
            "Objective value [avg per one run]": 0.0,
            "Branch count [avg per one run]": 1200298.6666666667,
            "Solution is optimal [avg per one run]": 1.0,
            "MaxObjective [-1 means no maxObjective]": 1561
        },
        "ta26": {
            "Time (s) [avg per one run]": 181.74433333333332,
            "Time (s) [min per one run]": 172.051,
            "Time (s) [max per one run]": 198.097,
            "Objective value [avg per one run]": 0.0,
            "Branch count [avg per one run]": 1210118.6666666667,
            "Solution is optimal [avg per one run]": 1.0,
            "MaxObjective [-1 means no maxObjective]": 1592
        },
        "ta27": {
            "Time (s) [avg per one run]": 156.38733333333332,
            "Time (s) [min per one run]": 148.075,
            "Time (s) [max per one run]": 171.01,
            "Objective value [avg per one run]": 0.0,
            "Branch count [avg per one run]": 1029207.3333333334,
            "Solution is optimal [avg per one run]": 1.0,
            "MaxObjective [-1 means no maxObjective]": 1648
        },
        "ta29": {
            "Time (s) [avg per one run]": 166.72233333333335,
            "Time (s) [min per one run]": 138.023,
            "Time (s) [max per one run]": 188.064,
            "Objective value [avg per one run]": 0.0,
            "Branch count [avg per one run]": 1013047.0,
            "Solution is optimal [avg per one run]": 1.0,
            "MaxObjective [-1 means no maxObjective]": 1580
        },
        "ta30": {
            "Time (s) [avg per one run]": 62.702,
            "Time (s) [min per one run]": 58.04,
            "Time (s) [max per one run]": 68.021,
            "Objective value [avg per one run]": 0.0,
            "Branch count [avg per one run]": 378424.3333333333,
            "Solution is optimal [avg per one run]": 1.0,
            "MaxObjective [-1 means no maxObjective]": 1510
        },
        "ta32": {
            "Time (s) [avg per one run]": 0.0,
            "Time (s) [min per one run]": 0.0,
            "Time (s) [max per one run]": 0.0,
            "Objective value [avg per one run]": 0.0,
            "Branch count [avg per one run]": 0.0,
            "Solution is optimal [avg per one run]": 1.0,
            "MaxObjective [-1 means no maxObjective]": 1773
        },
        "ta33": {
            "Time (s) [avg per one run]": 107.68766666666666,
            "Time (s) [min per one run]": 94.003,
            "Time (s) [max per one run]": 130.019,
            "Objective value [avg per one run]": 0.0,
            "Branch count [avg per one run]": 562383.0,
            "Solution is optimal [avg per one run]": 1.0,
            "MaxObjective [-1 means no maxObjective]": 1787
        },
        "ta37": {
            "Time (s) [avg per one run]": 0.0,
            "Time (s) [min per one run]": 0.0,
            "Time (s) [max per one run]": 0.0,
            "Objective value [avg per one run]": 0.0,
            "Branch count [avg per one run]": 0.0,
            "Solution is optimal [avg per one run]": 1.0,
            "MaxObjective [-1 means no maxObjective]": 1770
        },
        "ta39": {
            "Time (s) [avg per one run]": 0.0,
            "Time (s) [min per one run]": 0.0,
            "Time (s) [max per one run]": 0.0,
            "Objective value [avg per one run]": 0.0,
            "Branch count [avg per one run]": 0.0,
            "Solution is optimal [avg per one run]": 1.0,
            "MaxObjective [-1 means no maxObjective]": 1794
        },
        "ta40": {
            "Time (s) [avg per one run]": 174.08466666666666,
            "Time (s) [min per one run]": 152.071,
            "Time (s) [max per one run]": 214.098,
            "Objective value [avg per one run]": 0.0,
            "Branch count [avg per one run]": 979522.6666666666,
            "Solution is optimal [avg per one run]": 1.0,
            "MaxObjective [-1 means no maxObjective]": 1650
        },
        "ta41": {
            "Time (s) [avg per one run]": 283.37,
            "Time (s) [min per one run]": 223.001,
            "Time (s) [max per one run]": 344.032,
            "Objective value [avg per one run]": 0.0,
            "Branch count [avg per one run]": 1293217.3333333333,
            "Solution is optimal [avg per one run]": 1.0,
            "MaxObjective [-1 means no maxObjective]": 1904
        },
        "ta42": {
            "Time (s) [avg per one run]": 208.69000000000003,
            "Time (s) [min per one run]": 172.023,
            "Time (s) [max per one run]": 243.023,
            "Objective value [avg per one run]": 0.0,
            "Branch count [avg per one run]": 955074.3333333334,
            "Solution is optimal [avg per one run]": 1.0,
            "MaxObjective [-1 means no maxObjective]": 1884
        },
        "ta46": {
            "Time (s) [avg per one run]": 240.70933333333335,
            "Time (s) [min per one run]": 222.08,
            "Time (s) [max per one run]": 274.046,
            "Objective value [avg per one run]": 0.0,
            "Branch count [avg per one run]": 1077467.6666666667,
            "Solution is optimal [avg per one run]": 1.0,
            "MaxObjective [-1 means no maxObjective]": 1960
        },
        "ta47": {
            "Time (s) [avg per one run]": 208.38433333333333,
            "Time (s) [min per one run]": 131.04,
            "Time (s) [max per one run]": 257.053,
            "Objective value [avg per one run]": 0.0,
            "Branch count [avg per one run]": 785248.3333333334,
            "Solution is optimal [avg per one run]": 1.0,
            "MaxObjective [-1 means no maxObjective]": 1809
        },
        "ta48": {
            "Time (s) [avg per one run]": 0.008,
            "Time (s) [min per one run]": 0.004,
            "Time (s) [max per one run]": 0.012,
            "Objective value [avg per one run]": 0.0,
            "Branch count [avg per one run]": 507.6666666666667,
            "Solution is optimal [avg per one run]": 1.0,
            "MaxObjective [-1 means no maxObjective]": 1911
        },
        "ta56": {
            "Time (s) [avg per one run]": 0.0,
            "Time (s) [min per one run]": 0.0,
            "Time (s) [max per one run]": 0.0,
            "Objective value [avg per one run]": 0.0,
            "Branch count [avg per one run]": 0.0,
            "Solution is optimal [avg per one run]": 1.0,
            "MaxObjective [-1 means no maxObjective]": 2780
        },
        "ta62": {
            "Time (s) [avg per one run]": 0.0,
            "Time (s) [min per one run]": 0.0,
            "Time (s) [max per one run]": 0.0,
            "Objective value [avg per one run]": 0.0,
            "Branch count [avg per one run]": 0.0,
            "Solution is optimal [avg per one run]": 1.0,
            "MaxObjective [-1 means no maxObjective]": 2868
        },
        "ta65": {
            "Time (s) [avg per one run]": 0.0,
            "Time (s) [min per one run]": 0.0,
            "Time (s) [max per one run]": 0.0,
            "Objective value [avg per one run]": 0.0,
            "Branch count [avg per one run]": 0.0,
            "Solution is optimal [avg per one run]": 1.0,
            "MaxObjective [-1 means no maxObjective]": 2724
        },
        "ta69": {
            "Time (s) [avg per one run]": 0.0,
            "Time (s) [min per one run]": 0.0,
            "Time (s) [max per one run]": 0.0,
            "Objective value [avg per one run]": 0.0,
            "Branch count [avg per one run]": 0.0,
            "Solution is optimal [avg per one run]": 1.0,
            "MaxObjective [-1 means no maxObjective]": 3070
        },
        "ta73": {
            "Time (s) [avg per one run]": 0.001,
            "Time (s) [min per one run]": 0.001,
            "Time (s) [max per one run]": 0.001,
            "Objective value [avg per one run]": 0.0,
            "Branch count [avg per one run]": 0.0,
            "Solution is optimal [avg per one run]": 1.0,
            "MaxObjective [-1 means no maxObjective]": 5567
        },
        "ta75": {
            "Time (s) [avg per one run]": 0.001,
            "Time (s) [min per one run]": 0.001,
            "Time (s) [max per one run]": 0.001,
            "Objective value [avg per one run]": 0.0,
            "Branch count [avg per one run]": 0.0,
            "Solution is optimal [avg per one run]": 1.0,
            "MaxObjective [-1 means no maxObjective]": 5391
        },
        "ta77": {
            "Time (s) [avg per one run]": 0.001,
            "Time (s) [min per one run]": 0.001,
            "Time (s) [max per one run]": 0.001,
            "Objective value [avg per one run]": 0.0,
            "Branch count [avg per one run]": 0.0,
            "Solution is optimal [avg per one run]": 1.0,
            "MaxObjective [-1 means no maxObjective]": 5435
        },
        "ta78": {
            "Time (s) [avg per one run]": 0.001,
            "Time (s) [min per one run]": 0.001,
            "Time (s) [max per one run]": 0.001,
            "Objective value [avg per one run]": 0.0,
            "Branch count [avg per one run]": 0.0,
            "Solution is optimal [avg per one run]": 1.0,
            "MaxObjective [-1 means no maxObjective]": 5393
        },
        "ta79": {
            "Time (s) [avg per one run]": 0.001,
            "Time (s) [min per one run]": 0.001,
            "Time (s) [max per one run]": 0.001,
            "Objective value [avg per one run]": 0.0,
            "Branch count [avg per one run]": 0.0,
            "Solution is optimal [avg per one run]": 1.0,
            "MaxObjective [-1 means no maxObjective]": 5357
        },
        "ta80": {
            "Time (s) [avg per one run]": 0.001,
            "Time (s) [min per one run]": 0.001,
            "Time (s) [max per one run]": 0.001,
            "Objective value [avg per one run]": 0.0,
            "Branch count [avg per one run]": 0.0,
            "Solution is optimal [avg per one run]": 1.0,
            "MaxObjective [-1 means no maxObjective]": 5182
        },
        "yn2": {
            "Time (s) [avg per one run]": 133.071,
            "Time (s) [min per one run]": 124.052,
            "Time (s) [max per one run]": 138.085,
            "Objective value [avg per one run]": 0.0,
            "Branch count [avg per one run]": 892620.3333333334,
            "Solution is optimal [avg per one run]": 1.0,
            "MaxObjective [-1 means no maxObjective]": 870
        },
        "yn3": {
            "Time (s) [avg per one run]": 155.02833333333334,
            "Time (s) [min per one run]": 119.028,
            "Time (s) [max per one run]": 208.047,
            "Objective value [avg per one run]": 0.0,
            "Branch count [avg per one run]": 1080922.3333333333,
            "Solution is optimal [avg per one run]": 1.0,
            "MaxObjective [-1 means no maxObjective]": 855
        }
    },
    "params": {
        "FDSEpsilon": "0.1",
        "RLType": "ESOFTMAX",
        "RandomSeed": [
            "1",
            "2",
            "3"
        ]
    },
    "default params for this problem": {
        "NumberOfWorkers": {
            "value": 1
        },
        "NoOverlapPropagationLevel": {
            "value": 4
        },
        "CumulPropagationLevel": {
            "value": 1
        },
        "FDSLengthStepRatio": {
            "value": 0.699999988079071
        }
    },
    "globals": {
        "Time sum (s) [sum of averages per instance]": 5914.107666666665,
        "Time sum (s) [sum of all runs per instance]": 17742.323000000004,
        "Global branch count [sum of averages per instance]": 38445012.00000001,
        "Global branch count [sum of all runs per instance]": 115335036.0,
        "Instance count": 80,
        "Solved (non-optimally and optimally) count [sum of averages per instance]": 80,
        "Optimally solved count [sum of averages per instance]": 80
    }
}