{
    "instances": {
        "abz8": {
            "Time (s) [avg per one run]": 155.36266666666666,
            "Time (s) [min per one run]": 110.04,
            "Time (s) [max per one run]": 202.042,
            "Objective value [avg per one run]": 0.0,
            "Branch count [avg per one run]": 1349368.0,
            "Solution is optimal [avg per one run]": 1.0,
            "MaxObjective [-1 means no maxObjective]": 643
        },
        "cscmax_20_15_1": {
            "Time (s) [avg per one run]": 36.401999999999994,
            "Time (s) [min per one run]": 35.063,
            "Time (s) [max per one run]": 38.073,
            "Objective value [avg per one run]": 0.0,
            "Branch count [avg per one run]": 410574.3333333333,
            "Solution is optimal [avg per one run]": 1.0,
            "MaxObjective [-1 means no maxObjective]": 3160
        },
        "cscmax_20_15_5": {
            "Time (s) [avg per one run]": 161.05833333333334,
            "Time (s) [min per one run]": 51.061,
            "Time (s) [max per one run]": 243.025,
            "Objective value [avg per one run]": 0.0,
            "Branch count [avg per one run]": 1574373.0,
            "Solution is optimal [avg per one run]": 1.0,
            "MaxObjective [-1 means no maxObjective]": 3291
        },
        "cscmax_20_15_7": {
            "Time (s) [avg per one run]": 239.06966666666665,
            "Time (s) [min per one run]": 159.043,
            "Time (s) [max per one run]": 301.068,
            "Objective value [avg per one run]": 0.0,
            "Branch count [avg per one run]": 2226311.6666666665,
            "Solution is optimal [avg per one run]": 1.0,
            "MaxObjective [-1 means no maxObjective]": 3365
        },
        "cscmax_20_15_8": {
            "Time (s) [avg per one run]": 162.39733333333334,
            "Time (s) [min per one run]": 149.069,
            "Time (s) [max per one run]": 171.074,
            "Objective value [avg per one run]": 0.0,
            "Branch count [avg per one run]": 1497295.3333333333,
            "Solution is optimal [avg per one run]": 1.0,
            "MaxObjective [-1 means no maxObjective]": 3375
        },
        "cscmax_20_20_9": {
            "Time (s) [avg per one run]": 161.71433333333334,
            "Time (s) [min per one run]": 111.01,
            "Time (s) [max per one run]": 219.065,
            "Objective value [avg per one run]": 0.0,
            "Branch count [avg per one run]": 1220651.3333333333,
            "Solution is optimal [avg per one run]": 1.0,
            "MaxObjective [-1 means no maxObjective]": 3557
        },
        "cscmax_30_15_10": {
            "Time (s) [avg per one run]": 171.72466666666665,
            "Time (s) [min per one run]": 117.097,
            "Time (s) [max per one run]": 279.048,
            "Objective value [avg per one run]": 0.0,
            "Branch count [avg per one run]": 981988.6666666666,
            "Solution is optimal [avg per one run]": 1.0,
            "MaxObjective [-1 means no maxObjective]": 4228
        },
        "cscmax_30_15_2": {
            "Time (s) [avg per one run]": 126.056,
            "Time (s) [min per one run]": 95.035,
            "Time (s) [max per one run]": 171.056,
            "Objective value [avg per one run]": 0.0,
            "Branch count [avg per one run]": 718850.3333333334,
            "Solution is optimal [avg per one run]": 1.0,
            "MaxObjective [-1 means no maxObjective]": 4013
        },
        "cscmax_30_15_5": {
            "Time (s) [avg per one run]": 180.39,
            "Time (s) [min per one run]": 160.048,
            "Time (s) [max per one run]": 196.023,
            "Objective value [avg per one run]": 0.0,
            "Branch count [avg per one run]": 1094346.6666666667,
            "Solution is optimal [avg per one run]": 1.0,
            "MaxObjective [-1 means no maxObjective]": 4263
        },
        "cscmax_30_15_9": {
            "Time (s) [avg per one run]": 203.35966666666664,
            "Time (s) [min per one run]": 19.042,
            "Time (s) [max per one run]": 395.029,
            "Objective value [avg per one run]": 0.0,
            "Branch count [avg per one run]": 1164914.6666666667,
            "Solution is optimal [avg per one run]": 1.0,
            "MaxObjective [-1 means no maxObjective]": 4156
        },
        "cscmax_30_20_3": {
            "Time (s) [avg per one run]": 92.06433333333332,
            "Time (s) [min per one run]": 69.083,
            "Time (s) [max per one run]": 127.098,
            "Objective value [avg per one run]": 0.0,
            "Branch count [avg per one run]": 491748.0,
            "Solution is optimal [avg per one run]": 1.0,
            "MaxObjective [-1 means no maxObjective]": 4421
        },
        "cscmax_30_20_4": {
            "Time (s) [avg per one run]": 189.391,
            "Time (s) [min per one run]": 138.035,
            "Time (s) [max per one run]": 217.096,
            "Objective value [avg per one run]": 0.0,
            "Branch count [avg per one run]": 886624.3333333334,
            "Solution is optimal [avg per one run]": 1.0,
            "MaxObjective [-1 means no maxObjective]": 4431
        },
        "cscmax_30_20_6": {
            "Time (s) [avg per one run]": 119.68900000000001,
            "Time (s) [min per one run]": 110.001,
            "Time (s) [max per one run]": 131.043,
            "Objective value [avg per one run]": 0.0,
            "Branch count [avg per one run]": 598395.3333333334,
            "Solution is optimal [avg per one run]": 1.0,
            "MaxObjective [-1 means no maxObjective]": 4323
        },
        "cscmax_40_20_5": {
            "Time (s) [avg per one run]": 40.373000000000005,
            "Time (s) [min per one run]": 37.017,
            "Time (s) [max per one run]": 46.075,
            "Objective value [avg per one run]": 0.0,
            "Branch count [avg per one run]": 180546.0,
            "Solution is optimal [avg per one run]": 1.0,
            "MaxObjective [-1 means no maxObjective]": 5472
        },
        "cscmax_40_20_6": {
            "Time (s) [avg per one run]": 212.04833333333332,
            "Time (s) [min per one run]": 132.067,
            "Time (s) [max per one run]": 358.063,
            "Objective value [avg per one run]": 0.0,
            "Branch count [avg per one run]": 731444.3333333334,
            "Solution is optimal [avg per one run]": 1.0,
            "MaxObjective [-1 means no maxObjective]": 5643
        },
        "cscmax_40_20_9": {
            "Time (s) [avg per one run]": 183.74066666666667,
            "Time (s) [min per one run]": 123.08,
            "Time (s) [max per one run]": 278.092,
            "Objective value [avg per one run]": 0.0,
            "Branch count [avg per one run]": 656227.3333333334,
            "Solution is optimal [avg per one run]": 1.0,
            "MaxObjective [-1 means no maxObjective]": 5604
        },
        "cscmax_50_15_3": {
            "Time (s) [avg per one run]": 2.7276666666666665,
            "Time (s) [min per one run]": 1.015,
            "Time (s) [max per one run]": 6.091,
            "Objective value [avg per one run]": 0.0,
            "Branch count [avg per one run]": 19887.666666666668,
            "Solution is optimal [avg per one run]": 1.0,
            "MaxObjective [-1 means no maxObjective]": 6042
        },
        "cscmax_50_15_6": {
            "Time (s) [avg per one run]": 229.38466666666667,
            "Time (s) [min per one run]": 38.037,
            "Time (s) [max per one run]": 611.059,
            "Objective value [avg per one run]": 0.0,
            "Branch count [avg per one run]": 986954.6666666666,
            "Solution is optimal [avg per one run]": 1.0,
            "MaxObjective [-1 means no maxObjective]": 6429
        },
        "cscmax_50_15_8": {
            "Time (s) [avg per one run]": 29.041666666666668,
            "Time (s) [min per one run]": 11.029,
            "Time (s) [max per one run]": 42.041,
            "Objective value [avg per one run]": 0.0,
            "Branch count [avg per one run]": 139962.33333333334,
            "Solution is optimal [avg per one run]": 1.0,
            "MaxObjective [-1 means no maxObjective]": 6102
        },
        "cscmax_50_20_4": {
            "Time (s) [avg per one run]": 112.06700000000001,
            "Time (s) [min per one run]": 109.046,
            "Time (s) [max per one run]": 118.094,
            "Objective value [avg per one run]": 0.0,
            "Branch count [avg per one run]": 381829.0,
            "Solution is optimal [avg per one run]": 1.0,
            "MaxObjective [-1 means no maxObjective]": 6516
        },
        "cscmax_50_20_7": {
            "Time (s) [avg per one run]": 123.72666666666667,
            "Time (s) [min per one run]": 114.093,
            "Time (s) [max per one run]": 132.025,
            "Objective value [avg per one run]": 0.0,
            "Branch count [avg per one run]": 400919.3333333333,
            "Solution is optimal [avg per one run]": 1.0,
            "MaxObjective [-1 means no maxObjective]": 6695
        },
        "rcmax_20_15_1": {
            "Time (s) [avg per one run]": 183.71466666666666,
            "Time (s) [min per one run]": 135.031,
            "Time (s) [max per one run]": 234.075,
            "Objective value [avg per one run]": 0.0,
            "Branch count [avg per one run]": 1435788.6666666667,
            "Solution is optimal [avg per one run]": 1.0,
            "MaxObjective [-1 means no maxObjective]": 2736
        },
        "rcmax_20_15_4": {
            "Time (s) [avg per one run]": 198.71366666666668,
            "Time (s) [min per one run]": 189.047,
            "Time (s) [max per one run]": 215.043,
            "Objective value [avg per one run]": 0.0,
            "Branch count [avg per one run]": 1549757.6666666667,
            "Solution is optimal [avg per one run]": 1.0,
            "MaxObjective [-1 means no maxObjective]": 2530
        },
        "rcmax_20_15_5": {
            "Time (s) [avg per one run]": 227.3926666666667,
            "Time (s) [min per one run]": 218.038,
            "Time (s) [max per one run]": 235.056,
            "Objective value [avg per one run]": 0.0,
            "Branch count [avg per one run]": 1810770.0,
            "Solution is optimal [avg per one run]": 1.0,
            "MaxObjective [-1 means no maxObjective]": 2730
        },
        "rcmax_20_20_4": {
            "Time (s) [avg per one run]": 179.3803333333333,
            "Time (s) [min per one run]": 163.083,
            "Time (s) [max per one run]": 194.035,
            "Objective value [avg per one run]": 0.0,
            "Branch count [avg per one run]": 1119809.0,
            "Solution is optimal [avg per one run]": 1.0,
            "MaxObjective [-1 means no maxObjective]": 2966
        },
        "rcmax_20_20_5": {
            "Time (s) [avg per one run]": 136.74566666666666,
            "Time (s) [min per one run]": 121.095,
            "Time (s) [max per one run]": 149.071,
            "Objective value [avg per one run]": 0.0,
            "Branch count [avg per one run]": 900723.0,
            "Solution is optimal [avg per one run]": 1.0,
            "MaxObjective [-1 means no maxObjective]": 2964
        },
        "rcmax_20_20_8": {
            "Time (s) [avg per one run]": 151.055,
            "Time (s) [min per one run]": 143.099,
            "Time (s) [max per one run]": 160.0,
            "Objective value [avg per one run]": 0.0,
            "Branch count [avg per one run]": 997492.3333333334,
            "Solution is optimal [avg per one run]": 1.0,
            "MaxObjective [-1 means no maxObjective]": 3082
        },
        "rcmax_30_15_10": {
            "Time (s) [avg per one run]": 0.0,
            "Time (s) [min per one run]": 0.0,
            "Time (s) [max per one run]": 0.0,
            "Objective value [avg per one run]": 0.0,
            "Branch count [avg per one run]": 0.0,
            "Solution is optimal [avg per one run]": 1.0,
            "MaxObjective [-1 means no maxObjective]": 3480
        },
        "rcmax_30_15_4": {
            "Time (s) [avg per one run]": 0.0,
            "Time (s) [min per one run]": 0.0,
            "Time (s) [max per one run]": 0.0,
            "Objective value [avg per one run]": 0.0,
            "Branch count [avg per one run]": 0.0,
            "Solution is optimal [avg per one run]": 1.0,
            "MaxObjective [-1 means no maxObjective]": 3393
        },
        "rcmax_30_15_5": {
            "Time (s) [avg per one run]": 0.0,
            "Time (s) [min per one run]": 0.0,
            "Time (s) [max per one run]": 0.0,
            "Objective value [avg per one run]": 0.0,
            "Branch count [avg per one run]": 0.0,
            "Solution is optimal [avg per one run]": 1.0,
            "MaxObjective [-1 means no maxObjective]": 3680
        },
        "rcmax_30_15_9": {
            "Time (s) [avg per one run]": 0.0,
            "Time (s) [min per one run]": 0.0,
            "Time (s) [max per one run]": 0.0,
            "Objective value [avg per one run]": 0.0,
            "Branch count [avg per one run]": 0.0,
            "Solution is optimal [avg per one run]": 1.0,
            "MaxObjective [-1 means no maxObjective]": 3394
        },
        "rcmax_30_20_2": {
            "Time (s) [avg per one run]": 159.04533333333333,
            "Time (s) [min per one run]": 135.005,
            "Time (s) [max per one run]": 183.052,
            "Objective value [avg per one run]": 0.0,
            "Branch count [avg per one run]": 657603.0,
            "Solution is optimal [avg per one run]": 1.0,
            "MaxObjective [-1 means no maxObjective]": 3609
        },
        "rcmax_30_20_7": {
            "Time (s) [avg per one run]": 0.0,
            "Time (s) [min per one run]": 0.0,
            "Time (s) [max per one run]": 0.0,
            "Objective value [avg per one run]": 0.0,
            "Branch count [avg per one run]": 0.0,
            "Solution is optimal [avg per one run]": 1.0,
            "MaxObjective [-1 means no maxObjective]": 3733
        },
        "rcmax_40_20_1": {
            "Time (s) [avg per one run]": 0.0,
            "Time (s) [min per one run]": 0.0,
            "Time (s) [max per one run]": 0.0,
            "Objective value [avg per one run]": 0.0,
            "Branch count [avg per one run]": 0.0,
            "Solution is optimal [avg per one run]": 1.0,
            "MaxObjective [-1 means no maxObjective]": 4646
        },
        "rcmax_40_20_2": {
            "Time (s) [avg per one run]": 0.0,
            "Time (s) [min per one run]": 0.0,
            "Time (s) [max per one run]": 0.0,
            "Objective value [avg per one run]": 0.0,
            "Branch count [avg per one run]": 0.0,
            "Solution is optimal [avg per one run]": 1.0,
            "MaxObjective [-1 means no maxObjective]": 4690
        },
        "rcmax_40_20_7": {
            "Time (s) [avg per one run]": 0.0,
            "Time (s) [min per one run]": 0.0,
            "Time (s) [max per one run]": 0.0,
            "Objective value [avg per one run]": 0.0,
            "Branch count [avg per one run]": 0.0,
            "Solution is optimal [avg per one run]": 1.0,
            "MaxObjective [-1 means no maxObjective]": 4731
        },
        "rcmax_50_20_2": {
            "Time (s) [avg per one run]": 0.0,
            "Time (s) [min per one run]": 0.0,
            "Time (s) [max per one run]": 0.0,
            "Objective value [avg per one run]": 0.0,
            "Branch count [avg per one run]": 0.0,
            "Solution is optimal [avg per one run]": 1.0,
            "MaxObjective [-1 means no maxObjective]": 5620
        },
        "rcmax_50_20_6": {
            "Time (s) [avg per one run]": 0.0,
            "Time (s) [min per one run]": 0.0,
            "Time (s) [max per one run]": 0.0,
            "Objective value [avg per one run]": 0.0,
            "Branch count [avg per one run]": 0.0,
            "Solution is optimal [avg per one run]": 1.0,
            "MaxObjective [-1 means no maxObjective]": 5712
        },
        "rcmax_50_20_9": {
            "Time (s) [avg per one run]": 0.0,
            "Time (s) [min per one run]": 0.0,
            "Time (s) [max per one run]": 0.0,
            "Objective value [avg per one run]": 0.0,
            "Branch count [avg per one run]": 0.0,
            "Solution is optimal [avg per one run]": 1.0,
            "MaxObjective [-1 means no maxObjective]": 5746
        },
        "swv04": {
            "Time (s) [avg per one run]": 918.0526666666668,
            "Time (s) [min per one run]": 169.014,
            "Time (s) [max per one run]": 1536.095,
            "Objective value [avg per one run]": 0.0,
            "Branch count [avg per one run]": 12522820.0,
            "Solution is optimal [avg per one run]": 1.0,
            "MaxObjective [-1 means no maxObjective]": 1455
        },
        "swv07": {
            "Time (s) [avg per one run]": 153.02966666666666,
            "Time (s) [min per one run]": 132.039,
            "Time (s) [max per one run]": 165.036,
            "Objective value [avg per one run]": 0.0,
            "Branch count [avg per one run]": 1457650.3333333333,
            "Solution is optimal [avg per one run]": 1.0,
            "MaxObjective [-1 means no maxObjective]": 1510
        },
        "swv10": {
            "Time (s) [avg per one run]": 1701.3846666666668,
            "Time (s) [min per one run]": 1340.036,
            "Time (s) [max per one run]": 2012.058,
            "Objective value [avg per one run]": 0.0,
            "Branch count [avg per one run]": 16129046.333333334,
            "Solution is optimal [avg per one run]": 1.0,
            "MaxObjective [-1 means no maxObjective]": 1665
        },
        "swv11": {
            "Time (s) [avg per one run]": 0.0,
            "Time (s) [min per one run]": 0.0,
            "Time (s) [max per one run]": 0.0,
            "Objective value [avg per one run]": 0.0,
            "Branch count [avg per one run]": 0.0,
            "Solution is optimal [avg per one run]": 1.0,
            "MaxObjective [-1 means no maxObjective]": 2982
        },
        "swv14": {
            "Time (s) [avg per one run]": 0.0,
            "Time (s) [min per one run]": 0.0,
            "Time (s) [max per one run]": 0.0,
            "Objective value [avg per one run]": 0.0,
            "Branch count [avg per one run]": 0.0,
            "Solution is optimal [avg per one run]": 1.0,
            "MaxObjective [-1 means no maxObjective]": 2967
        },
        "swv15": {
            "Time (s) [avg per one run]": 0.0,
            "Time (s) [min per one run]": 0.0,
            "Time (s) [max per one run]": 0.0,
            "Objective value [avg per one run]": 0.0,
            "Branch count [avg per one run]": 0.0,
            "Solution is optimal [avg per one run]": 1.0,
            "MaxObjective [-1 means no maxObjective]": 2884
        },
        "ta11": {
            "Time (s) [avg per one run]": 187.72566666666668,
            "Time (s) [min per one run]": 164.069,
            "Time (s) [max per one run]": 221.094,
            "Objective value [avg per one run]": 0.0,
            "Branch count [avg per one run]": 1653687.0,
            "Solution is optimal [avg per one run]": 1.0,
            "MaxObjective [-1 means no maxObjective]": 1332
        },
        "ta12": {
            "Time (s) [avg per one run]": 167.71433333333334,
            "Time (s) [min per one run]": 146.046,
            "Time (s) [max per one run]": 179.025,
            "Objective value [avg per one run]": 0.0,
            "Branch count [avg per one run]": 1327216.0,
            "Solution is optimal [avg per one run]": 1.0,
            "MaxObjective [-1 means no maxObjective]": 1365
        },
        "ta13": {
            "Time (s) [avg per one run]": 269.718,
            "Time (s) [min per one run]": 204.083,
            "Time (s) [max per one run]": 385.069,
            "Objective value [avg per one run]": 0.0,
            "Branch count [avg per one run]": 2273405.3333333335,
            "Solution is optimal [avg per one run]": 1.0,
            "MaxObjective [-1 means no maxObjective]": 1317
        },
        "ta15": {
            "Time (s) [avg per one run]": 140.70466666666667,
            "Time (s) [min per one run]": 122.013,
            "Time (s) [max per one run]": 162.004,
            "Objective value [avg per one run]": 0.0,
            "Branch count [avg per one run]": 1244244.0,
            "Solution is optimal [avg per one run]": 1.0,
            "MaxObjective [-1 means no maxObjective]": 1326
        },
        "ta16": {
            "Time (s) [avg per one run]": 203.399,
            "Time (s) [min per one run]": 177.094,
            "Time (s) [max per one run]": 229.071,
            "Objective value [avg per one run]": 0.0,
            "Branch count [avg per one run]": 1672795.0,
            "Solution is optimal [avg per one run]": 1.0,
            "MaxObjective [-1 means no maxObjective]": 1337
        },
        "ta21": {
            "Time (s) [avg per one run]": 158.72833333333332,
            "Time (s) [min per one run]": 123.056,
            "Time (s) [max per one run]": 187.089,
            "Objective value [avg per one run]": 0.0,
            "Branch count [avg per one run]": 1014925.6666666666,
            "Solution is optimal [avg per one run]": 1.0,
            "MaxObjective [-1 means no maxObjective]": 1614
        },
        "ta22": {
            "Time (s) [avg per one run]": 203.07033333333334,
            "Time (s) [min per one run]": 166.06,
            "Time (s) [max per one run]": 227.07,
            "Objective value [avg per one run]": 0.0,
            "Branch count [avg per one run]": 1357934.6666666667,
            "Solution is optimal [avg per one run]": 1.0,
            "MaxObjective [-1 means no maxObjective]": 1561
        },
        "ta24": {
            "Time (s) [avg per one run]": 170.0633333333333,
            "Time (s) [min per one run]": 133.092,
            "Time (s) [max per one run]": 217.058,
            "Objective value [avg per one run]": 0.0,
            "Branch count [avg per one run]": 1163716.3333333333,
            "Solution is optimal [avg per one run]": 1.0,
            "MaxObjective [-1 means no maxObjective]": 1638
        },
        "ta25": {
            "Time (s) [avg per one run]": 221.05033333333336,
            "Time (s) [min per one run]": 157.043,
            "Time (s) [max per one run]": 300.076,
            "Objective value [avg per one run]": 0.0,
            "Branch count [avg per one run]": 1494326.6666666667,
            "Solution is optimal [avg per one run]": 1.0,
            "MaxObjective [-1 means no maxObjective]": 1561
        },
        "ta26": {
            "Time (s) [avg per one run]": 165.034,
            "Time (s) [min per one run]": 132.02,
            "Time (s) [max per one run]": 210.054,
            "Objective value [avg per one run]": 0.0,
            "Branch count [avg per one run]": 1099250.3333333333,
            "Solution is optimal [avg per one run]": 1.0,
            "MaxObjective [-1 means no maxObjective]": 1592
        },
        "ta27": {
            "Time (s) [avg per one run]": 152.34733333333335,
            "Time (s) [min per one run]": 142.03,
            "Time (s) [max per one run]": 166.01,
            "Objective value [avg per one run]": 0.0,
            "Branch count [avg per one run]": 995103.3333333334,
            "Solution is optimal [avg per one run]": 1.0,
            "MaxObjective [-1 means no maxObjective]": 1648
        },
        "ta29": {
            "Time (s) [avg per one run]": 212.74933333333334,
            "Time (s) [min per one run]": 202.07,
            "Time (s) [max per one run]": 219.098,
            "Objective value [avg per one run]": 0.0,
            "Branch count [avg per one run]": 1303246.3333333333,
            "Solution is optimal [avg per one run]": 1.0,
            "MaxObjective [-1 means no maxObjective]": 1580
        },
        "ta30": {
            "Time (s) [avg per one run]": 55.74466666666667,
            "Time (s) [min per one run]": 49.055,
            "Time (s) [max per one run]": 61.08,
            "Objective value [avg per one run]": 0.0,
            "Branch count [avg per one run]": 342487.0,
            "Solution is optimal [avg per one run]": 1.0,
            "MaxObjective [-1 means no maxObjective]": 1510
        },
        "ta32": {
            "Time (s) [avg per one run]": 0.0,
            "Time (s) [min per one run]": 0.0,
            "Time (s) [max per one run]": 0.0,
            "Objective value [avg per one run]": 0.0,
            "Branch count [avg per one run]": 0.0,
            "Solution is optimal [avg per one run]": 1.0,
            "MaxObjective [-1 means no maxObjective]": 1773
        },
        "ta33": {
            "Time (s) [avg per one run]": 72.746,
            "Time (s) [min per one run]": 59.068,
            "Time (s) [max per one run]": 85.096,
            "Objective value [avg per one run]": 0.0,
            "Branch count [avg per one run]": 387822.0,
            "Solution is optimal [avg per one run]": 1.0,
            "MaxObjective [-1 means no maxObjective]": 1787
        },
        "ta37": {
            "Time (s) [avg per one run]": 0.0,
            "Time (s) [min per one run]": 0.0,
            "Time (s) [max per one run]": 0.0,
            "Objective value [avg per one run]": 0.0,
            "Branch count [avg per one run]": 0.0,
            "Solution is optimal [avg per one run]": 1.0,
            "MaxObjective [-1 means no maxObjective]": 1770
        },
        "ta39": {
            "Time (s) [avg per one run]": 0.0,
            "Time (s) [min per one run]": 0.0,
            "Time (s) [max per one run]": 0.0,
            "Objective value [avg per one run]": 0.0,
            "Branch count [avg per one run]": 0.0,
            "Solution is optimal [avg per one run]": 1.0,
            "MaxObjective [-1 means no maxObjective]": 1794
        },
        "ta40": {
            "Time (s) [avg per one run]": 91.72833333333334,
            "Time (s) [min per one run]": 85.021,
            "Time (s) [max per one run]": 97.071,
            "Objective value [avg per one run]": 0.0,
            "Branch count [avg per one run]": 540463.6666666666,
            "Solution is optimal [avg per one run]": 1.0,
            "MaxObjective [-1 means no maxObjective]": 1650
        },
        "ta41": {
            "Time (s) [avg per one run]": 299.0456666666667,
            "Time (s) [min per one run]": 188.023,
            "Time (s) [max per one run]": 502.06,
            "Objective value [avg per one run]": 0.0,
            "Branch count [avg per one run]": 1394685.0,
            "Solution is optimal [avg per one run]": 1.0,
            "MaxObjective [-1 means no maxObjective]": 1904
        },
        "ta42": {
            "Time (s) [avg per one run]": 152.04833333333335,
            "Time (s) [min per one run]": 124.057,
            "Time (s) [max per one run]": 199.026,
            "Objective value [avg per one run]": 0.0,
            "Branch count [avg per one run]": 714765.3333333334,
            "Solution is optimal [avg per one run]": 1.0,
            "MaxObjective [-1 means no maxObjective]": 1884
        },
        "ta46": {
            "Time (s) [avg per one run]": 154.37266666666667,
            "Time (s) [min per one run]": 143.003,
            "Time (s) [max per one run]": 168.083,
            "Objective value [avg per one run]": 0.0,
            "Branch count [avg per one run]": 722966.6666666666,
            "Solution is optimal [avg per one run]": 1.0,
            "MaxObjective [-1 means no maxObjective]": 1960
        },
        "ta47": {
            "Time (s) [avg per one run]": 163.04,
            "Time (s) [min per one run]": 120.024,
            "Time (s) [max per one run]": 208.065,
            "Objective value [avg per one run]": 0.0,
            "Branch count [avg per one run]": 636622.6666666666,
            "Solution is optimal [avg per one run]": 1.0,
            "MaxObjective [-1 means no maxObjective]": 1809
        },
        "ta48": {
            "Time (s) [avg per one run]": 0.006666666666666667,
            "Time (s) [min per one run]": 0.004,
            "Time (s) [max per one run]": 0.01,
            "Objective value [avg per one run]": 0.0,
            "Branch count [avg per one run]": 470.0,
            "Solution is optimal [avg per one run]": 1.0,
            "MaxObjective [-1 means no maxObjective]": 1911
        },
        "ta56": {
            "Time (s) [avg per one run]": 0.0,
            "Time (s) [min per one run]": 0.0,
            "Time (s) [max per one run]": 0.0,
            "Objective value [avg per one run]": 0.0,
            "Branch count [avg per one run]": 0.0,
            "Solution is optimal [avg per one run]": 1.0,
            "MaxObjective [-1 means no maxObjective]": 2780
        },
        "ta62": {
            "Time (s) [avg per one run]": 0.0,
            "Time (s) [min per one run]": 0.0,
            "Time (s) [max per one run]": 0.0,
            "Objective value [avg per one run]": 0.0,
            "Branch count [avg per one run]": 0.0,
            "Solution is optimal [avg per one run]": 1.0,
            "MaxObjective [-1 means no maxObjective]": 2868
        },
        "ta65": {
            "Time (s) [avg per one run]": 0.0,
            "Time (s) [min per one run]": 0.0,
            "Time (s) [max per one run]": 0.0,
            "Objective value [avg per one run]": 0.0,
            "Branch count [avg per one run]": 0.0,
            "Solution is optimal [avg per one run]": 1.0,
            "MaxObjective [-1 means no maxObjective]": 2724
        },
        "ta69": {
            "Time (s) [avg per one run]": 0.0013333333333333333,
            "Time (s) [min per one run]": 0.0,
            "Time (s) [max per one run]": 0.004,
            "Objective value [avg per one run]": 0.0,
            "Branch count [avg per one run]": 0.0,
            "Solution is optimal [avg per one run]": 1.0,
            "MaxObjective [-1 means no maxObjective]": 3070
        },
        "ta73": {
            "Time (s) [avg per one run]": 0.001,
            "Time (s) [min per one run]": 0.001,
            "Time (s) [max per one run]": 0.001,
            "Objective value [avg per one run]": 0.0,
            "Branch count [avg per one run]": 0.0,
            "Solution is optimal [avg per one run]": 1.0,
            "MaxObjective [-1 means no maxObjective]": 5567
        },
        "ta75": {
            "Time (s) [avg per one run]": 0.001,
            "Time (s) [min per one run]": 0.001,
            "Time (s) [max per one run]": 0.001,
            "Objective value [avg per one run]": 0.0,
            "Branch count [avg per one run]": 0.0,
            "Solution is optimal [avg per one run]": 1.0,
            "MaxObjective [-1 means no maxObjective]": 5391
        },
        "ta77": {
            "Time (s) [avg per one run]": 0.001,
            "Time (s) [min per one run]": 0.001,
            "Time (s) [max per one run]": 0.001,
            "Objective value [avg per one run]": 0.0,
            "Branch count [avg per one run]": 0.0,
            "Solution is optimal [avg per one run]": 1.0,
            "MaxObjective [-1 means no maxObjective]": 5435
        },
        "ta78": {
            "Time (s) [avg per one run]": 0.001,
            "Time (s) [min per one run]": 0.001,
            "Time (s) [max per one run]": 0.001,
            "Objective value [avg per one run]": 0.0,
            "Branch count [avg per one run]": 0.0,
            "Solution is optimal [avg per one run]": 1.0,
            "MaxObjective [-1 means no maxObjective]": 5393
        },
        "ta79": {
            "Time (s) [avg per one run]": 0.001,
            "Time (s) [min per one run]": 0.001,
            "Time (s) [max per one run]": 0.001,
            "Objective value [avg per one run]": 0.0,
            "Branch count [avg per one run]": 0.0,
            "Solution is optimal [avg per one run]": 1.0,
            "MaxObjective [-1 means no maxObjective]": 5357
        },
        "ta80": {
            "Time (s) [avg per one run]": 0.001,
            "Time (s) [min per one run]": 0.001,
            "Time (s) [max per one run]": 0.001,
            "Objective value [avg per one run]": 0.0,
            "Branch count [avg per one run]": 0.0,
            "Solution is optimal [avg per one run]": 1.0,
            "MaxObjective [-1 means no maxObjective]": 5182
        },
        "yn2": {
            "Time (s) [avg per one run]": 202.34900000000002,
            "Time (s) [min per one run]": 160.012,
            "Time (s) [max per one run]": 244.011,
            "Objective value [avg per one run]": 0.0,
            "Branch count [avg per one run]": 1361300.3333333333,
            "Solution is optimal [avg per one run]": 1.0,
            "MaxObjective [-1 means no maxObjective]": 870
        },
        "yn3": {
            "Time (s) [avg per one run]": 170.069,
            "Time (s) [min per one run]": 151.076,
            "Time (s) [max per one run]": 194.098,
            "Objective value [avg per one run]": 0.0,
            "Branch count [avg per one run]": 1195989.0,
            "Solution is optimal [avg per one run]": 1.0,
            "MaxObjective [-1 means no maxObjective]": 855
        }
    },
    "params": {
        "FDSEpsilon": "0.03",
        "RLType": "EEUCB",
        "RandomSeed": [
            "1",
            "2",
            "3"
        ]
    },
    "default params for this problem": {
        "NumberOfWorkers": {
            "value": 1
        },
        "NoOverlapPropagationLevel": {
            "value": 4
        },
        "CumulPropagationLevel": {
            "value": 1
        },
        "FDSLengthStepRatio": {
            "value": 0.699999988079071
        }
    },
    "globals": {
        "Time sum (s) [sum of averages per instance]": 13798.72366666667,
        "Time sum (s) [sum of all runs per instance]": 41396.17099999999,
        "Global branch count [sum of averages per instance]": 79648386.66666664,
        "Global branch count [sum of all runs per instance]": 238945160.0,
        "Instance count": 80,
        "Solved (non-optimally and optimally) count [sum of averages per instance]": 80,
        "Optimally solved count [sum of averages per instance]": 80
    }
}