{
    "instances": {
        "j12011_4.sm": {
            "Time (s) [avg per one run]": 30.045666666666666,
            "Time (s) [min per one run]": 24.075,
            "Time (s) [max per one run]": 38.043,
            "Objective value [avg per one run]": 0.0,
            "Branch count [avg per one run]": 149054.0,
            "Solution is optimal [avg per one run]": 1.0,
            "MaxObjective [-1 means no maxObjective]": 181
        },
        "j12011_5.sm": {
            "Time (s) [avg per one run]": 11.036000000000001,
            "Time (s) [min per one run]": 9.052,
            "Time (s) [max per one run]": 15.003,
            "Objective value [avg per one run]": 0.0,
            "Branch count [avg per one run]": 47785.666666666664,
            "Solution is optimal [avg per one run]": 1.0,
            "MaxObjective [-1 means no maxObjective]": 193
        },
        "j12012_3.sm": {
            "Time (s) [avg per one run]": 2.0726666666666667,
            "Time (s) [min per one run]": 2.047,
            "Time (s) [max per one run]": 2.094,
            "Objective value [avg per one run]": 0.0,
            "Branch count [avg per one run]": 10392.333333333334,
            "Solution is optimal [avg per one run]": 1.0,
            "MaxObjective [-1 means no maxObjective]": 131
        },
        "j12012_4.sm": {
            "Time (s) [avg per one run]": 26.385333333333335,
            "Time (s) [min per one run]": 18.044,
            "Time (s) [max per one run]": 38.06,
            "Objective value [avg per one run]": 0.0,
            "Branch count [avg per one run]": 118767.66666666667,
            "Solution is optimal [avg per one run]": 1.0,
            "MaxObjective [-1 means no maxObjective]": 121
        },
        "j12012_5.sm": {
            "Time (s) [avg per one run]": 4.705333333333333,
            "Time (s) [min per one run]": 3.048,
            "Time (s) [max per one run]": 6.068,
            "Objective value [avg per one run]": 0.0,
            "Branch count [avg per one run]": 18032.0,
            "Solution is optimal [avg per one run]": 1.0,
            "MaxObjective [-1 means no maxObjective]": 154
        },
        "j12012_6.sm": {
            "Time (s) [avg per one run]": 1.7426666666666666,
            "Time (s) [min per one run]": 1.082,
            "Time (s) [max per one run]": 2.078,
            "Objective value [avg per one run]": 0.0,
            "Branch count [avg per one run]": 8140.333333333333,
            "Solution is optimal [avg per one run]": 1.0,
            "MaxObjective [-1 means no maxObjective]": 115
        },
        "j12013_10.sm": {
            "Time (s) [avg per one run]": 55.397333333333336,
            "Time (s) [min per one run]": 42.085,
            "Time (s) [max per one run]": 72.049,
            "Objective value [avg per one run]": 0.0,
            "Branch count [avg per one run]": 153598.0,
            "Solution is optimal [avg per one run]": 1.0,
            "MaxObjective [-1 means no maxObjective]": 88
        },
        "j12013_2.sm": {
            "Time (s) [avg per one run]": 0.0,
            "Time (s) [min per one run]": 0.0,
            "Time (s) [max per one run]": 0.0,
            "Objective value [avg per one run]": 0.0,
            "Branch count [avg per one run]": 0.0,
            "Solution is optimal [avg per one run]": 1.0,
            "MaxObjective [-1 means no maxObjective]": 87
        },
        "j12013_3.sm": {
            "Time (s) [avg per one run]": 0.03133333333333333,
            "Time (s) [min per one run]": 0.021,
            "Time (s) [max per one run]": 0.052,
            "Objective value [avg per one run]": 0.0,
            "Branch count [avg per one run]": 953.6666666666666,
            "Solution is optimal [avg per one run]": 1.0,
            "MaxObjective [-1 means no maxObjective]": 114
        },
        "j12013_4.sm": {
            "Time (s) [avg per one run]": 2.068,
            "Time (s) [min per one run]": 2.061,
            "Time (s) [max per one run]": 2.074,
            "Objective value [avg per one run]": 0.0,
            "Branch count [avg per one run]": 7153.333333333333,
            "Solution is optimal [avg per one run]": 1.0,
            "MaxObjective [-1 means no maxObjective]": 107
        },
        "j12014_2.sm": {
            "Time (s) [avg per one run]": 0.07266666666666667,
            "Time (s) [min per one run]": 0.063,
            "Time (s) [max per one run]": 0.081,
            "Objective value [avg per one run]": 0.0,
            "Branch count [avg per one run]": 1778.0,
            "Solution is optimal [avg per one run]": 1.0,
            "MaxObjective [-1 means no maxObjective]": 89
        },
        "j12014_4.sm": {
            "Time (s) [avg per one run]": 0.0,
            "Time (s) [min per one run]": 0.0,
            "Time (s) [max per one run]": 0.0,
            "Objective value [avg per one run]": 0.0,
            "Branch count [avg per one run]": 0.0,
            "Solution is optimal [avg per one run]": 1.0,
            "MaxObjective [-1 means no maxObjective]": 84
        },
        "j12014_5.sm": {
            "Time (s) [avg per one run]": 0.0,
            "Time (s) [min per one run]": 0.0,
            "Time (s) [max per one run]": 0.0,
            "Objective value [avg per one run]": 0.0,
            "Branch count [avg per one run]": 0.0,
            "Solution is optimal [avg per one run]": 1.0,
            "MaxObjective [-1 means no maxObjective]": 92
        },
        "j12014_8.sm": {
            "Time (s) [avg per one run]": 3.347,
            "Time (s) [min per one run]": 3.0,
            "Time (s) [max per one run]": 4.013,
            "Objective value [avg per one run]": 0.0,
            "Branch count [avg per one run]": 10077.0,
            "Solution is optimal [avg per one run]": 1.0,
            "MaxObjective [-1 means no maxObjective]": 109
        },
        "j12016_10.sm": {
            "Time (s) [avg per one run]": 18.037333333333333,
            "Time (s) [min per one run]": 15.008,
            "Time (s) [max per one run]": 24.014,
            "Objective value [avg per one run]": 0.0,
            "Branch count [avg per one run]": 45503.333333333336,
            "Solution is optimal [avg per one run]": 1.0,
            "MaxObjective [-1 means no maxObjective]": 203
        },
        "j12016_2.sm": {
            "Time (s) [avg per one run]": 5.0473333333333334,
            "Time (s) [min per one run]": 4.048,
            "Time (s) [max per one run]": 6.003,
            "Objective value [avg per one run]": 0.0,
            "Branch count [avg per one run]": 11528.666666666666,
            "Solution is optimal [avg per one run]": 1.0,
            "MaxObjective [-1 means no maxObjective]": 219
        },
        "j12016_3.sm": {
            "Time (s) [avg per one run]": 22.031666666666666,
            "Time (s) [min per one run]": 8.012,
            "Time (s) [max per one run]": 35.024,
            "Objective value [avg per one run]": 0.0,
            "Branch count [avg per one run]": 41071.666666666664,
            "Solution is optimal [avg per one run]": 1.0,
            "MaxObjective [-1 means no maxObjective]": 219
        },
        "j12016_4.sm": {
            "Time (s) [avg per one run]": 32.06166666666667,
            "Time (s) [min per one run]": 27.045,
            "Time (s) [max per one run]": 37.061,
            "Objective value [avg per one run]": 0.0,
            "Branch count [avg per one run]": 95947.0,
            "Solution is optimal [avg per one run]": 1.0,
            "MaxObjective [-1 means no maxObjective]": 190
        },
        "j12016_6.sm": {
            "Time (s) [avg per one run]": 0.022000000000000002,
            "Time (s) [min per one run]": 0.015,
            "Time (s) [max per one run]": 0.035,
            "Objective value [avg per one run]": 0.0,
            "Branch count [avg per one run]": 396.6666666666667,
            "Solution is optimal [avg per one run]": 1.0,
            "MaxObjective [-1 means no maxObjective]": 193
        },
        "j12016_7.sm": {
            "Time (s) [avg per one run]": 0.001,
            "Time (s) [min per one run]": 0.0,
            "Time (s) [max per one run]": 0.003,
            "Objective value [avg per one run]": 0.0,
            "Branch count [avg per one run]": 0.0,
            "Solution is optimal [avg per one run]": 1.0,
            "MaxObjective [-1 means no maxObjective]": 173
        },
        "j12016_8.sm": {
            "Time (s) [avg per one run]": 8.383333333333333,
            "Time (s) [min per one run]": 7.021,
            "Time (s) [max per one run]": 10.096,
            "Objective value [avg per one run]": 0.0,
            "Branch count [avg per one run]": 17707.666666666668,
            "Solution is optimal [avg per one run]": 1.0,
            "MaxObjective [-1 means no maxObjective]": 181
        },
        "j12017_1.sm": {
            "Time (s) [avg per one run]": 0.7123333333333334,
            "Time (s) [min per one run]": 0.059,
            "Time (s) [max per one run]": 2.005,
            "Objective value [avg per one run]": 0.0,
            "Branch count [avg per one run]": 1938.3333333333333,
            "Solution is optimal [avg per one run]": 1.0,
            "MaxObjective [-1 means no maxObjective]": 134
        },
        "j12017_2.sm": {
            "Time (s) [avg per one run]": 2.3646666666666665,
            "Time (s) [min per one run]": 2.016,
            "Time (s) [max per one run]": 3.046,
            "Objective value [avg per one run]": 0.0,
            "Branch count [avg per one run]": 4933.333333333333,
            "Solution is optimal [avg per one run]": 1.0,
            "MaxObjective [-1 means no maxObjective]": 120
        },
        "j12017_3.sm": {
            "Time (s) [avg per one run]": 1.719666666666667,
            "Time (s) [min per one run]": 1.043,
            "Time (s) [max per one run]": 3.036,
            "Objective value [avg per one run]": 0.0,
            "Branch count [avg per one run]": 5267.333333333333,
            "Solution is optimal [avg per one run]": 1.0,
            "MaxObjective [-1 means no maxObjective]": 105
        },
        "j12017_5.sm": {
            "Time (s) [avg per one run]": 7.0569999999999995,
            "Time (s) [min per one run]": 6.05,
            "Time (s) [max per one run]": 8.085,
            "Objective value [avg per one run]": 0.0,
            "Branch count [avg per one run]": 16129.0,
            "Solution is optimal [avg per one run]": 1.0,
            "MaxObjective [-1 means no maxObjective]": 122
        },
        "j12017_6.sm": {
            "Time (s) [avg per one run]": 1.0826666666666667,
            "Time (s) [min per one run]": 0.071,
            "Time (s) [max per one run]": 3.081,
            "Objective value [avg per one run]": 0.0,
            "Branch count [avg per one run]": 4444.333333333333,
            "Solution is optimal [avg per one run]": 1.0,
            "MaxObjective [-1 means no maxObjective]": 132
        },
        "j12017_9.sm": {
            "Time (s) [avg per one run]": 4.732333333333334,
            "Time (s) [min per one run]": 4.096,
            "Time (s) [max per one run]": 5.082,
            "Objective value [avg per one run]": 0.0,
            "Branch count [avg per one run]": 11222.0,
            "Solution is optimal [avg per one run]": 1.0,
            "MaxObjective [-1 means no maxObjective]": 128
        },
        "j12018_10.sm": {
            "Time (s) [avg per one run]": 4.37,
            "Time (s) [min per one run]": 3.078,
            "Time (s) [max per one run]": 5.027,
            "Objective value [avg per one run]": 0.0,
            "Branch count [avg per one run]": 8905.666666666666,
            "Solution is optimal [avg per one run]": 1.0,
            "MaxObjective [-1 means no maxObjective]": 96
        },
        "j12018_2.sm": {
            "Time (s) [avg per one run]": 0.0,
            "Time (s) [min per one run]": 0.0,
            "Time (s) [max per one run]": 0.0,
            "Objective value [avg per one run]": 0.0,
            "Branch count [avg per one run]": 0.0,
            "Solution is optimal [avg per one run]": 1.0,
            "MaxObjective [-1 means no maxObjective]": 110
        },
        "j12018_4.sm": {
            "Time (s) [avg per one run]": 0.0,
            "Time (s) [min per one run]": 0.0,
            "Time (s) [max per one run]": 0.0,
            "Objective value [avg per one run]": 0.0,
            "Branch count [avg per one run]": 0.0,
            "Solution is optimal [avg per one run]": 1.0,
            "MaxObjective [-1 means no maxObjective]": 97
        },
        "j12018_6.sm": {
            "Time (s) [avg per one run]": 6.719333333333334,
            "Time (s) [min per one run]": 4.06,
            "Time (s) [max per one run]": 10.084,
            "Objective value [avg per one run]": 0.0,
            "Branch count [avg per one run]": 14649.333333333334,
            "Solution is optimal [avg per one run]": 1.0,
            "MaxObjective [-1 means no maxObjective]": 130
        },
        "j12018_7.sm": {
            "Time (s) [avg per one run]": 2.377,
            "Time (s) [min per one run]": 2.053,
            "Time (s) [max per one run]": 3.022,
            "Objective value [avg per one run]": 0.0,
            "Branch count [avg per one run]": 5617.333333333333,
            "Solution is optimal [avg per one run]": 1.0,
            "MaxObjective [-1 means no maxObjective]": 111
        },
        "j1206_1.sm": {
            "Time (s) [avg per one run]": 21.05366666666667,
            "Time (s) [min per one run]": 15.075,
            "Time (s) [max per one run]": 26.073,
            "Objective value [avg per one run]": 0.0,
            "Branch count [avg per one run]": 186968.0,
            "Solution is optimal [avg per one run]": 1.0,
            "MaxObjective [-1 means no maxObjective]": 135
        },
        "j1206_10.sm": {
            "Time (s) [avg per one run]": 22.710333333333335,
            "Time (s) [min per one run]": 14.048,
            "Time (s) [max per one run]": 34.036,
            "Objective value [avg per one run]": 0.0,
            "Branch count [avg per one run]": 185473.33333333334,
            "Solution is optimal [avg per one run]": 1.0,
            "MaxObjective [-1 means no maxObjective]": 157
        },
        "j1206_3.sm": {
            "Time (s) [avg per one run]": 5.401666666666666,
            "Time (s) [min per one run]": 5.016,
            "Time (s) [max per one run]": 6.098,
            "Objective value [avg per one run]": 0.0,
            "Branch count [avg per one run]": 40467.333333333336,
            "Solution is optimal [avg per one run]": 1.0,
            "MaxObjective [-1 means no maxObjective]": 126
        },
        "j1206_7.sm": {
            "Time (s) [avg per one run]": 14.352666666666666,
            "Time (s) [min per one run]": 8.015,
            "Time (s) [max per one run]": 21.003,
            "Objective value [avg per one run]": 0.0,
            "Branch count [avg per one run]": 90980.33333333333,
            "Solution is optimal [avg per one run]": 1.0,
            "MaxObjective [-1 means no maxObjective]": 153
        },
        "j1207_2.sm": {
            "Time (s) [avg per one run]": 62.02633333333333,
            "Time (s) [min per one run]": 52.068,
            "Time (s) [max per one run]": 68.006,
            "Objective value [avg per one run]": 0.0,
            "Branch count [avg per one run]": 434635.6666666667,
            "Solution is optimal [avg per one run]": 1.0,
            "MaxObjective [-1 means no maxObjective]": 111
        },
        "j1207_5.sm": {
            "Time (s) [avg per one run]": 4.706333333333333,
            "Time (s) [min per one run]": 3.026,
            "Time (s) [max per one run]": 7.02,
            "Objective value [avg per one run]": 0.0,
            "Branch count [avg per one run]": 29627.666666666668,
            "Solution is optimal [avg per one run]": 1.0,
            "MaxObjective [-1 means no maxObjective]": 125
        },
        "j1207_6.sm": {
            "Time (s) [avg per one run]": 9.039333333333333,
            "Time (s) [min per one run]": 7.003,
            "Time (s) [max per one run]": 11.061,
            "Objective value [avg per one run]": 0.0,
            "Branch count [avg per one run]": 49195.333333333336,
            "Solution is optimal [avg per one run]": 1.0,
            "MaxObjective [-1 means no maxObjective]": 115
        },
        "j1207_8.sm": {
            "Time (s) [avg per one run]": 1.0246666666666666,
            "Time (s) [min per one run]": 1.021,
            "Time (s) [max per one run]": 1.028,
            "Objective value [avg per one run]": 0.0,
            "Branch count [avg per one run]": 8313.333333333334,
            "Solution is optimal [avg per one run]": 1.0,
            "MaxObjective [-1 means no maxObjective]": 92
        },
        "j1208_4.sm": {
            "Time (s) [avg per one run]": 4.030666666666667,
            "Time (s) [min per one run]": 3.004,
            "Time (s) [max per one run]": 5.032,
            "Objective value [avg per one run]": 0.0,
            "Branch count [avg per one run]": 30888.333333333332,
            "Solution is optimal [avg per one run]": 1.0,
            "MaxObjective [-1 means no maxObjective]": 89
        },
        "j1208_5.sm": {
            "Time (s) [avg per one run]": 3.7423333333333333,
            "Time (s) [min per one run]": 2.064,
            "Time (s) [max per one run]": 5.072,
            "Objective value [avg per one run]": 0.0,
            "Branch count [avg per one run]": 22551.333333333332,
            "Solution is optimal [avg per one run]": 1.0,
            "MaxObjective [-1 means no maxObjective]": 99
        },
        "j1208_8.sm": {
            "Time (s) [avg per one run]": 0.0,
            "Time (s) [min per one run]": 0.0,
            "Time (s) [max per one run]": 0.0,
            "Objective value [avg per one run]": 0.0,
            "Branch count [avg per one run]": 0.0,
            "Solution is optimal [avg per one run]": 1.0,
            "MaxObjective [-1 means no maxObjective]": 86
        },
        "j1208_9.sm": {
            "Time (s) [avg per one run]": 8.722666666666667,
            "Time (s) [min per one run]": 7.043,
            "Time (s) [max per one run]": 10.087,
            "Objective value [avg per one run]": 0.0,
            "Branch count [avg per one run]": 38369.666666666664,
            "Solution is optimal [avg per one run]": 1.0,
            "MaxObjective [-1 means no maxObjective]": 89
        },
        "j1209_4.sm": {
            "Time (s) [avg per one run]": 3.3816666666666664,
            "Time (s) [min per one run]": 2.032,
            "Time (s) [max per one run]": 5.051,
            "Objective value [avg per one run]": 0.0,
            "Branch count [avg per one run]": 26769.0,
            "Solution is optimal [avg per one run]": 1.0,
            "MaxObjective [-1 means no maxObjective]": 84
        },
        "j6013_10.sm": {
            "Time (s) [avg per one run]": 7.408333333333334,
            "Time (s) [min per one run]": 4.076,
            "Time (s) [max per one run]": 10.076,
            "Objective value [avg per one run]": 0.0,
            "Branch count [avg per one run]": 90066.33333333333,
            "Solution is optimal [avg per one run]": 1.0,
            "MaxObjective [-1 means no maxObjective]": 113
        },
        "j6013_2.sm": {
            "Time (s) [avg per one run]": 0.39633333333333337,
            "Time (s) [min per one run]": 0.07,
            "Time (s) [max per one run]": 1.027,
            "Objective value [avg per one run]": 0.0,
            "Branch count [avg per one run]": 8552.666666666666,
            "Solution is optimal [avg per one run]": 1.0,
            "MaxObjective [-1 means no maxObjective]": 101
        },
        "j6013_3.sm": {
            "Time (s) [avg per one run]": 5.719,
            "Time (s) [min per one run]": 5.046,
            "Time (s) [max per one run]": 7.024,
            "Objective value [avg per one run]": 0.0,
            "Branch count [avg per one run]": 50371.333333333336,
            "Solution is optimal [avg per one run]": 1.0,
            "MaxObjective [-1 means no maxObjective]": 83
        },
        "j6013_6.sm": {
            "Time (s) [avg per one run]": 1.0543333333333333,
            "Time (s) [min per one run]": 1.025,
            "Time (s) [max per one run]": 1.09,
            "Objective value [avg per one run]": 0.0,
            "Branch count [avg per one run]": 11624.0,
            "Solution is optimal [avg per one run]": 1.0,
            "MaxObjective [-1 means no maxObjective]": 90
        },
        "j6013_7.sm": {
            "Time (s) [avg per one run]": 73.028,
            "Time (s) [min per one run]": 67.051,
            "Time (s) [max per one run]": 77.008,
            "Objective value [avg per one run]": 0.0,
            "Branch count [avg per one run]": 464149.0,
            "Solution is optimal [avg per one run]": 1.0,
            "MaxObjective [-1 means no maxObjective]": 82
        },
        "j6013_9.sm": {
            "Time (s) [avg per one run]": 26.39233333333333,
            "Time (s) [min per one run]": 23.043,
            "Time (s) [max per one run]": 30.05,
            "Objective value [avg per one run]": 0.0,
            "Branch count [avg per one run]": 167519.0,
            "Solution is optimal [avg per one run]": 1.0,
            "MaxObjective [-1 means no maxObjective]": 96
        },
        "j6014_3.sm": {
            "Time (s) [avg per one run]": 0.0,
            "Time (s) [min per one run]": 0.0,
            "Time (s) [max per one run]": 0.0,
            "Objective value [avg per one run]": 0.0,
            "Branch count [avg per one run]": 0.0,
            "Solution is optimal [avg per one run]": 1.0,
            "MaxObjective [-1 means no maxObjective]": 60
        },
        "j6025_5.sm": {
            "Time (s) [avg per one run]": 35.38033333333333,
            "Time (s) [min per one run]": 33.05,
            "Time (s) [max per one run]": 37.031,
            "Objective value [avg per one run]": 0.0,
            "Branch count [avg per one run]": 383015.3333333333,
            "Solution is optimal [avg per one run]": 1.0,
            "MaxObjective [-1 means no maxObjective]": 94
        },
        "j6025_6.sm": {
            "Time (s) [avg per one run]": 16.714000000000002,
            "Time (s) [min per one run]": 16.011,
            "Time (s) [max per one run]": 18.079,
            "Objective value [avg per one run]": 0.0,
            "Branch count [avg per one run]": 139518.33333333334,
            "Solution is optimal [avg per one run]": 1.0,
            "MaxObjective [-1 means no maxObjective]": 102
        },
        "j6029_10.sm": {
            "Time (s) [avg per one run]": 9.065666666666667,
            "Time (s) [min per one run]": 6.044,
            "Time (s) [max per one run]": 15.075,
            "Objective value [avg per one run]": 0.0,
            "Branch count [avg per one run]": 72474.33333333333,
            "Solution is optimal [avg per one run]": 1.0,
            "MaxObjective [-1 means no maxObjective]": 110
        },
        "j6029_4.sm": {
            "Time (s) [avg per one run]": 91.36433333333333,
            "Time (s) [min per one run]": 69.025,
            "Time (s) [max per one run]": 117.014,
            "Objective value [avg per one run]": 0.0,
            "Branch count [avg per one run]": 512097.0,
            "Solution is optimal [avg per one run]": 1.0,
            "MaxObjective [-1 means no maxObjective]": 122
        },
        "j6029_5.sm": {
            "Time (s) [avg per one run]": 43.040666666666674,
            "Time (s) [min per one run]": 26.011,
            "Time (s) [max per one run]": 62.084,
            "Objective value [avg per one run]": 0.0,
            "Branch count [avg per one run]": 291768.6666666667,
            "Solution is optimal [avg per one run]": 1.0,
            "MaxObjective [-1 means no maxObjective]": 99
        },
        "j6029_7.sm": {
            "Time (s) [avg per one run]": 28.060333333333332,
            "Time (s) [min per one run]": 26.043,
            "Time (s) [max per one run]": 31.054,
            "Objective value [avg per one run]": 0.0,
            "Branch count [avg per one run]": 220060.33333333334,
            "Solution is optimal [avg per one run]": 1.0,
            "MaxObjective [-1 means no maxObjective]": 115
        },
        "j6029_8.sm": {
            "Time (s) [avg per one run]": 59.061,
            "Time (s) [min per one run]": 51.091,
            "Time (s) [max per one run]": 65.057,
            "Objective value [avg per one run]": 0.0,
            "Branch count [avg per one run]": 358461.3333333333,
            "Solution is optimal [avg per one run]": 1.0,
            "MaxObjective [-1 means no maxObjective]": 97
        },
        "j6029_9.sm": {
            "Time (s) [avg per one run]": 38.02433333333333,
            "Time (s) [min per one run]": 12.017,
            "Time (s) [max per one run]": 86.026,
            "Objective value [avg per one run]": 0.0,
            "Branch count [avg per one run]": 279306.6666666667,
            "Solution is optimal [avg per one run]": 1.0,
            "MaxObjective [-1 means no maxObjective]": 101
        },
        "j6041_3.sm": {
            "Time (s) [avg per one run]": 26.409333333333336,
            "Time (s) [min per one run]": 18.098,
            "Time (s) [max per one run]": 33.066,
            "Objective value [avg per one run]": 0.0,
            "Branch count [avg per one run]": 206880.66666666666,
            "Solution is optimal [avg per one run]": 1.0,
            "MaxObjective [-1 means no maxObjective]": 87
        },
        "j6041_5.sm": {
            "Time (s) [avg per one run]": 92.04400000000003,
            "Time (s) [min per one run]": 39.042,
            "Time (s) [max per one run]": 167.05,
            "Objective value [avg per one run]": 0.0,
            "Branch count [avg per one run]": 785033.6666666666,
            "Solution is optimal [avg per one run]": 1.0,
            "MaxObjective [-1 means no maxObjective]": 106
        },
        "j609_10.sm": {
            "Time (s) [avg per one run]": 25.724333333333334,
            "Time (s) [min per one run]": 16.084,
            "Time (s) [max per one run]": 34.027,
            "Objective value [avg per one run]": 0.0,
            "Branch count [avg per one run]": 182481.66666666666,
            "Solution is optimal [avg per one run]": 1.0,
            "MaxObjective [-1 means no maxObjective]": 89
        },
        "j609_2.sm": {
            "Time (s) [avg per one run]": 57.739,
            "Time (s) [min per one run]": 53.089,
            "Time (s) [max per one run]": 60.092,
            "Objective value [avg per one run]": 0.0,
            "Branch count [avg per one run]": 628080.6666666666,
            "Solution is optimal [avg per one run]": 1.0,
            "MaxObjective [-1 means no maxObjective]": 81
        },
        "j609_3.sm": {
            "Time (s) [avg per one run]": 45.38233333333333,
            "Time (s) [min per one run]": 44.023,
            "Time (s) [max per one run]": 48.051,
            "Objective value [avg per one run]": 0.0,
            "Branch count [avg per one run]": 500802.6666666667,
            "Solution is optimal [avg per one run]": 1.0,
            "MaxObjective [-1 means no maxObjective]": 97
        },
        "j609_7.sm": {
            "Time (s) [avg per one run]": 28.72133333333333,
            "Time (s) [min per one run]": 25.055,
            "Time (s) [max per one run]": 34.043,
            "Objective value [avg per one run]": 0.0,
            "Branch count [avg per one run]": 240262.33333333334,
            "Solution is optimal [avg per one run]": 1.0,
            "MaxObjective [-1 means no maxObjective]": 103
        },
        "j9013_2.sm": {
            "Time (s) [avg per one run]": 12.388666666666667,
            "Time (s) [min per one run]": 9.077,
            "Time (s) [max per one run]": 17.004,
            "Objective value [avg per one run]": 0.0,
            "Branch count [avg per one run]": 67584.33333333333,
            "Solution is optimal [avg per one run]": 1.0,
            "MaxObjective [-1 means no maxObjective]": 119
        },
        "j9013_6.sm": {
            "Time (s) [avg per one run]": 2.0596666666666668,
            "Time (s) [min per one run]": 2.031,
            "Time (s) [max per one run]": 2.076,
            "Objective value [avg per one run]": 0.0,
            "Branch count [avg per one run]": 8801.666666666666,
            "Solution is optimal [avg per one run]": 1.0,
            "MaxObjective [-1 means no maxObjective]": 116
        },
        "j9013_8.sm": {
            "Time (s) [avg per one run]": 5.706,
            "Time (s) [min per one run]": 5.024,
            "Time (s) [max per one run]": 7.059,
            "Objective value [avg per one run]": 0.0,
            "Branch count [avg per one run]": 27327.0,
            "Solution is optimal [avg per one run]": 1.0,
            "MaxObjective [-1 means no maxObjective]": 112
        },
        "j9025_5.sm": {
            "Time (s) [avg per one run]": 7.716,
            "Time (s) [min per one run]": 6.07,
            "Time (s) [max per one run]": 9.014,
            "Objective value [avg per one run]": 0.0,
            "Branch count [avg per one run]": 48887.333333333336,
            "Solution is optimal [avg per one run]": 1.0,
            "MaxObjective [-1 means no maxObjective]": 109
        },
        "j9026_5.sm": {
            "Time (s) [avg per one run]": 2.397,
            "Time (s) [min per one run]": 2.049,
            "Time (s) [max per one run]": 3.065,
            "Objective value [avg per one run]": 0.0,
            "Branch count [avg per one run]": 16965.666666666668,
            "Solution is optimal [avg per one run]": 1.0,
            "MaxObjective [-1 means no maxObjective]": 83
        },
        "j9029_1.sm": {
            "Time (s) [avg per one run]": 54.05966666666666,
            "Time (s) [min per one run]": 27.037,
            "Time (s) [max per one run]": 84.092,
            "Objective value [avg per one run]": 0.0,
            "Branch count [avg per one run]": 224097.66666666666,
            "Solution is optimal [avg per one run]": 1.0,
            "MaxObjective [-1 means no maxObjective]": 126
        },
        "j9029_4.sm": {
            "Time (s) [avg per one run]": 8.684666666666667,
            "Time (s) [min per one run]": 8.024,
            "Time (s) [max per one run]": 9.02,
            "Objective value [avg per one run]": 0.0,
            "Branch count [avg per one run]": 41448.666666666664,
            "Solution is optimal [avg per one run]": 1.0,
            "MaxObjective [-1 means no maxObjective]": 139
        },
        "j9029_5.sm": {
            "Time (s) [avg per one run]": 73.72466666666666,
            "Time (s) [min per one run]": 48.089,
            "Time (s) [max per one run]": 123.077,
            "Objective value [avg per one run]": 0.0,
            "Branch count [avg per one run]": 216592.33333333334,
            "Solution is optimal [avg per one run]": 1.0,
            "MaxObjective [-1 means no maxObjective]": 115
        },
        "j9029_7.sm": {
            "Time (s) [avg per one run]": 20.699333333333332,
            "Time (s) [min per one run]": 16.015,
            "Time (s) [max per one run]": 24.07,
            "Objective value [avg per one run]": 0.0,
            "Branch count [avg per one run]": 114585.66666666667,
            "Solution is optimal [avg per one run]": 1.0,
            "MaxObjective [-1 means no maxObjective]": 159
        },
        "j9029_8.sm": {
            "Time (s) [avg per one run]": 13.369666666666665,
            "Time (s) [min per one run]": 7.068,
            "Time (s) [max per one run]": 25.034,
            "Objective value [avg per one run]": 0.0,
            "Branch count [avg per one run]": 56248.666666666664,
            "Solution is optimal [avg per one run]": 1.0,
            "MaxObjective [-1 means no maxObjective]": 145
        },
        "j9037_2.sm": {
            "Time (s) [avg per one run]": 36.751333333333335,
            "Time (s) [min per one run]": 35.07,
            "Time (s) [max per one run]": 40.097,
            "Objective value [avg per one run]": 0.0,
            "Branch count [avg per one run]": 330430.6666666667,
            "Solution is optimal [avg per one run]": 1.0,
            "MaxObjective [-1 means no maxObjective]": 110
        },
        "j9037_6.sm": {
            "Time (s) [avg per one run]": 66.404,
            "Time (s) [min per one run]": 61.062,
            "Time (s) [max per one run]": 73.061,
            "Objective value [avg per one run]": 0.0,
            "Branch count [avg per one run]": 619184.6666666666,
            "Solution is optimal [avg per one run]": 1.0,
            "MaxObjective [-1 means no maxObjective]": 126
        },
        "j9041_10.sm": {
            "Time (s) [avg per one run]": 17.718,
            "Time (s) [min per one run]": 16.066,
            "Time (s) [max per one run]": 19.012,
            "Objective value [avg per one run]": 0.0,
            "Branch count [avg per one run]": 96727.0,
            "Solution is optimal [avg per one run]": 1.0,
            "MaxObjective [-1 means no maxObjective]": 145
        },
        "j9041_4.sm": {
            "Time (s) [avg per one run]": 40.411,
            "Time (s) [min per one run]": 32.092,
            "Time (s) [max per one run]": 48.064,
            "Objective value [avg per one run]": 0.0,
            "Branch count [avg per one run]": 250867.66666666666,
            "Solution is optimal [avg per one run]": 1.0,
            "MaxObjective [-1 means no maxObjective]": 142
        },
        "j9041_5.sm": {
            "Time (s) [avg per one run]": 21.073333333333334,
            "Time (s) [min per one run]": 12.052,
            "Time (s) [max per one run]": 31.097,
            "Objective value [avg per one run]": 0.0,
            "Branch count [avg per one run]": 101081.66666666667,
            "Solution is optimal [avg per one run]": 1.0,
            "MaxObjective [-1 means no maxObjective]": 116
        },
        "j9041_6.sm": {
            "Time (s) [avg per one run]": 42.69766666666667,
            "Time (s) [min per one run]": 35.001,
            "Time (s) [max per one run]": 50.066,
            "Objective value [avg per one run]": 0.0,
            "Branch count [avg per one run]": 245351.66666666666,
            "Solution is optimal [avg per one run]": 1.0,
            "MaxObjective [-1 means no maxObjective]": 127
        },
        "j9041_7.sm": {
            "Time (s) [avg per one run]": 55.38066666666666,
            "Time (s) [min per one run]": 12.058,
            "Time (s) [max per one run]": 114.053,
            "Objective value [avg per one run]": 0.0,
            "Branch count [avg per one run]": 254787.66666666666,
            "Solution is optimal [avg per one run]": 1.0,
            "MaxObjective [-1 means no maxObjective]": 143
        },
        "j9041_9.sm": {
            "Time (s) [avg per one run]": 20.386666666666667,
            "Time (s) [min per one run]": 18.036,
            "Time (s) [max per one run]": 23.034,
            "Objective value [avg per one run]": 0.0,
            "Branch count [avg per one run]": 98305.33333333333,
            "Solution is optimal [avg per one run]": 1.0,
            "MaxObjective [-1 means no maxObjective]": 109
        },
        "j9045_1.sm": {
            "Time (s) [avg per one run]": 77.38933333333334,
            "Time (s) [min per one run]": 63.091,
            "Time (s) [max per one run]": 98.03,
            "Objective value [avg per one run]": 0.0,
            "Branch count [avg per one run]": 380819.6666666667,
            "Solution is optimal [avg per one run]": 1.0,
            "MaxObjective [-1 means no maxObjective]": 143
        },
        "j9045_3.sm": {
            "Time (s) [avg per one run]": 22.71466666666667,
            "Time (s) [min per one run]": 13.046,
            "Time (s) [max per one run]": 36.029,
            "Objective value [avg per one run]": 0.0,
            "Branch count [avg per one run]": 82320.66666666667,
            "Solution is optimal [avg per one run]": 1.0,
            "MaxObjective [-1 means no maxObjective]": 141
        },
        "j9045_5.sm": {
            "Time (s) [avg per one run]": 0.0,
            "Time (s) [min per one run]": 0.0,
            "Time (s) [max per one run]": 0.0,
            "Objective value [avg per one run]": 0.0,
            "Branch count [avg per one run]": 0.0,
            "Solution is optimal [avg per one run]": 1.0,
            "MaxObjective [-1 means no maxObjective]": 161
        },
        "j905_3.sm": {
            "Time (s) [avg per one run]": 37.70766666666667,
            "Time (s) [min per one run]": 30.008,
            "Time (s) [max per one run]": 46.064,
            "Objective value [avg per one run]": 0.0,
            "Branch count [avg per one run]": 346945.0,
            "Solution is optimal [avg per one run]": 1.0,
            "MaxObjective [-1 means no maxObjective]": 84
        },
        "j905_4.sm": {
            "Time (s) [avg per one run]": 59.032999999999994,
            "Time (s) [min per one run]": 49.017,
            "Time (s) [max per one run]": 75.002,
            "Objective value [avg per one run]": 0.0,
            "Branch count [avg per one run]": 500298.0,
            "Solution is optimal [avg per one run]": 1.0,
            "MaxObjective [-1 means no maxObjective]": 99
        },
        "j905_5.sm": {
            "Time (s) [avg per one run]": 3.0696666666666665,
            "Time (s) [min per one run]": 1.093,
            "Time (s) [max per one run]": 5.092,
            "Objective value [avg per one run]": 0.0,
            "Branch count [avg per one run]": 37848.666666666664,
            "Solution is optimal [avg per one run]": 1.0,
            "MaxObjective [-1 means no maxObjective]": 108
        },
        "j905_6.sm": {
            "Time (s) [avg per one run]": 4.0456666666666665,
            "Time (s) [min per one run]": 4.015,
            "Time (s) [max per one run]": 4.069,
            "Objective value [avg per one run]": 0.0,
            "Branch count [avg per one run]": 35311.0,
            "Solution is optimal [avg per one run]": 1.0,
            "MaxObjective [-1 means no maxObjective]": 84
        },
        "j905_7.sm": {
            "Time (s) [avg per one run]": 0.022333333333333334,
            "Time (s) [min per one run]": 0.014,
            "Time (s) [max per one run]": 0.035,
            "Objective value [avg per one run]": 0.0,
            "Branch count [avg per one run]": 2142.0,
            "Solution is optimal [avg per one run]": 1.0,
            "MaxObjective [-1 means no maxObjective]": 105
        },
        "j905_9.sm": {
            "Time (s) [avg per one run]": 27.386,
            "Time (s) [min per one run]": 24.097,
            "Time (s) [max per one run]": 30.039,
            "Objective value [avg per one run]": 0.0,
            "Branch count [avg per one run]": 227612.33333333334,
            "Solution is optimal [avg per one run]": 1.0,
            "MaxObjective [-1 means no maxObjective]": 111
        },
        "j909_10.sm": {
            "Time (s) [avg per one run]": 47.046,
            "Time (s) [min per one run]": 28.018,
            "Time (s) [max per one run]": 59.043,
            "Objective value [avg per one run]": 0.0,
            "Branch count [avg per one run]": 219344.33333333334,
            "Solution is optimal [avg per one run]": 1.0,
            "MaxObjective [-1 means no maxObjective]": 104
        },
        "j909_3.sm": {
            "Time (s) [avg per one run]": 1.0476666666666665,
            "Time (s) [min per one run]": 1.013,
            "Time (s) [max per one run]": 1.089,
            "Objective value [avg per one run]": 0.0,
            "Branch count [avg per one run]": 7976.333333333333,
            "Solution is optimal [avg per one run]": 1.0,
            "MaxObjective [-1 means no maxObjective]": 97
        },
        "j909_4.sm": {
            "Time (s) [avg per one run]": 19.081333333333333,
            "Time (s) [min per one run]": 16.079,
            "Time (s) [max per one run]": 23.074,
            "Objective value [avg per one run]": 0.0,
            "Branch count [avg per one run]": 100661.33333333333,
            "Solution is optimal [avg per one run]": 1.0,
            "MaxObjective [-1 means no maxObjective]": 119
        },
        "j909_5.sm": {
            "Time (s) [avg per one run]": 39.068666666666665,
            "Time (s) [min per one run]": 27.041,
            "Time (s) [max per one run]": 56.074,
            "Objective value [avg per one run]": 0.0,
            "Branch count [avg per one run]": 203207.0,
            "Solution is optimal [avg per one run]": 1.0,
            "MaxObjective [-1 means no maxObjective]": 128
        },
        "j909_7.sm": {
            "Time (s) [avg per one run]": 17.054000000000002,
            "Time (s) [min per one run]": 15.075,
            "Time (s) [max per one run]": 20.067,
            "Objective value [avg per one run]": 0.0,
            "Branch count [avg per one run]": 103869.33333333333,
            "Solution is optimal [avg per one run]": 1.0,
            "MaxObjective [-1 means no maxObjective]": 102
        },
        "j909_8.sm": {
            "Time (s) [avg per one run]": 84.73200000000001,
            "Time (s) [min per one run]": 68.095,
            "Time (s) [max per one run]": 96.026,
            "Objective value [avg per one run]": 0.0,
            "Branch count [avg per one run]": 471923.0,
            "Solution is optimal [avg per one run]": 1.0,
            "MaxObjective [-1 means no maxObjective]": 110
        },
        "j909_9.sm": {
            "Time (s) [avg per one run]": 4.378333333333333,
            "Time (s) [min per one run]": 2.081,
            "Time (s) [max per one run]": 6.032,
            "Objective value [avg per one run]": 0.0,
            "Branch count [avg per one run]": 28374.333333333332,
            "Solution is optimal [avg per one run]": 1.0,
            "MaxObjective [-1 means no maxObjective]": 105
        }
    },
    "params": {
        "FDSEpsilon": "0.03",
        "RLType": "EEGREEDY",
        "RandomSeed": [
            "1",
            "2",
            "3"
        ]
    },
    "default params for this problem": {
        "NumberOfWorkers": {
            "value": 1
        },
        "NoOverlapPropagationLevel": {
            "value": 2
        },
        "CumulPropagationLevel": {
            "value": 3
        },
        "FDSLengthStepRatio": {
            "value": 0.4
        }
    },
    "globals": {
        "Time sum (s) [sum of averages per instance]": 2127.703333333333,
        "Time sum (s) [sum of all runs per instance]": 6383.11,
        "Global branch count [sum of averages per instance]": 12660890.999999998,
        "Global branch count [sum of all runs per instance]": 37982673.0,
        "Instance count": 100,
        "Solved (non-optimally and optimally) count [sum of averages per instance]": 100,
        "Optimally solved count [sum of averages per instance]": 100
    }
}